<?xml version="1.0" encoding="UTF-8" standalone="no"?>
<!-- Created with Inkscape (http://www.inkscape.org/) -->

<svg
   xmlns:dc="http://purl.org/dc/elements/1.1/"
   xmlns:cc="http://creativecommons.org/ns#"
   xmlns:rdf="http://www.w3.org/1999/02/22-rdf-syntax-ns#"
   xmlns:svg="http://www.w3.org/2000/svg"
   xmlns="http://www.w3.org/2000/svg"
   xmlns:xlink="http://www.w3.org/1999/xlink"
   xmlns:sodipodi="http://sodipodi.sourceforge.net/DTD/sodipodi-0.dtd"
   xmlns:inkscape="http://www.inkscape.org/namespaces/inkscape"
   width="750"
   height="120"
   viewBox="0 0 198.4375 31.750001"
   version="1.1"
   id="svg8"
   inkscape:version="0.92.4 (unknown)"
   sodipodi:docname="03-centos-sig-artwork.svg">
  <defs
     id="defs2">
    <pattern
       patternUnits="userSpaceOnUse"
       width="28.933336"
       height="31.000003"
       patternTransform="matrix(0.26458334,0,0,0.26458334,103.5156,-40.997355)"
       id="pattern4136">
      <g
         style="fill:#ffffff"
         transform="matrix(2.0666669,0,0,2.0666669,-2.0666669,-2.0666669)"
         id="g4122">
        <path
           inkscape:connector-curvature="0"
           d="m 12,1 c 1.662,0 3,1.338 3,3 v 6 c 0,1.662 -1.338,3 -3,3 H 4 C 2.338,13 1,11.662 1,10 V 4 C 1,2.338 2.338,1 4,1 Z m 0,2 H 4 C 3.446,3 3,3.446 3,4 v 6 c 0,0.554 0.446,1 1,1 h 8 c 0.554,0 1,-0.446 1,-1 V 4 C 13,3.446 12.554,3 12,3 Z M 8,14 c -5,0 -5,1 -5,1 0,1 1,1 1,1 h 8 c 1,0 1,-1 1,-1 0,0 0,-1 -5,-1 z"
           style="color:#bebebe;overflow:visible;fill:#ffffff;marker:none"
           overflow="visible"
           id="path4116" />
        <path
           inkscape:connector-curvature="0"
           d="M 8,4 V 9 H 4 v 1 h 8 V 4 Z"
           style="color:#bebebe;overflow:visible;opacity:0.35;fill:#ffffff;marker:none"
           overflow="visible"
           id="path4118" />
        <path
           inkscape:connector-curvature="0"
           d="M 7,4 4,8 h 3 z"
           style="color:#000000;overflow:visible;fill:#ffffff;marker:none"
           overflow="visible"
           id="path4120" />
      </g>
    </pattern>
    <pattern
       inkscape:collect="always"
       xlink:href="#pattern5690"
       id="pattern5725"
       patternTransform="matrix(0.12653986,0.03390625,-0.03390625,0.12653986,4e-6,-4.7e-6)" />
    <pattern
       patternUnits="userSpaceOnUse"
       width="47.999864"
       height="47.999999"
       patternTransform="matrix(0.26458334,0,0,0.26458334,-33.943753,1.0069578)"
       id="pattern5690">
      <g
         id="g3664-7"
         transform="matrix(0.29934017,0,0,0.29934134,30.853064,-278.05575)">
        <g
           id="g12802-3"
           transform="rotate(-90,-298.5197,1636.0002)">
          <g
             id="g12804-6"
             transform="translate(16.279512,-899.16723)">
            <g
               id="g12806-1"
               transform="matrix(1.0666663,0,0,1,-26.935596,-4.1328125e-5)">
              <path
                 style="display:inline;overflow:visible;visibility:visible;fill:none;fill-opacity:1;fill-rule:evenodd;stroke:none;stroke-width:30;marker:none"
                 id="path12808-2"
                 d="m 323.36653,2798.1614 -5.40616,5.8005 -5.40616,-5.8005 v -40.8261 h -18.01333 l 23.41949,-24.8979 23.02487,24.8979 h -17.6187 z"
                 inkscape:connector-curvature="0" />
            </g>
            <g
               id="g12812-9"
               clip-path="url(#clipPath4429-5-2)"
               transform="matrix(1.0722788,0,0,1,-28.850792,-4.1328125e-5)" />
          </g>
        </g>
        <g
           id="g12768-3"
           transform="translate(-351.30671,-902.55818)">
          <g
             id="g12770-1"
             transform="translate(16.279512,-899.16723)">
            <g
               id="g12772-9"
               transform="matrix(1.0666663,0,0,1,-26.935596,-4.1328125e-5)">
              <path
                 style="display:inline;overflow:visible;visibility:visible;fill:none;fill-opacity:1;fill-rule:evenodd;stroke:none;stroke-width:30;marker:none"
                 id="path12774-4"
                 d="m 323.36653,2798.1614 -5.40616,5.8005 -5.40616,-5.8005 v -40.8261 h -18.01333 l 23.41949,-24.8979 23.02487,24.8979 h -17.6187 z"
                 inkscape:connector-curvature="0" />
            </g>
            <g
               id="g12778-7"
               clip-path="url(#clipPath4429-5-2)"
               transform="matrix(1.0722788,0,0,1,-28.850792,-4.1328125e-5)" />
          </g>
        </g>
        <g
           id="g12780-8"
           transform="rotate(90,1045.4823,1742.4169)">
          <g
             id="g12782-4"
             transform="matrix(1.0666663,0,0,1,-26.935596,-4.1328125e-5)">
            <path
               style="display:inline;overflow:visible;visibility:visible;fill:none;fill-opacity:1;fill-rule:evenodd;stroke:none;stroke-width:30;marker:none"
               id="path12784-5"
               d="m 323.36653,2798.1614 -5.40616,5.8005 -5.40616,-5.8005 v -40.8261 h -18.01333 l 23.41949,-24.8979 23.02487,24.8979 h -17.6187 z"
               inkscape:connector-curvature="0" />
          </g>
          <g
             id="g12788-0"
             clip-path="url(#clipPath4429-5-2)"
             transform="matrix(1.0722788,0,0,1,-28.850792,-4.1328125e-5)" />
        </g>
        <g
           id="g12790-3"
           transform="rotate(180,152.75931,1460.3469)">
          <g
             id="g12792-6"
             transform="translate(16.279512,-899.16723)">
            <g
               id="g12794-1"
               transform="matrix(1.0666663,0,0,1,-26.935596,-4.1328125e-5)">
              <path
                 style="display:inline;overflow:visible;visibility:visible;fill:none;fill-opacity:1;fill-rule:evenodd;stroke:none;stroke-width:30;marker:none"
                 id="path12796-0"
                 d="m 323.36653,2798.1614 -5.40616,5.8005 -5.40616,-5.8005 v -40.8261 h -18.01333 l 23.41949,-24.8979 23.02487,24.8979 h -17.6187 z"
                 inkscape:connector-curvature="0" />
            </g>
            <g
               id="g12800-6"
               clip-path="url(#clipPath4429-5-2)"
               transform="matrix(1.0722788,0,0,1,-28.850792,-4.1328125e-5)" />
          </g>
        </g>
        <g
           id="g12742-3"
           transform="translate(-749.79982,-1331.6428)">
          <path
             style="fill:none;fill-opacity:1;stroke:#ffffff;stroke-width:3.54330707;stroke-linecap:butt;stroke-linejoin:miter;stroke-miterlimit:4;stroke-dashoffset:0;stroke-opacity:1"
             id="rect12744-2"
             d="m 671.98437,2285.7893 h 49.60645 v 49.6065 h -49.60645 z"
             inkscape:connector-curvature="0" />
          <path
             style="fill:none;fill-opacity:1;stroke:#ffffff;stroke-width:3.54330707;stroke-linecap:butt;stroke-linejoin:miter;stroke-miterlimit:4;stroke-dashoffset:0;stroke-opacity:1"
             id="rect12746-0"
             d="m 732.22076,2285.7893 h 49.60645 v 49.6065 h -49.60645 z"
             inkscape:connector-curvature="0" />
          <path
             style="fill:none;fill-opacity:1;stroke:#ffffff;stroke-width:3.54330707;stroke-linecap:butt;stroke-linejoin:miter;stroke-miterlimit:4;stroke-dashoffset:0;stroke-opacity:1"
             id="rect12748-6"
             d="m 732.22076,2346.0256 h 49.60645 v 49.6065 h -49.60645 z"
             inkscape:connector-curvature="0" />
          <path
             style="fill:none;fill-opacity:1;stroke:#ffffff;stroke-width:3.54330707;stroke-linecap:butt;stroke-linejoin:miter;stroke-miterlimit:4;stroke-dashoffset:0;stroke-opacity:1"
             id="rect12750-1"
             d="m 671.98437,2346.0256 h 49.60645 v 49.6065 h -49.60645 z"
             inkscape:connector-curvature="0" />
        </g>
        <path
           style="fill:none;stroke:#ffffff;stroke-width:3.54330707;stroke-linecap:butt;stroke-linejoin:miter;stroke-miterlimit:4;stroke-dashoffset:0;stroke-opacity:1"
           id="rect12760-5"
           transform="rotate(-45)"
           d="m -784.62878,642.40875 h 49.60644 v 49.60645 h -49.60644 z"
           inkscape:connector-curvature="0" />
        <path
           style="fill:none;stroke:#ffffff;stroke-width:3.54306793;stroke-linecap:butt;stroke-linejoin:miter;stroke-miterlimit:4;stroke-dasharray:none;stroke-dashoffset:0;stroke-opacity:1"
           id="rect12762-5"
           transform="rotate(-45)"
           d="m -724.39233,642.40875 h 49.60645 v 49.60645 h -49.60645 z"
           inkscape:connector-curvature="0" />
        <path
           style="fill:none;stroke:#ffffff;stroke-width:3.54330707;stroke-linecap:butt;stroke-linejoin:miter;stroke-miterlimit:4;stroke-dashoffset:0;stroke-opacity:1"
           id="rect12764-4"
           d="m -15.377623,1009.0679 35.077058,-35.0771 35.077058,35.0771 -35.077058,35.077 z"
           inkscape:connector-curvature="0" />
        <path
           style="fill:none;stroke:#ffffff;stroke-width:3.54330707;stroke-linecap:butt;stroke-linejoin:miter;stroke-miterlimit:4;stroke-dashoffset:0;stroke-opacity:1"
           id="rect12766-7"
           transform="rotate(-45)"
           d="m -784.62878,702.64508 h 49.60644 v 49.60645 h -49.60644 z"
           inkscape:connector-curvature="0" />
      </g>
    </pattern>
    <clipPath
       id="clipPath4429-5-2">
      <g
         transform="matrix(0.9947658,0,0,1,1.7860989,0)"
         id="g4431-3-8">
        <path
           inkscape:connector-curvature="0"
           d="m 322.54143,2800.9375 -4.43505,5.7298 -4.43495,-5.7298 v -43.1429 h -18.93972 l 23.37467,-25.5367 23.13125,25.5367 h -18.6962 z"
           id="path4433-5-9"
           style="display:inline;overflow:visible;visibility:visible;fill:#efa724;fill-opacity:1;fill-rule:evenodd;stroke:none;stroke-width:30;marker:none" />
      </g>
    </clipPath>
    <clipPath
       id="clipPath6172">
      <g
         transform="matrix(0.9947658,0,0,1,1.7860989,0)"
         id="g6170">
        <path
           inkscape:connector-curvature="0"
           d="m 322.54143,2800.9375 -4.43505,5.7298 -4.43495,-5.7298 v -43.1429 h -18.93972 l 23.37467,-25.5367 23.13125,25.5367 h -18.6962 z"
           id="path6168"
           style="display:inline;overflow:visible;visibility:visible;fill:#efa724;fill-opacity:1;fill-rule:evenodd;stroke:none;stroke-width:30;marker:none" />
      </g>
    </clipPath>
    <clipPath
       id="clipPath6178">
      <g
         transform="matrix(0.9947658,0,0,1,1.7860989,0)"
         id="g6176">
        <path
           inkscape:connector-curvature="0"
           d="m 322.54143,2800.9375 -4.43505,5.7298 -4.43495,-5.7298 v -43.1429 h -18.93972 l 23.37467,-25.5367 23.13125,25.5367 h -18.6962 z"
           id="path6174"
           style="display:inline;overflow:visible;visibility:visible;fill:#efa724;fill-opacity:1;fill-rule:evenodd;stroke:none;stroke-width:30;marker:none" />
      </g>
    </clipPath>
    <clipPath
       id="clipPath6184">
      <g
         transform="matrix(0.9947658,0,0,1,1.7860989,0)"
         id="g6182">
        <path
           inkscape:connector-curvature="0"
           d="m 322.54143,2800.9375 -4.43505,5.7298 -4.43495,-5.7298 v -43.1429 h -18.93972 l 23.37467,-25.5367 23.13125,25.5367 h -18.6962 z"
           id="path6180"
           style="display:inline;overflow:visible;visibility:visible;fill:#efa724;fill-opacity:1;fill-rule:evenodd;stroke:none;stroke-width:30;marker:none" />
      </g>
    </clipPath>
    <clipPath
       clipPathUnits="userSpaceOnUse"
       id="clipPath3897">
      <rect
         style="opacity:1;fill:#000000;fill-opacity:1;stroke:none;stroke-width:1.90394175;stroke-linecap:square;stroke-linejoin:round;stroke-miterlimit:4;stroke-dasharray:none;stroke-dashoffset:0;stroke-opacity:0.23529412;paint-order:markers stroke fill"
         id="rect3899"
         width="198.4375"
         height="31.75"
         x="0"
         y="5e-07" />
    </clipPath>
  </defs>
  <sodipodi:namedview
     id="base"
     pagecolor="#ffffff"
     bordercolor="#666666"
     borderopacity="1.0"
     inkscape:pageopacity="1"
     inkscape:pageshadow="2"
     inkscape:zoom="1.464"
     inkscape:cx="551.00457"
     inkscape:cy="69.049412"
     inkscape:document-units="px"
     inkscape:current-layer="layer2"
     showgrid="false"
     units="px"
     showborder="false"
     inkscape:window-width="1920"
     inkscape:window-height="1016"
     inkscape:window-x="0"
     inkscape:window-y="27"
     inkscape:window-maximized="1"
     fit-margin-top="0"
     fit-margin-left="0"
     fit-margin-right="0"
     fit-margin-bottom="0"
     showguides="true"
     inkscape:guide-bbox="true">
    <sodipodi:guide
       position="0,80.168753"
       orientation="1,0"
       id="guide1074"
       inkscape:locked="false"
       inkscape:label=""
       inkscape:color="rgb(0,0,255)" />
    <sodipodi:guide
       position="5.2916668,30.956251"
       orientation="1,0"
       id="guide1076"
       inkscape:locked="false"
       inkscape:label=""
       inkscape:color="rgb(0,0,255)" />
    <sodipodi:guide
       position="196.32084,-2.1166667"
       orientation="1,0"
       id="guide1078"
       inkscape:locked="false"
       inkscape:label=""
       inkscape:color="rgb(0,0,255)" />
    <sodipodi:guide
       position="136.78958,0"
       orientation="0,1"
       id="guide1080"
       inkscape:locked="false"
       inkscape:label=""
       inkscape:color="rgb(0,0,255)" />
    <sodipodi:guide
       position="137.05417,3.9687501"
       orientation="0,1"
       id="guide1082"
       inkscape:locked="false"
       inkscape:label=""
       inkscape:color="rgb(0,0,255)" />
    <sodipodi:guide
       position="121.44375,31.750001"
       orientation="0,1"
       id="guide1086"
       inkscape:locked="false"
       inkscape:label=""
       inkscape:color="rgb(0,0,255)" />
    <sodipodi:guide
       position="198.4375,5.2639376e-14"
       orientation="1,0"
       id="guide901"
       inkscape:locked="false" />
    <sodipodi:guide
       position="127.59278,-12.28939"
       orientation="-0.70710678,0.70710678"
       id="guide10233"
       inkscape:locked="false" />
  </sodipodi:namedview>
  <metadata
     id="metadata5">
    <rdf:RDF>
      <cc:Work
         rdf:about="">
        <dc:format>image/svg+xml</dc:format>
        <dc:type
           rdf:resource="http://purl.org/dc/dcmitype/StillImage" />
        <dc:title></dc:title>
      </cc:Work>
    </rdf:RDF>
  </metadata>
  <g
     inkscape:label="Layer 1 - Background"
     inkscape:groupmode="layer"
     id="layer1"
     transform="translate(-206.67001,-189.72852)" />
  <g
     inkscape:groupmode="layer"
     id="layer2"
     inkscape:label="Layer 2 - Text">
    <image
       y="3.5527137e-15"
       x="-198.4375"
       id="image1072"
       xlink:href="data:image/png;base64,iVBORw0KGgoAAAANSUhEUgAAAu4AAAB4CAIAAAAi3+DqAAAEt3pUWHRSYXcgcHJvZmlsZSB0eXBl IGV4aWYAAHjarVZrkuYoDvzPKfYI6AXiOOIVsTfY42+CXV1d1d0TMRNjV33YAkSSKQmn9b//7vQf XCSFk1r10krJuLRp48CD5+d6Wsp6f++1VubX+sWe6sckhknQyvNa1tNSwG6fE6q+9v7Vnup4/fjr 6O34cChn5YNhviBfR8KPnd731B6gOcpP23n/W9V+0b2Dv79rBRnT4E848RKS/Pw+KwlQSJNAq/gl cT6WjGe7dhX7lb/04qDfEch/4C+Pd4R80vE4+thW+cbTayf7PX+XpZ8REb9D+LPjjo/8svErf3tP 33s9uwstCXSVd1MfW7xPGAhiVe60grvi3/Bc791we448oNrEVnvKHS+NGGxuUpoUtGnddtAAROXF FS3zYLk2l8qNxxVFz02ba4IOUxxaDSgnMPMPLHTXbWc9LOZYeRJGMsEZYcaXO303/NP7i6O9T5gT HTJvpF+B+YQsYBzlzi9GQQLaL6d2+aX0NPn7dYQVaGaXZscGI/fHRTf6jC25Oku2hKH6ikx1vg5A EdY2gCGBArmQGBXKlbkSgUeHPgHkLModCpAl4wmUrIKaUhnZgLUxp9Idy8aPGeXlpIYUqZAGiQKx VE0L8s0RQpFMTM2sWDW3ZlGkaLFSSi2nTkWVqtVqqbV6bTVcXN28eHX35tG4CcqYpVZabd5ai8Ci oQFfgfEBQ+cuXbv10mv33noMhM/QYaOMOny0EZOnTJSANMus02ebsWghlJYuW2XV5aut2Ii1LVu3 7bLr9t12/FDtVfWrat+V+2vV6FWNr1BnXP1UDeZaP1zQKSd2NINirATF61EAAc1Hs+ykyke5o1lu LEnEGCjtiDPpKAYFdRHbph/afSr3R90S2P27uvHvlEtHun9DuXSk+0m5X3X7jWozbrmVK9DJQnCK CilIv00VMACFbGF6dSOHgZuD8on4nphQPJQADpSwByhXHALonZzDEqop6c5LATyKnfDyVhT1h+AJ DK9AHyBGU28VEqKu7h7FgQkVatdzIPVIDcVQUbTzaOEtyl5ry9qWZygwzsZPJ7K269xz7rEC1dJ8 c2kgsMoawJpojrNMw1DkHqRu8Kv2wPa10Uqf7MYDUVYKYggpih1WRBeDeZSEAWdpcDulVZyWc0zs sPGy6T4Lqs3alevkKDRxpOwRrSHGYAAWynOOACE2sG4KoBPN47ALCnO2+3ggIazbGZYBs4B2nPOY dtj/6LnAGZN5JcTrGeUoYAWOfAb2EhX7l45Uap11QB8viHJs49Bns3mvhuXxIgMHXF+a1hLEYpHL Efa3FTwAuWNjc/nIu75IGX/l4CHfim+O80I+NvjwTongYmXTCEcs4aMkeB6WCpJMpfses2WQxK2f ExyOS5juPo2tdJDQCeTrSksFcTbgCcfBLqKDA3ET+MDSUTB/SGCOeMXws+CJxc5STnw+UKOCxeQR p8wfwfMJ49tbkO/zsWXkNDxc2tDXBOVkmA1k1ABR0POMs5wGgr9pfYngVuWd//puVIRr4HwIM80n pIDI8LEpXGaneWMOjvwEyjrsIvMbEc/xolLHU966cFJ36rNvOXZUrlh1I3Vb+j8BWoW7+tjivAAA AYRpQ0NQSUNDIFBST0ZJTEUAAHicfZE9SMNAHMVfP6SiVUE7iDhkqE4WREUctQpFqBBqhVYdTC79 giYNSYqLo+BacPBjserg4qyrg6sgCH6AuLg6KbpIif9LCi1iPDjux7t7j7t3gL9eZqoZHAdUzTJS ibiQya4KoVcE0Y9u9CIsMVOfE8UkPMfXPXx8vYvxLO9zf44eJWcywCcQzzLdsIg3iKc3LZ3zPnGE FSWF+Jx4zKALEj9yXXb5jXPBYT/PjBjp1DxxhFgotLHcxqxoqMRTxFFF1Sjfn3FZ4bzFWS1XWfOe /IXhnLayzHWaw0hgEUsQIUBGFSWUYSFGq0aKiRTtxz38Q45fJJdMrhIYORZQgQrJ8YP/we9uzfzk hJsUjgMdL7b9MQKEdoFGzba/j227cQIEnoErreWv1IGZT9JrLS16BPRtAxfXLU3eAy53gMEnXTIk RwrQ9OfzwPsZfVMWGLgFutbc3pr7OH0A0tRV8gY4OARGC5S97vHuzvbe/j3T7O8H+yxyd9Wj4VcA AAAJcEhZcwAAS5cAAEuXAe7FbyAAAAAHdElNRQfjBBINOy67KIv8AAAgAElEQVR42u2d6ZbkOHKl r2Eh6e7hnlGlVlVlpd5AmpeZ9/8ptdQ9kjpj8YUkAJsfpK/hC3eCdOL06a6ukxlBGrF8uDDYJXz/ vyjeqMS/LfYDCTIAO9gUnTUq9cAnf1hHsAbOnP8oqv0rmm5CQUdwBiaFby2cw9nmP3fNgBNBRwAh 3YK5u99bZCgJCR1B6uO/kQHA5zGknrtc9hAyABHbpFwMe+kGJGFipDt43vKeCaS73qJ6q0kNpZFs 9/+fYRLEa1jT84MFc+gQ8SdM7Pv3VRHCBTZvgGcfV0fQEZLtAGIoNcIX0fNDMMMmIHE2U3fwS8v8 6ZurDolaGNcWx0joCM76yDHeNuZ8VdOzckzQ8Opy7ac5i3iN+PNkheDLfkhe9MMMYjKg6e07jqn5 zDEXzSRY/8TmrX+OAZBsYBKEL5DBNLdVbOkOaYxgDhUO4nlLogyXWuyL00zaNc3U2jYXWDz6mneE hJ6BLUzydCzSAM1sq9BMN80axJ+I13tRkHMlxrNHZZuCmUTgYwwHxzHZKuIzxzBgU2x+YvOzU2X9 YYvXMAnCpfc04zGhpluYHYI5lO9ESOFc+fE1HWwKqSHU2fFNqytfiamWT9QXAXK+cqmEyvSYJ+OY BntFuoOOoCKYwutHub5UqrN9BZoUNgUIyltWYLYpSU0iYJv0MFM3/Dn62zOpECS85hhnYGKsf3q6 HscbhIRwifjdL8z6sjn2t2Wnh8EcgJ/LCs2+ydcfMlqWR5nrMy3X/SQHmslGiLfdrgT/dDulkoCK wO55OaaRgLM70ky683GOJsAZJAbsoCII6S/NSM029Xrf6e08ow8c4+XGyaZI1vmc4+/3ZcRrRAuE S8QfHtOM3y3ZAoRgkZ+f+DNIoqV8/SGjlTNJuv5v5VPHy2gm6IhmSqx8dPxfP4ctCejn5phm+2FG M7owzXQjzND5Hs4kMClUAB2BhG9BZJuSDPqhmaELMzrwl2OcQfyZj4tg4f9gRrxG+IJwid27x5tk z2lmAwDBAsnaB5qhcCFff8jZq7NJ+v6fLtlCh6pa92hFmIGH2kxNqamTKTXjGGDK820s4DnNzErQ TOtfma4PRRPDJF4CDbNLSASTNlOSY0KQhPGPY5xBsi59xc+HOSH+RPiCaDXRTC2aCQnBAslnj5nd FMzk6w8x/5Vtmr7/zcUfYM6UaeVfz7Ow6Ihm7q18A9nVEUFnuYHJtFo02jcczA4qgg4LXdltT5i5 +mP5C9DYBCrMEyy8WUVOaCbp+FcPUphRIYREGsP5xDHOIlkj3Qz1glhGM9ES0Qq7Nzg7TW9VWrxB uED4gt1nD0SoI/n6Q85/BVvz8Xe3e7/ojVVRpj1hJqMZB4i+tBlqeBS1N6XmdxwIaTwNtOYD7mxO M1kWsC9KzO0XT3cwMVQEFfqykGc0IwOSQdc0MzyOCSAzjvFmrWWHZI1kc0Mi4iFNC7sPREuEK8Tv E81UXPXjNcIFwgXiz+5iqAL5+kMu/gJ2Zv0/bvt2tTcqT4OWhUkogNsN2dnKN6htHBFUBCKYuDGI nNpVmtERUIBmGqOoAles6Q7QbGFi6BDSD6DhQxZwtzQzLGFGBZDKI45hh2SDZO1p3nFFmvlE9IJw hd3beN6rY5pJstyjly5oRmr5+l2+/AbAbv7Xbn7e+Wqqzku1KMzkNEMQGgxwqzRTePvLVYdQ81Mq 5TtvE4+tLJhva5izSGPoEAjbL3xJjeX6JFtQDB1BenBtm935naapXeWYxAuOYYd0i3jd7qzb16vt DidN7xPNVJxds9yjVmlGKrn6Qy5/Bwm7/Wk3/3j4i9pQZRqkGZOhGWxrNHPLeeDmq/nADZTfcTjj mEmYaU+bMUiR5yTdp5nqFNVCsbtsY50BjdI9d49eaGYQwowKIDVM3H9GaibpJZ9jPn9hh/gDoT80 w8Pbi57SzO6j4RgKKVa/q9UfENJu3+z6HwXHhar5FVqfHo80ww2HrBzE+DOl7mtOTHpMl2uYMzDI q2g0fOO9EsQU//JskaxhZK7Q9E8zAUlM2sx+96lzjum33j8zzA7x51Nc8HFuvxIvEb9Ps2hVmjk5 aWpkaSYhVr+p1XdIbXfvdv2/pS5+t5Qr0yjjHGkmbShklSGG+lc+VHCbYyZhps1mDRBDhWDgTs5H KYrq7LZRZuQk4ktnyh5oJiEZkAC7TmjGZ2Ems2PsmWMYaYzk87kqyDmb32nKsoD7pBkaag0kdmcn TXWWZhJi+Re5+i5UaOMP+/ZXLr9dVPUHQherZ1M0U1eJqXHA1MiUqgIIBbODs/5VRRu7MAPk070K vxhTd98Vq46j+BNCQc8ge0r53580AfzURT6kggpgkj45xsSIP/GcN8ucPbvT1BvN8IBloYxmopf8 TlOFFyESL/8kV38KHdl4nbz/javmI6oWvxCaVviJqtMM0eAVi1OOuRnhSZhpW5s50Axu0swDiup7 H+YM4g9IDR1B9AE0bNmCpGb0W9e7vyVEKqgQJulNCzExks9nLw7ubH6nKXhB/DnV5apKM6cnTYVj SETzX9Trn0IvbLJOfv47J7WKkTYxkXW2emaFgEvTDDWZp1LnVevoBDnHnNzVHGgRsC63IC2FKDd0 rEAz5NG3y5wppYae9WDk1DHN3BzOfTShoMK9M2j33z1B/Nn+Xbyh0Iw5OyXpgWaGv/PMTutK0AzR fCW//ZDh0qab5Oe/c7rNI1Ej/K3uyVpgnCPNJEVC1vSC0RO2f+WYexGehJlO1gMCVAAueEri6xex KayB0j04U7JlBxKa264d5RX3CwUdwKY9KCI2RfJZqHS1/1Nik2ExZ7pC1280CinoQDPBAvH6zkvR bCVff8hw5cwuefsPztydTiCn8l5XNfY5qMMBKQPI4C7NtKbh1xQVKkypUkPIaxwzTGGGqNPB216I TAJQbtJ0lWaOv5q8XlyzO1m5M2UI6hBonGVkNIOnKMAqJHQAa7rmmFMPyKldXVNyXWGB+HOKR1Wa OdQCvkIzFL7IX37I6FvuAXmXeHxTZVpjHJtABhAB3FeaoUsD4YZX4m77R35X807trEmY6a9lKr0O kV47JRlYelZPzpTOMoiE5tYrYfbNjkJCh7C2U47JPCCTbWsQM5Z5xqZI1ggXYCCZaKYyMWf61hzx 5tDlKJjL1x9y/ouzafrxN7e7K31VFWaaQ5mOV88DzdiDjWLLEJOP2/ru34WnVKnyo7Q7RxiDE2a6 T9dvNURHmjk5JSkIMT5+uz6cKZ1hgKRmixFWmM05RkBlHNNVksrQPSB72JkkABAsAIeLg49W1xQa 0bbTGSSfCF4QzJBsSEfi9Ydc/MrOpp9/d7uP9npjB/cXWmOcPG8mgEu62h90eHFOKsggT2WoEuFJ mOlSm6HccpLdGMLevTNlNzTTFzuSgIrAXXHMAw/Iqd2lGSLoGRhIu6EZHhtrWoNkjdk3+fqnnP2y 94AsU1i5kjCjmv0o3U7jDJdCBlABjBmYTev9KVWo/KJWkTsOA73K5FXA69OMDqEjmBjOefRgdYFm CxPvFZqWn/NIMzyqNZgEdAh2XdjX9+ABOTrJJ/tMega4plOkn6MpLb/9KV/+GaC8aG8nvVF11d1b mAczGT+/f6E6oZlOxEAhoXQxPeZ+hCdhpqPFCkQw2aFMhHQ3qpU4Mxc0nThTOgOi3KSppRiesWP7 y3DOMdw6x4zYA7I3mpkDmGimRJNKfvsuX34Dkd2+2fgTUkFKGJfPkyhRdaasMNM0ynSzep7lInB+ 0tQFzTRnJ3lrOy4kpIY15WqATsJMPyE6R1uTQIfQIdK4xEo8iG/XlTPlmeVk60TYctiJTjiGW+zY o/eA7IdmBPQCDJhdy51w+FO3kOLbH2r5O0ja3fvRyJodVABGByWUOqv12RDjXE2o5FOaSVt/j3b1 mADWVPnw11fESZhpU4n5Gu00hgqgQph4hJkKnThTtk4zx5HS5mAmgo7ADNMaxzyVB2QPNLMFAcE8 z4X3f3vcF8Qsf1OrP3IPyM3Ps8Ur25CrAGBY06owo1r5NNTO1HDn5x5oJksxGcRG7gI+jnpM6lPc J2GmCMScfIVMm1EhzK7oUByWqNa+M+XeQLsbbaY1PSZbAltJ6mSkE8S035ItQAgW+bie2lknzzwg /yQVuPjTvv9Xbnd/gSA5zejjPw9clamz1hbLUOmMZtrpFlAaztZ68kmY6WCJehxMPqbKtrWS+QA0 B2fKVoAmN9CWmgvV9a4wUtrmGEK6a+HrM0yC+OO5jKz7pJkNAAQv4Gf13bzWw8XLX+S370JFNlmb n39/YGR91Gayf25FmGkHZRpbPUum2XZAM81OTRl8kIAK4Fzt07GJWlrTP0rVu8uOFVS0v6HNLT6Y D0DTjjNlTjMiYJe0Q4Tt3EVQrXGMj0bWTzDhJBsQEC4QcyvLyoAGPhEtflHffgg9t8k6+fkf142s vyJIdrpUgWa8VGVKrbVV7wodaUa1ImdRC/1YBWDXjIA5CTP9KDFXaWYHPcudDcZdpix3pgygGzZy yvNmWqSZpmcHFYBa4Bh/PSCfo/5evEG4yE2aGqeZYUwORPNv6vWHCF5sukne/oPL3u2yaUnfunLC jGqxh1PV6aAmpTLnN7TR7uFcE91DQIWNccyQqKW/5yyuf1BtI/R0Bx1Bz5BuHw/IoV9Ds0leg7tJ oOE9zWi2qd8LJ0EHIIG00VPFzB7ITFeCfaCZeVs04znFnHpAvv+Vk21FBDEpQJe10RuiGdV5WO6s Yc05D7CDSVuhmQbnUhLQQaMcMwkzzS1L1FA/THfQ+3ozz7CFtQlsChVCN+V7wGd3mpqMYaOf48gx DeUpW7M3sp6cB/zYfcUbRAuEL9h9PEnCNUUv8vVfZLTKPSBL+Tlcp5kEQJ5H2Gj5ANXqpy+xejbu vdcezTTTRyiX2pq/PT4JMzWEmTte1tVpJj7Wm7m/LI2kPlBm5GSgVENGTswuJRG0QDNNzaONckzr HpBTq0wzmV3iEvHIaYbCuXz9Fzl7dTZNP/7epJF15llbimYKCDOqnw5xulS0ZyDMLs+bYfarflSe G5hxTAuz1STMVP4uLfXDNCsuF3iZ7tDSGGeYFCYrxh3UBRpmdomnNKMCCNlMJaHJA9L3fs2IPxG+ IHxB/DHKsoQUzMTrDzn/lZ1JP/+fiz+r98ZbCJLTTACTNBXDllHm/upJ7Rc6dA4wkCqfJvzhGALS 9mbkSZgpSXuXEMMtaIS74w3t8QszADuQyC8P271XGtXKPWJ3ckO7iaHYEMeo0t5b1yFmg3Q9Qcww aCZaIlxi9zEqpwgdytcfcv5PYGfW/92qkTVMAh1AhUWdXh4JM6qfkDWVE1NwjgB8oZnsXImyI0Nu d7xNwky/YsxXqs59msLn0Gb4rDeaGDaBCmoZOTHv680ETdBM7QGoAkiFtN6pfw8ekFOrPbvuPhAt ES2xex/Dh1OBfP1TLv4CwGz/Uc7IujKCpAl0UNrppTeUuVg9L5WYThZXT2iG9nc1TQc3S28F1jea 6el5iHp4MGf31fOCe7neYxNmTt4rjfc8V9XIiS+ygPtrUkPU4xh2SDeIJ4gZKM18InpBlGkzg/2C UuVG1iTs7s1u3zpdIkvRzF1hpkNVhnr1zeqfZrrkmHGtiE1/h8t+2GWgjjSDJyiFzleIMLujnh+W VwIadv3TTFa5qvItjMkDchykntFMdkN7cDQjVO4BKYTdvR8hprwrdR0EQVrJhfcaynSwLX5kW9MN 4vRJMwStO+WYSZgpAjG9PNiBZiRuVm4djzBz40Wya+qZX5VUpePcL81IBalg0yrTCDPMFvF6sk8a F80sEQ9HmxFSrH5Xy98hld192O1bz73xqFU/qsl0m4paRplsFvNnUnYWRJAKzJ12O6VBoluOmYSZ a13Rk0A5m8sS4LGX2+J7Mww7JFsIARWWNnI60IxQ3OVELFXui1K6xMPkATlSmonXiF4QLlDnsk9H 06AQy3+W376TDGz84T5+8tVu3LEwww341qm2dp+nC8PjdaJDneBg1Gm6Mt1VAYSASfvo5ZMwU5Ok W3swZ2AOFmvpMwozx1BkQJNAhbloWo5mgjye/nIM7+2TJg/IMTZnsftE+ILgBYmvNJN7QP4pVGiT tfn4O3vUG6kEzdygohZQxv/5t0uaURqiDz3G3xWRuxy9XgfKGVhA3qaZZxBmTteDZAMhocMSzpQ5 zSjugGZEJY7x0QNyai3QTPyJcIHgBfGnX3WPiMTiV/ntT6HnNl0nb3/lIvdnOxZmLmjmfjXRaz9K Nbn7vJOL4JUwc0YzbUKG0hCyJz3muYWZJqGkzUBlhrFSA3xlgXweYeZsSdhAKqiwqJETW7ZonWaE hNKwpgTH+OsBObWWaCZzNligwdq4NefBxav69kMEC5tukre/cr+98SEeHWimSG30tlBmcHNuvooE sO3QjDxwTN+5YH6tiNTuIK9XhK2HQGV6jAzAGG8WBZebYTJiKA40bNmBhGK0U9dbSKgA1hQVz2yK +GP8EDNV87ukGYN4jWCOcI540y/N0OybfP0hw6Uzu+T9P78YWVMPwkyRpYF5X68huFd97cuzqQZ2 nwVnf9+EmWzGkboVmpEK0g+O8U6Y4bY6QIsU0nKgsgVSBTBfaObmqBnaKlIBE3Og0VAhxCPfA2cZ Gc00fT8x4xhXjGNsimSNdIupPWezBskG4QIBkKz7gZhoKV9/yOibs3H68V8u8ak3FsEjdvuTJl28 YkU9lBmB+t0GzUgFoWBTj+7m+SXMcPPDY+iBsmleecjwSGuNcEUizHJTijhTtkEzQkAFcPax7asz iJ/MyHq6HHmLZuINwjnQNc1QuJCvP3IPyM+/ufi+I6mvwsyBZvTdaqLnz6Yq7j6pYqVO74SZbK5U Ok/oe/DZCnxUoSAUnKnryTJmYaa5DtAddrQfKJuAcMUw9uuoYR6ktl8dEws7UzrLIBKKGQ2Y4xw5 JnkAMZkS82wHLozJu/vmmhJvEM6AOZJNFwgQzOTrD5F7QP638yVZpwYeHbWZoIg2Ux5lRlmnJJsl C9HM/blPQmYc49/GemQ1Ztqz8eoxUCaBQrOGsWMQZo5Ak+QyqgpvfiNnGCCp2NarHUUZx7h70+hk ZD0pM3doJiEEs7yyc3tNR/L1h5z/CnZm/T8ljaw9FmaQ+dbdpZmTZ1Mldp+NzO9+CjPZtu8xzdBQ OQaH/ZP/HpOPnqdLL9LuA3VqOXnoSE94lenOT8iA5o4zZU4zmisf8pKADu/pMeyQrJFsJvukqd0b ywCCGYBWaEYF8vWHXPwFYLP9R4tG1l1fzD4dy+5ocnL3kLcYyjxFxdgTmjHpDVbluxyjPeYYL6HF HyXGH2EGJ2W8mzCMHZcwc/KBDs6UUl/5WM4wqCLNkIC+fa40GVlPrQrNMC7vENVoUsvX7/LlNwB2 +2ZruXOTf0dR5490qI0ur9Xf2o999WDFa2NC91SYQV5FXuo9ABb+wL7rMcMXZnpTYnoKVDZ0dYR0 l09SZ6NmyMcZDWLifWdKl4J0aZrJzpWYr2wB2SHdIl43kIUzHjSdcmUKjGUi6BkYMLVpRiq5+kMu fwcJG2cekJ0gdY/CzCnN4GY10dso48vi0fnIvEcz1wIiBKSCc8NIbhiiMNOLQNLzmQ7nVou1DWNH K8ycEcZ1Z8ozy8kiMSTKjbHS84IWk5G1V2NzcC2Nj9pM5WpDmQfk6g8IufeAbKo3ei/M5DSTQl2r JkrXUSZzsW65g/orzJzSjPqyM+MrezipwW44xc0GJcz4OFF2FihGml1HzExJ3JQx8wBorjlTlqAZ IqjwkmOYYSYPyLthn1pRmqE8b6YszZAQq9/U6juktvGH3fRkZN29lcElzWS+dRrA16LbqmuIGZY2 k2UB3+5hUBrODWyaG4Aw4wfE9I8OpxZruxGJ+dxWL7zmTHlCM7drRx045lhglJHGSCYPyKk1RTM7 EPI7TQU9uUiI5V/k6nvmAWlb9IDsSZgpi0e5b53+Whv9gDKi61nbZ2HmSDPBTZrJOIbdALdrPgsz NAThocNAHS3Wopxm8v3GwLGmVUz84kx5rs3wySg4cEwA4OjINnlAFhYMphiUaMkOIAQLJPwAkYnE yz/J1Z9Cz2xy8IBsee71+WL2oR39E89oRvUAMcPSZpQGvtAMCSg1PD3Ga2HGS4jx4Uwnp5kop5lJ mCkONCfOlDnNCM3uotpCxjEEE+ehTj5hJogptS+aWnGa2SIAggWS9Y1NMtH8F/X6p9B+eED6Jsyc 0cyxNrrqc6b2XJhBVnAwoxkFa/KIE0EqMA/5+NwzYcbnk83rvbTbQGUZGyrK82YwinTLbjDxxJky u55NQp+o9AS955hMiZmMrCeS6YBmQspp5iyIRPOV/JZ5QG6veUD2oYJ4KMxg7wadaTNg3LjBNLWr NLOPrLyWRD0JM2MSY/xc+A95MxjHJVjurhfunSlZh6QikpqzfNWMY+I14neku6mXTa2jFm8RzhAs 8kNMAkUr+fpDhitndsnHf3HyTI6k1fDo4MJrjQco478wk9FMtrHLDobZwY7gTma/gZ0IphpVx9Ah SH6Rpulke0cXW73bu2l6rk5oUzjDJqVwQUKykLAp1v+LJHMemDpk+RUo+8+kzVRoyRbBHDoiFclv 32X0zdk0/fy7S/r1wehJmLn3M28/kjX5IQlIQci7b1XgCSr8rQc/4c6foYpzIhHA4Lu/ju5/YIIK wRbO3A4anT9M2fmR9v9FLXbUy3+6WAUrzOn0ZY28/fmyeyXSnndQOn+AAhF4HGDqbSqo5ohZ0Jwv G7pZdenL38j7gNBRubn1PMz1ehrdwKPbQ+wSrm7/hJY/H9uYWMOkSDaQAWbB2a+7M8fU6WjtvRz3 1PFJQkjMpszf6nQul7+p2a8gmN2Hzcy8dNTfkz8a3VyqIxb4jVyCoG7OJkQQ5xWlrm2dq01qpf5g EZNM/rLXrPBz6MHei+nBDz9U+Wy8wOLp7F+Rd6nK3yi9Ob/FH4X/uhAgCQDO1zuuzchF1Oivpsv/ KxWIblqs+RFHT7+Os0g3jEMVmV0fGtUoRCAVQMxAAul2KjBTZYDoyCZb0lupIhm+gMju3odXhrGi QsON/UAikFBFoamRKYtrDv4m/va9kjziwetlnYwEwA13OEEtDpg6MWl8dXEOxCABEk1W7Ghw/e5T 3BWFhpOQcHtlNY19Qpn2f3Wdt8vtkzZgRjDPk81VgGQzFeCvNGtJWAMwVIB4MqUqBzEI5hAS7JyJ 2RkhQxW8SD238bvdvg8pmA2MHa71W4QAO9XMm4wk74EfX+phBwakBLhJbWbQm7SyHYAdnM3PR6b6 YxeRIVk05pk7tAqe6+ZwtdkmqwV8amRN2b/cIVwgmCPeTLdxKs5c8RrhAuEC8edEhAUgJkSwuEhR cCYFs7MJCSWjbzJcmt27230MA2gaSJ1pIEFHYvVvfu2Je/8qd/aaQgKcdy+pAG5y6FIfwkz3D58J gWzBDKkBamy4jrwTnu+GifLqAEqD6FIjnISZU4hJN9i+w8Rn06XUIAETwxnoCFIN/k5i900qkMpj mFUTddPO5HZTIWYr6NmZ/E+CZMBgZhZEYGvNjkiocCmjFwZ4qtP4cOATQaiGUGY0C8nNREg6okz+ n8ZphlpbBajPfnYdZVwexkybaYRmxoMyj/IoM5RxFsx7mjnP3xo3yhR8wcw3e/eONL6y58tQJiv+ 6yx0CCEnjbA0ykiVl0h2FmqimdsQE60QzK8MbRKkgiyTg5mFECCyJnY2JiFVtJTBC8Ox5z2zgQmH av32CWXKCTNHlEErNPMMwswRZfbHn1mdnkZi+CTCzAFlsm7IDip4Lpq5/3ZZRcHtG9LbxlUHlMH+ xFOF++SPqRVGGaHy880DEZKaiPAkRAFmqzwt5sa+5YAyB5ohIdgZZ5PsyElFSxEswI597pzU3x6m YZR5BmHmDGUAcHYNrDmaGbIwUwFlDv/QFM08iTCTTYvHGCLXZk7/5ZMKM4w0xu4dyfZBdzpFmSxu bKEjCDHRTBWUyWnG7PWtp4+h1IhWCBd3y51cokwWRyEEkWR2WQKNs6mQWkVLEczBlkdLilR9KhBK 4tv/mVCmqDBziTL7JMQGaWagwkzpXJkT/WCimbIvcqrKZF/2cNJ0yOV6OmGGYRJs389ye4ujTK7N uIlmyqEMqTPTzeNpnXhebUZqREuEC4gCt2quoAzALIQkEnlN6uyWkzVCaRWtRDBjZ320zelLmNmj zL81+QTjFmaE2O+CcYVmmJu4BDE0YYZK1u39ijLN0swzCDOXKLOnmexa7IFmnkeYMQl274g3JZKu vqJMrs046Agkhuyw1qUqIy/9w4/61vPlHgmF8AXRC4QqOgSuogwAdkJIIuJ9l+bTa9uzldAROzO6 Xlq1HJdQEqt/Lb0aPe2eOJcKv3Y7BhGk9D59lRoOUYVHvYoy+b+hiWYKvchVlME+9+hUmxm5MAPY FLt3xOvSlRGkhhAwX9Za58AMHYIwvGJlPaCMwtcrNkcipGchQiERviBc5rcyy+xYrqPMUZs50swJ 0FihQxWuSIXsUo86ajf5vxe/hQhCqeNK3IixwshrzNxuzkJkRp1p3TD6X2OmpU/s0vxOE58UVn7e xg8G2tVOk52MqACMka8iNkWyqWVkfSvAWfJHMANjMsqu9XWCGQCko3ZGFBLBHCpqfFZkds4aIZWQ yp2feDqbuG0iVKj0TK7+tOnabn7yc2dbqzME6dq/2+d15BqT3Y9N5s1Un2ZaxMHalNQ2p7qDdTtX l7hGw9Psbh4z3XnBnGY0DMPZ/kLRGpI7g2TTrpG1SQBCEAETzVQFbpsiAYL53h1idI0Egjn0rL0h dqQZodyXnYkzcWISoQKl5/Lb3CZru33rH2h6qpinLheA+s8xbmHmfnAybSYrt1WLZvwTZjr7pi4F 6byI7bOXQueKnSajGR0ijUcVQ2eRrK/XiWmeZmIQoCIg2I4AABOuSURBVGd5QvHUKvRPmyLdQkdg wIyIZkhAzxDMHpeAaoxmpIB0Vw6SOAMaqUKp5yJY2PjTbt+eMNNLXaGQSZu5z2T3OcMZCFWXZrwS Zhp26i4QE5tC1qOZZxBmHsTQgKhvmmkOyZ1FurlXJ6aNlsa5XQ4w0UxVIkyAAxEOX98igp5dL3bX Ls1ASCUAdz0thq3ZWRtntpQyfLHxh92+9ZZD04cwo66vATUfZTwLydVjpkdv1wzNeCDM9PgRbQoZ TNrMzfF8vV+ddxqTQmHwMcw8INNtP/ur7GRER7np1dQu15sCU0R2WqdnwJBP6zKI0bMHdWLa1WYU AXwLUJhturVmJ1Ukw6UMXmz8bnfvTXoFevhR9tPCjRJ59e80jfIWybF+zKMr09lmWoha82+PV5mo td9+6wbTtZ0GSEKo6inAY73KdOUG040v6xyEgFR7p4i+FryqEJNusPtAGzY0UhX1ZncGJKBDME/m z5cxvHqD6UoMLSjTt9wA74UR9AzRKr+l3/DPvn2D6etGhSGkvL2TOYwb40xMRDJ4keESRGzTrod/ l1YGD6r9TjTz9UVOS+E9fDtmCAGqQzN91JjJIaa1b5ehTMF0VHYQAqLqLfex1pi5qPbrO81UMrJO t9i9wyRtPfPVujK3ms1oJgLbiWZOYiiv1JW5R4SU61uDuZ9I0NEVD8h+UAbZWBDiMc0A7GzqTNyn M2VnFfMeGxfUpJlxo0wRzmAGCQiqLvF1LMy0CjFHlGGwK/pq7CDkRDOX6uBNVebal3UOQkKq/paQ wl8hs0/afVwaWTe/DAclUCanGQkdwU00c4KDUpXIIjrSjBtADFWIaNl6Wkw5lMkJphjNHIAmISFV uJThC4MHdWe7YJnBIh5ME82cvsiFQUFBe97spKkizXQlzDRYJrGIKlOqgNuBZirEcJTCzAOUuUoz FkI2VsWxlSnpYGTdSW5vKVUmp5kUQkKFuSf51L4aF4yDZlSQG1l3kBZTFmVOaaZofXnuzZmyI2FG QEhRJGrjWQ8qNi71ry//EFsQQalKv5lbf6nOIKbOo9oUIKigtGg0miWn/ryf7Z5V0MfnfiCGw+yw /gd2Hx0mUlTqGPEWznS0yA13Yrzf0h1simBeyKKoazjTmL1i9gqp/Z4MrHNWSEWFFSN21sQfyfYN zPrln/W37yKYj0eYuZn226A2MyZh5qttZNG3YwhZ9aSpJWGG+oGYi7Tf4g/ADkJV0WbGJ8w8yJW5 PQVk+hb1os3cMLLO7JOSbdePVEGVybUZA6kmbSZXZYSqkpRtDYSA8um0LveAfOkaUiuoMvtNGgFC qnLef+ycTdimQgUdOVN2kP9LBCGLoUwdmhk3ypTgjBo003AMCSR6+y6VUQYAHEhVOa0b4UFnJZTJ /pb0g2ZMgt1HUSPrVlCGKt6vdnuasaa/e2F+LP/VUCanGekFzQhVwsjaH5QBmJlAQpZ2Mh6bM2U5 lJloBntn7IutWIm3q0wzTQkzvUJMHsMTs8NqNCMymrHP2AMzYSa7Gfc4AndoRoFk5wUnDsWIE8Qf SNZ9rmFl036vaDMaKnhqmqmsylzSjOlH3xIS4bKckbVPKJNBSTWawXVnStPKCW/bwkxplKlMM+NB mat546U4g/OcTe5YVyBfcmKEBKMGyhxOmp6WZqhwbR66F0OpKmZS12nWIP5AvO6/uEjlA6bju6SQ CjKAe1aakbIWyuBE3+qYZiobWXuGMjnNEJXJAr7469aZmNlJHaloRUq3BTQeqTITzdy6Alfu7arR TA1hJv9kfnyCr6pMFZphCAUSJW4XPyPKFKEZ0dG05QziT8SfvsySxUvk3SczlWkzT1kIOKPhmtVK jqd1nZRxI4FwgWiVnzD2P5zrosw5zVTcmbCz1sTMVuq5ipYkNdu0SdG0VWFmjzL/Wt6UZ0KZ2i8o JKjk/ZoqMSSQ8Mua8mqeR+lXYzBDqnJEOCZ1sMSL900zziJeY7f26zC+Tq7MBc1IDamf0MCv7gFT xzRDAuEc0aqnS3wtosyRZkjWCWAGNGCWei6jFYRqGGhaVmX+tcpS95w00xjKcCWaKSPMkAdpMddj eENR6IBmxoMypfiD7k+BLdJMBjHxJ6x/y7wMmkEZcK7NPCHNNIUyOc3otk7riBAsMFtBhd5NAg2h TE4zQtSkGQDsjLUxABksZLSCkGyTBo7/2hNmTlAGXdDMuFGmG5op8ivIPyXmYhmmRlDmiWlGSKDU ASU1GcNi0yESXyHmqMqIhg6GGM5ABZAB3DOdNDWIMgBcChk0TDNECOaIVtChp2O/OZQ5pRmuTR7s jDW7HGjCJYRoAGha+gR1UeYJaaZJlDmhGRSnmfvCjN8Qc1+VqUszxXJHRoIyZcmDGibCBxCTeUD6 vag3kitzsobAGcgAQvlLb56jTKbNqABSN0GEbXpA+ooyAJhZCCGE4CbSqE+cKRcyXIHQgzPlw6ns HGU6oZlxo0xlmpFfy9WUjaGvx0mto0y2EuO5aEaoKmnjD/phbZrJPSDbMbJuRZWhJnmLGc5CPxPN NI4yx9M6VeO0rn0PSI9RpnGaadiZso3ptxmUeSqaaR5lDjSjCtPMV2GGhhRVoS4vYzdIMyhAMxPK 3FqJK9MMZ/ZJHy0aWbeCMqJh6ehIM/IpaCa/wdSs/JbRTFCRZlSIaIVgCBDTGsq0QDPwyZmSHqJM DWGm+PIwbpTphmaOv2J/xXpYKIPGUebJaEZUk0+K00xhyydmmLgLI+tWUEY2fwrGDOeehWaaV2X2 Y9lZqJIxPHpAiiHFsB2UOdAMCcFNXkH66kxZHmgaz/9tDGWeh2baQhkAfMMY4ZYwQ1c+52CW4bsr ZR2aARUiwgllHtCMLkAzjDTG7qMjI+tWUIZaSejJPJ9VOH6aye6+tRLDLJM6KhRDqTFbIVgM0uOz NZRpjWYAzoFGCK2ipQjmYMs95sZdQ5lOaGbcKFP5BbkAzRBB3MiJGRDKcEsok/3YJ6AZUTmppSDN 3Ne3GCbBdrAQc0QZ0VZuMjuwhQpBYsw3tOt4MBWiGQsVQoibNCM1olUPHpADQRkADBYkSUhuvDxM DjSVnCmbFWaIIKRqsudlNPNwdsv+5Fgb17hC5CxEtoqYy4ryD0lxNFGt+SLZWJI6j+fUqvXDA81c zE0mQbJ50uK2pZo1SLYIZgCQ7sY72bXcD5MNghn0DOn2HGIUggVU4PuFTQ+mU+eMEEpI5VrQCNmZ dPcupJZ6Hqx+d+nObH9yHx1eNbkUF6eZsfee6ovxgWbY5HtionGRX/t9owjNjJun64O2s6B9/lYW Q5sgniCmFM2kSIBglh/GTTRTkWa2COYA50QoFII5dDhBTOHliJ0zQrZFMwCcTZ192wPNHzbZ2u1P Nnf7fAOcQKfdTzUetkI0MwkzD2iGoBSsKReoYUSVHk9/9V/EGYAgNZgHUHjb05XY5jG0Brt3mGQK SRWaSQE9AwNmlDTTwc7EIt1Bz0ASQkBFT7kJqU0z1gohhVCutRPPHGhUoPRcrr7bdGO3P7mreUM1 vxRP2kz9xdhZSJWXQn9yiat6DFNAQQUwyXWamYSZhy3d5RLX1AkrN5MChCDKc4zG1jq5LsQWQmD2 K9g+UQXChlck5xyElAIt0gwAZ5LEpEIFSs/k6k+bfNrt2/Wk4EaFGdVS2B7TzCTM3Pw6BBCchVAQ qhzNTBkz56MKRPdoZmp3QpdscyFBhwhmSHhaRarSTAIQdLj/56kVnwwFgllesTfzaQKmflidZiyE VALStZtHyM7EiUmkCqWei2Bh40+7fbuSFNyc5KFaWIoL08zYO04lYwc6W06EgtBw6XjC2PGL2BRS 36SZSZi5AjEW6RbpSZ2YLM8jmCPZTKtIVZrZQyEYJh1XX2oNYnR0Vuwuz0bXYDyjD3ljNGOEVAJw rd+KYGt21sZShTJ8keGLjT/s9q3p2xi0R5n2ZvOHNDMJM6ff42oocpopo81MwswVmgkgA9hJm3mw lUKygYmv9LScZmZIthPNVKcZAlQExoiyp1tAGSLoCMH8SsVeZ/fVFiaaqUczQpIAd3DHk9mmO2ti qSIZLmXwYuMPu3s7XtFtSO9QTS3FkzZTdTF+dEHpoM307OM15GaTPc18WacnYQZ7+6T7dWLSGCAE M8Sb6ZZ7xZbFUEc5YU/tKsTo2b06Mfn9xJO7dVOrQDMOQkhHYLbd/Eqbbl0aSx3JaCXDF7t7t7uP hvaWtEeZVmfz+zTzzMLM14q992hGQxammUmYuUczyZTEeg4xO6TbQjFJd0CUnzRNq0hFmtmBAB3l ZkODb02l/RJ0iGBeqNjdVDuqGZohIYRzXdEMwHAm2VC6k8FMzn6R0cps31z8kU/19dq+2u/NBaOh heROcZQh+QfJKkG/8oIEEuViywwSEKKegbY/MXQ1oldj2RYSQl757cMiP1HPwvrQo8wOu89y1Vqd gVRQAZwdNhFK1WK13wdUbSAEVAjnhn3i2ZRxgQ4xW5YzsmYHymiGh90PW672+wAtiERuWdXlA7Cz qbN7q+3cmbJGOvylccH12by5KX4ENNMMylANZwMJIYpOf35GtSzKdEMzT4UymQdk/FnRyNpaSAkV wJoBn3j2iDIHmtEDJ0JR2xlbBYiW19NiStCMG3AM+0SZXPYWuRLWyTPQ8fM5mzgbk1QqWopwAXYV jZyKoUwnNDNulDm+4MmJUh2aKbiMTShzj2bEFWuI8aMMwySIP6/n9j4VzfSLMjnNSOhwwDRTB2UO EFPHPokdiIZNM/2iTC80c8oVzM4kziRCajVbiWAOdlz24PWKnWTbwszQaSbT4iqoMlfTYqp7aA+Z ZiqgTDc0M3KUYZgEu0+kcTOTvrOQGkoPlWZatZMsToRCDlibkZVQRmpES4QNGVnnNKNyU/cJZfyn GbryEZ2JnU0OzpRwZay2iSBkEVmPG44a8Cx3Ru4YWdcJIBuQgFSYWtUgwqaAgNTHgTXiXGCTYPOO 3WeTOZLMSLYAEFY6HZha1g+TLZxFMMu3SeNuUmG2wvwVKmiUCFM4B6WnflgDCC2zE0JSpzE8WxnZ mnT7lm7fQEKvftffvlN2169g5zpTZboRZm5pM/7zDRU+YCoIMdVfmSGKaTO+RbWaKtPKizgIBSGO C/yADjqpWMqUTRF/It21lV6aFWCVanhFPnxQZQ4xFGqQp3VZ2lmRGAqF6AXhAqKl+vIOJCDU8NKo fVBl8r0JE4mOsoDpJlowO2ditkaoUM2+kYrYpg/2YFcOmNBJxswtmvF/ISmSK0MoocTUemWGkMAj mplQ5iHNkAAPimaKoIxNEa+RbFuf3J2B0rlf2IQytWhGw9kh0UyRXBkhEb4gfIFU7XpZZ6fGcmg0 4w3KZBixpxnu+0msMzt2VuhIRd9IB/eA5jrKdCbMDJFm7qMMAYJKVIt5TpqpjDItvUg2Ax7IYAQo 4wziNZJNd3O6s8OjGdHQReIGaSbLPRpSDO+qMkIgXCBcQuqOhpWzEHJg2oxPKHNCM7JHYeZkbrYu 3TFbqWcq+kZKs02vl9IogzKd0MxAUeYIMeUDVf+VH2pFE8o81Gay2XYoNHMLZZxBvEG87rxuGO9p Rg2m7Jv0DGWONBMMhmZuqTIkEM4RrbqDmGMMHcSgTpo8Q5lOaaboZtPaNAac1HM5W5FUfGFBcxNl uhRmsn5PAxFmvkID3bqT1aEwkz8YD4Nm6qBMey/CDLm/FjSInK0LlHEWSS8Qc0EzAYQcBs14iDLA kQgHQTNfVRkSCGeIllBBb+Mopxk5DJrxD2W6o5kCwswJ0BhrdmCW4VxG3yAkH+q2l0eZlmiGz2hm QCiTQQzVDlTdV+Z8hzQIbcZPlMlAMKMZZ32nGXmCMs4i2SJZewAQDLbQQd2yad00pQH/UCZzM1BB 7iA7IJQhQjDHbAkV9j983O263hPKlKMZwdwNzRRUaIw1OwAyXMhoBSHyO9s3UaZjYQY8jGOmA8oQ QdCjYHRPM/dTefxBmXq1xtummUM8PVdlnEG6Rbz2SAVhhnN7mvF7JfYq7fcWzXgewwwXnEEwQ7SE Dj2auvlwP9FvmvEVZbqjmfLLJdvUmhhEMnyR0RKC2NmyKIMWs9CpXiXczlCmaF5vtxkzR22GvaaZ InnK/aBMRjOAVGC/aUYImBjbNx9X4qHQjNQ+HjAd+qEzUAGkhPXYLlEoBHPoGXTkY02XQdCMxygD gJmFaJlmqOqj2dSZmEjIcCmD+W2U6VqY8Z5mSEDIkm/vGc34gjK1HeCelmaYke5gYljr7wHEgWYy 6cjbZdhflMliaKFCCOmp+bOOMP8GPff6ECenGfKXZvxGmZxmOtJmqMoHtokzO5KqAkpzuwPYT4gh 2S7DNRZAC2fzafpqeP0IqO8xtAZC5RURPYKYLTb/QLIGs++d0VkkMaRGmXqd3Wsf3sdwAyG9i6EK Mf8F0SrfNXk9lhk22df1nlrVCdFZAEK0Nh9WFWbADuyYnU02ykew8IdmSNRbd7nEX28q2mzhAKHA xtcNU+3pr+2eyTbXZiyO1fN6nI5NjHR7tjv3v46aMzCACvPnn1plmglm0BHSnQcQEyBYnGOB9xu8 jGZkAKkHkI3uLc1YK6UUQrl2dVYqOrWxu/iT1cpIc4s9OF+lqO/Zmgbs6JGtxNkliAua8UL3GoK+ 5SxAkAqW+yNChkmQbK8c0wzCYiHLlVEhAO9oZigucM4i2fVPM1IjXEAGGGKbaMZ/mjku+I+W/i8Q k7X/D8OrJtTmxRFYAAAAAElFTkSuQmCC "
       preserveAspectRatio="none"
       height="31.75"
       width="198.4375"
       transform="scale(-1,1)" />
    <path
       style="opacity:0.07999998;fill:url(#pattern5725);fill-opacity:1;stroke:none;stroke-width:0.26458335;stroke-linecap:round;stroke-linejoin:round;stroke-miterlimit:4;stroke-dasharray:none;stroke-dashoffset:0;stroke-opacity:1;paint-order:fill markers stroke"
       d="M 57.15,2.9999999e-7 H 198.4375 V 31.75 h -82.02083 z"
       id="rect5723"
       inkscape:connector-curvature="0"
       sodipodi:nodetypes="ccccc" />
    <text
       id="text1068-3"
       y="9.5919847"
       x="4.9106669"
       style="font-style:normal;font-variant:normal;font-weight:normal;font-stretch:normal;font-size:7.76111126px;line-height:1.25;font-family:Overpass;-inkscape-font-specification:'Overpass, Normal';font-variant-ligatures:normal;font-variant-caps:normal;font-variant-numeric:normal;font-feature-settings:normal;text-align:start;letter-spacing:0px;word-spacing:0px;writing-mode:lr-tb;text-anchor:start;fill:#ffffff;fill-opacity:1;stroke:none;stroke-width:1.2470845"
       xml:space="preserve"><tspan
         id="tspan1070-6"
         style="font-style:normal;font-variant:normal;font-weight:bold;font-stretch:normal;font-size:6.3499999px;font-family:Overpass;-inkscape-font-specification:'Overpass Bold';font-variant-ligatures:normal;font-variant-caps:normal;font-variant-numeric:normal;font-feature-settings:normal;text-align:start;writing-mode:lr-tb;text-anchor:start;fill:#ffffff;stroke-width:1.2470845"
         y="9.5919847"
         x="4.9106669"
         sodipodi:role="line">CentOS Artwork SIG</tspan></text>
    <flowRoot
       transform="matrix(0.26458334,0,0,0.26458334,-2.7622501,-4.2054209)"
       style="font-style:normal;font-variant:normal;font-weight:normal;font-stretch:normal;font-size:14.66666698px;line-height:1.25;font-family:sans-serif;-inkscape-font-specification:'sans-serif, Normal';font-variant-ligatures:normal;font-variant-caps:normal;font-variant-numeric:normal;font-feature-settings:normal;text-align:start;letter-spacing:0px;word-spacing:0px;writing-mode:lr-tb;text-anchor:start;fill:#ffffff;fill-opacity:1;stroke:none"
       id="flowRoot1096-7"
       xml:space="preserve"><flowRegion
         style="font-style:normal;font-variant:normal;font-weight:normal;font-stretch:normal;font-size:14.66666698px;font-family:sans-serif;-inkscape-font-specification:'sans-serif, Normal';font-variant-ligatures:normal;font-variant-caps:normal;font-variant-numeric:normal;font-feature-settings:normal;text-align:start;writing-mode:lr-tb;text-anchor:start;fill:#ffffff"
         id="flowRegion1098-5"><rect
           style="font-style:normal;font-variant:normal;font-weight:normal;font-stretch:normal;font-size:14.66666698px;font-family:sans-serif;-inkscape-font-specification:'sans-serif, Normal';font-variant-ligatures:normal;font-variant-caps:normal;font-variant-numeric:normal;font-feature-settings:normal;text-align:start;writing-mode:lr-tb;text-anchor:start;fill:#ffffff"
           y="61.75"
           x="30"
           height="59.144505"
           width="722.44"
           id="rect1100-3" /></flowRegion><flowPara
         id="flowPara1102-5"
         style="font-style:normal;font-variant:normal;font-weight:normal;font-stretch:normal;font-size:13.33333302px;font-family:Overpass;-inkscape-font-specification:Overpass;text-align:start;text-anchor:start">Exists to produce The CentOS Project Visual Identity. The group is focused in producing high quality artwork for each visual medium The CentOS Project manifests its existence on reinforcing the visual connection between them all to reach the highest visual recognition.</flowPara></flowRoot>    <text
       id="text1047-2"
       y="29.961416"
       x="196.43814"
       style="font-style:normal;font-variant:normal;font-weight:normal;font-stretch:normal;font-size:2.34971213px;line-height:1.25;font-family:Overpass;-inkscape-font-specification:'Overpass, Normal';font-variant-ligatures:normal;font-variant-caps:normal;font-variant-numeric:normal;font-feature-settings:normal;text-align:end;letter-spacing:0px;word-spacing:0px;writing-mode:lr-tb;text-anchor:end;fill:#ffffff;fill-opacity:0.2745098;stroke:none;stroke-width:0.26458335"
       xml:space="preserve"><tspan
         style="font-style:normal;font-variant:normal;font-weight:normal;font-stretch:normal;font-size:3.52777791px;font-family:Overpass;-inkscape-font-specification:'Overpass Ultra-Light';text-align:end;text-anchor:end;fill:#ffffff;fill-opacity:0.2745098;stroke-width:0.26458335"
         y="29.961416"
         x="196.43814"
         id="tspan1045-9"
         sodipodi:role="line">https://wiki.centos.org/SpecialInterestGroup/Artwork</tspan></text>
    <g
       id="g3895"
       clip-path="url(#clipPath3897)">
      <g
         style="color:#000000;font-weight:400;font-family:sans-serif;white-space:normal;fill:#ffffff;fill-opacity:0.11764706"
         transform="matrix(2.901764,0,0,2.901764,152.77534,2.9999999e-7)"
         font-weight="400"
         id="g1302">
        <path
           inkscape:connector-curvature="0"
           d="M 12.403,4.15 7.45,9.102 7,11 l 1.87,-0.39 5,-5 C 14.419,5.017 14.5,4.5 14,4 13.5,3.5 12.83,3.722 12.403,4.15 Z"
           style="line-height:normal;text-indent:0;text-align:start;text-decoration:none;text-decoration-line:none;text-decoration-style:solid;text-decoration-color:#000000;text-transform:none;clip-rule:evenodd;overflow:visible;isolation:auto;mix-blend-mode:normal;fill:#ffffff;fill-opacity:0.11764706;fill-rule:evenodd;marker:none;image-rendering:optimizeQuality;shape-rendering:geometricPrecision;text-rendering:geometricPrecision"
           overflow="visible"
           id="path1296" />
        <path
           inkscape:connector-curvature="0"
           d="M 2.191,6 0.263,15 H 15.736 L 14,6.897 12.316,8.58 13.262,13 H 2.738 l 1.07,-5 h 3.33 L 9.137,6 Z m 9.776,0 -2,2 h 0.1 l 2,-2 z"
           style="line-height:normal;font-variant-ligatures:normal;font-variant-position:normal;font-variant-caps:normal;font-variant-numeric:normal;font-variant-alternates:normal;font-feature-settings:normal;text-indent:0;text-align:start;text-decoration:none;text-decoration-line:none;text-decoration-style:solid;text-decoration-color:#000000;text-transform:none;text-orientation:mixed;shape-padding:0;overflow:visible;isolation:auto;mix-blend-mode:normal;fill:#ffffff;fill-opacity:0.11764706;fill-rule:evenodd"
           overflow="visible"
           id="path1298" />
        <path
           inkscape:connector-curvature="0"
           d="M 8,0 V 1.5 A 0.506,0.506 0 0 1 7.853,1.856 0.484,0.484 0 0 1 7.508,2 H 4.496 A 1.498,1.498 0 0 0 3.199,4.248 C 3.465,4.711 3.96,5 4.494,5 h 3.01 c 0.18,0 0.34,0.092 0.43,0.248 A 0.506,0.506 0 0 1 8,5.5 V 6 H 9 V 5.5 A 1.498,1.498 0 0 0 7.504,4 H 4.494 A 0.491,0.491 0 0 1 4.066,3.752 0.507,0.507 0 0 1 4.066,3.248 0.488,0.488 0 0 1 4.496,3 H 7.508 C 7.904,3 8.285,2.84 8.564,2.559 8.844,2.277 9,1.897 9,1.5 V 0 Z"
           style="line-height:normal;font-variant-ligatures:normal;font-variant-position:normal;font-variant-caps:normal;font-variant-numeric:normal;font-variant-alternates:normal;font-feature-settings:normal;text-indent:0;text-align:start;text-decoration:none;text-decoration-line:none;text-decoration-style:solid;text-decoration-color:#000000;text-transform:none;text-orientation:mixed;shape-padding:0;overflow:visible;isolation:auto;mix-blend-mode:normal;fill:#ffffff;fill-opacity:0.11764706"
           overflow="visible"
           id="path1300" />
      </g>
      <g
         id="use2034"
         font-weight="400"
         transform="matrix(0.59972223,0,0,0.59972223,183.91306,-0.19821078)"
         style="color:#000000;font-weight:400;font-family:sans-serif;white-space:normal;fill:#ffffff;fill-opacity:0.11764706">
        <path
           id="path2036"
           overflow="visible"
           style="line-height:normal;text-indent:0;text-align:start;text-decoration:none;text-decoration-line:none;text-decoration-style:solid;text-decoration-color:#000000;text-transform:none;clip-rule:evenodd;overflow:visible;isolation:auto;mix-blend-mode:normal;fill:#ffffff;fill-opacity:0.11764706;fill-rule:evenodd;marker:none;image-rendering:optimizeQuality;shape-rendering:geometricPrecision;text-rendering:geometricPrecision"
           d="M 12.403,4.15 7.45,9.102 7,11 l 1.87,-0.39 5,-5 C 14.419,5.017 14.5,4.5 14,4 13.5,3.5 12.83,3.722 12.403,4.15 Z"
           inkscape:connector-curvature="0" />
        <path
           id="path2038"
           overflow="visible"
           style="line-height:normal;font-variant-ligatures:normal;font-variant-position:normal;font-variant-caps:normal;font-variant-numeric:normal;font-variant-alternates:normal;font-feature-settings:normal;text-indent:0;text-align:start;text-decoration:none;text-decoration-line:none;text-decoration-style:solid;text-decoration-color:#000000;text-transform:none;text-orientation:mixed;shape-padding:0;overflow:visible;isolation:auto;mix-blend-mode:normal;fill:#ffffff;fill-opacity:0.11764706;fill-rule:evenodd"
           d="M 2.191,6 0.263,15 H 15.736 L 14,6.897 12.316,8.58 13.262,13 H 2.738 l 1.07,-5 h 3.33 L 9.137,6 Z m 9.776,0 -2,2 h 0.1 l 2,-2 z"
           inkscape:connector-curvature="0" />
        <path
           id="path2040"
           overflow="visible"
           style="line-height:normal;font-variant-ligatures:normal;font-variant-position:normal;font-variant-caps:normal;font-variant-numeric:normal;font-variant-alternates:normal;font-feature-settings:normal;text-indent:0;text-align:start;text-decoration:none;text-decoration-line:none;text-decoration-style:solid;text-decoration-color:#000000;text-transform:none;text-orientation:mixed;shape-padding:0;overflow:visible;isolation:auto;mix-blend-mode:normal;fill:#ffffff;fill-opacity:0.11764706"
           d="M 8,0 V 1.5 A 0.506,0.506 0 0 1 7.853,1.856 0.484,0.484 0 0 1 7.508,2 H 4.496 A 1.498,1.498 0 0 0 3.199,4.248 C 3.465,4.711 3.96,5 4.494,5 h 3.01 c 0.18,0 0.34,0.092 0.43,0.248 A 0.506,0.506 0 0 1 8,5.5 V 6 H 9 V 5.5 A 1.498,1.498 0 0 0 7.504,4 H 4.494 A 0.491,0.491 0 0 1 4.066,3.752 0.507,0.507 0 0 1 4.066,3.248 0.488,0.488 0 0 1 4.496,3 H 7.508 C 7.904,3 8.285,2.84 8.564,2.559 8.844,2.277 9,1.897 9,1.5 V 0 Z"
           inkscape:connector-curvature="0" />
      </g>
      <use
         height="100%"
         width="100%"
         transform="matrix(2,0,0,2,-233.16207,0.39642186)"
         id="use2044"
         xlink:href="#use2034"
         y="0"
         x="0" />
    </g>
  </g>
</svg>
