<?xml version="1.0" encoding="UTF-8" standalone="no"?>
<!-- Created with Inkscape (http://www.inkscape.org/) -->

<svg
   xmlns:dc="http://purl.org/dc/elements/1.1/"
   xmlns:cc="http://creativecommons.org/ns#"
   xmlns:rdf="http://www.w3.org/1999/02/22-rdf-syntax-ns#"
   xmlns:svg="http://www.w3.org/2000/svg"
   xmlns="http://www.w3.org/2000/svg"
   xmlns:xlink="http://www.w3.org/1999/xlink"
   xmlns:sodipodi="http://sodipodi.sourceforge.net/DTD/sodipodi-0.dtd"
   xmlns:inkscape="http://www.inkscape.org/namespaces/inkscape"
   width="750"
   height="120"
   viewBox="0 0 198.4375 31.750001"
   version="1.1"
   id="svg8"
   inkscape:version="0.92.4 (unknown)"
   sodipodi:docname="07-centos-sig-cm.svg">
  <defs
     id="defs2">
    <pattern
       inkscape:collect="always"
       xlink:href="#pattern5690"
       id="pattern5725"
       patternTransform="matrix(0.12653986,0.03390625,-0.03390625,0.12653986,0,-4.5e-6)" />
    <pattern
       patternUnits="userSpaceOnUse"
       width="47.999864"
       height="47.999999"
       patternTransform="matrix(0.26458334,0,0,0.26458334,-33.943753,1.0069578)"
       id="pattern5690">
      <g
         id="g3664-7"
         transform="matrix(0.29934017,0,0,0.29934134,30.853064,-278.05575)">
        <g
           id="g12802-3"
           transform="rotate(-90,-298.5197,1636.0002)">
          <g
             id="g12804-6"
             transform="translate(16.279512,-899.16723)">
            <g
               id="g12806-1"
               transform="matrix(1.0666663,0,0,1,-26.935596,-4.1328125e-5)">
              <path
                 style="display:inline;overflow:visible;visibility:visible;fill:none;fill-opacity:1;fill-rule:evenodd;stroke:none;stroke-width:30;marker:none"
                 id="path12808-2"
                 d="m 323.36653,2798.1614 -5.40616,5.8005 -5.40616,-5.8005 v -40.8261 h -18.01333 l 23.41949,-24.8979 23.02487,24.8979 h -17.6187 z"
                 inkscape:connector-curvature="0" />
            </g>
            <g
               id="g12812-9"
               clip-path="url(#clipPath4429-5-2)"
               transform="matrix(1.0722788,0,0,1,-28.850792,-4.1328125e-5)" />
          </g>
        </g>
        <g
           id="g12768-3"
           transform="translate(-351.30671,-902.55818)">
          <g
             id="g12770-1"
             transform="translate(16.279512,-899.16723)">
            <g
               id="g12772-9"
               transform="matrix(1.0666663,0,0,1,-26.935596,-4.1328125e-5)">
              <path
                 style="display:inline;overflow:visible;visibility:visible;fill:none;fill-opacity:1;fill-rule:evenodd;stroke:none;stroke-width:30;marker:none"
                 id="path12774-4"
                 d="m 323.36653,2798.1614 -5.40616,5.8005 -5.40616,-5.8005 v -40.8261 h -18.01333 l 23.41949,-24.8979 23.02487,24.8979 h -17.6187 z"
                 inkscape:connector-curvature="0" />
            </g>
            <g
               id="g12778-7"
               clip-path="url(#clipPath4429-5-2)"
               transform="matrix(1.0722788,0,0,1,-28.850792,-4.1328125e-5)" />
          </g>
        </g>
        <g
           id="g12780-8"
           transform="rotate(90,1045.4823,1742.4169)">
          <g
             id="g12782-4"
             transform="matrix(1.0666663,0,0,1,-26.935596,-4.1328125e-5)">
            <path
               style="display:inline;overflow:visible;visibility:visible;fill:none;fill-opacity:1;fill-rule:evenodd;stroke:none;stroke-width:30;marker:none"
               id="path12784-5"
               d="m 323.36653,2798.1614 -5.40616,5.8005 -5.40616,-5.8005 v -40.8261 h -18.01333 l 23.41949,-24.8979 23.02487,24.8979 h -17.6187 z"
               inkscape:connector-curvature="0" />
          </g>
          <g
             id="g12788-0"
             clip-path="url(#clipPath4429-5-2)"
             transform="matrix(1.0722788,0,0,1,-28.850792,-4.1328125e-5)" />
        </g>
        <g
           id="g12790-3"
           transform="rotate(180,152.75931,1460.3469)">
          <g
             id="g12792-6"
             transform="translate(16.279512,-899.16723)">
            <g
               id="g12794-1"
               transform="matrix(1.0666663,0,0,1,-26.935596,-4.1328125e-5)">
              <path
                 style="display:inline;overflow:visible;visibility:visible;fill:none;fill-opacity:1;fill-rule:evenodd;stroke:none;stroke-width:30;marker:none"
                 id="path12796-0"
                 d="m 323.36653,2798.1614 -5.40616,5.8005 -5.40616,-5.8005 v -40.8261 h -18.01333 l 23.41949,-24.8979 23.02487,24.8979 h -17.6187 z"
                 inkscape:connector-curvature="0" />
            </g>
            <g
               id="g12800-6"
               clip-path="url(#clipPath4429-5-2)"
               transform="matrix(1.0722788,0,0,1,-28.850792,-4.1328125e-5)" />
          </g>
        </g>
        <g
           id="g12742-3"
           transform="translate(-749.79982,-1331.6428)">
          <path
             style="fill:none;fill-opacity:1;stroke:#ffffff;stroke-width:3.54330707;stroke-linecap:butt;stroke-linejoin:miter;stroke-miterlimit:4;stroke-dashoffset:0;stroke-opacity:1"
             id="rect12744-2"
             d="m 671.98437,2285.7893 h 49.60645 v 49.6065 h -49.60645 z"
             inkscape:connector-curvature="0" />
          <path
             style="fill:none;fill-opacity:1;stroke:#ffffff;stroke-width:3.54330707;stroke-linecap:butt;stroke-linejoin:miter;stroke-miterlimit:4;stroke-dashoffset:0;stroke-opacity:1"
             id="rect12746-0"
             d="m 732.22076,2285.7893 h 49.60645 v 49.6065 h -49.60645 z"
             inkscape:connector-curvature="0" />
          <path
             style="fill:none;fill-opacity:1;stroke:#ffffff;stroke-width:3.54330707;stroke-linecap:butt;stroke-linejoin:miter;stroke-miterlimit:4;stroke-dashoffset:0;stroke-opacity:1"
             id="rect12748-6"
             d="m 732.22076,2346.0256 h 49.60645 v 49.6065 h -49.60645 z"
             inkscape:connector-curvature="0" />
          <path
             style="fill:none;fill-opacity:1;stroke:#ffffff;stroke-width:3.54330707;stroke-linecap:butt;stroke-linejoin:miter;stroke-miterlimit:4;stroke-dashoffset:0;stroke-opacity:1"
             id="rect12750-1"
             d="m 671.98437,2346.0256 h 49.60645 v 49.6065 h -49.60645 z"
             inkscape:connector-curvature="0" />
        </g>
        <path
           style="fill:none;stroke:#ffffff;stroke-width:3.54330707;stroke-linecap:butt;stroke-linejoin:miter;stroke-miterlimit:4;stroke-dashoffset:0;stroke-opacity:1"
           id="rect12760-5"
           transform="rotate(-45)"
           d="m -784.62878,642.40875 h 49.60644 v 49.60645 h -49.60644 z"
           inkscape:connector-curvature="0" />
        <path
           style="fill:none;stroke:#ffffff;stroke-width:3.54306793;stroke-linecap:butt;stroke-linejoin:miter;stroke-miterlimit:4;stroke-dasharray:none;stroke-dashoffset:0;stroke-opacity:1"
           id="rect12762-5"
           transform="rotate(-45)"
           d="m -724.39233,642.40875 h 49.60645 v 49.60645 h -49.60645 z"
           inkscape:connector-curvature="0" />
        <path
           style="fill:none;stroke:#ffffff;stroke-width:3.54330707;stroke-linecap:butt;stroke-linejoin:miter;stroke-miterlimit:4;stroke-dashoffset:0;stroke-opacity:1"
           id="rect12764-4"
           d="m -15.377623,1009.0679 35.077058,-35.0771 35.077058,35.0771 -35.077058,35.077 z"
           inkscape:connector-curvature="0" />
        <path
           style="fill:none;stroke:#ffffff;stroke-width:3.54330707;stroke-linecap:butt;stroke-linejoin:miter;stroke-miterlimit:4;stroke-dashoffset:0;stroke-opacity:1"
           id="rect12766-7"
           transform="rotate(-45)"
           d="m -784.62878,702.64508 h 49.60644 v 49.60645 h -49.60644 z"
           inkscape:connector-curvature="0" />
      </g>
    </pattern>
    <clipPath
       id="clipPath4429-5-2">
      <g
         transform="matrix(0.9947658,0,0,1,1.7860989,0)"
         id="g4431-3-8">
        <path
           inkscape:connector-curvature="0"
           d="m 322.54143,2800.9375 -4.43505,5.7298 -4.43495,-5.7298 v -43.1429 h -18.93972 l 23.37467,-25.5367 23.13125,25.5367 h -18.6962 z"
           id="path4433-5-9"
           style="display:inline;overflow:visible;visibility:visible;fill:#efa724;fill-opacity:1;fill-rule:evenodd;stroke:none;stroke-width:30;marker:none" />
      </g>
    </clipPath>
    <clipPath
       id="clipPath10299">
      <g
         transform="matrix(0.9947658,0,0,1,1.7860989,0)"
         id="g10297">
        <path
           inkscape:connector-curvature="0"
           d="m 322.54143,2800.9375 -4.43505,5.7298 -4.43495,-5.7298 v -43.1429 h -18.93972 l 23.37467,-25.5367 23.13125,25.5367 h -18.6962 z"
           id="path10295"
           style="display:inline;overflow:visible;visibility:visible;fill:#efa724;fill-opacity:1;fill-rule:evenodd;stroke:none;stroke-width:30;marker:none" />
      </g>
    </clipPath>
    <clipPath
       id="clipPath10305">
      <g
         transform="matrix(0.9947658,0,0,1,1.7860989,0)"
         id="g10303">
        <path
           inkscape:connector-curvature="0"
           d="m 322.54143,2800.9375 -4.43505,5.7298 -4.43495,-5.7298 v -43.1429 h -18.93972 l 23.37467,-25.5367 23.13125,25.5367 h -18.6962 z"
           id="path10301"
           style="display:inline;overflow:visible;visibility:visible;fill:#efa724;fill-opacity:1;fill-rule:evenodd;stroke:none;stroke-width:30;marker:none" />
      </g>
    </clipPath>
    <clipPath
       id="clipPath10311">
      <g
         transform="matrix(0.9947658,0,0,1,1.7860989,0)"
         id="g10309">
        <path
           inkscape:connector-curvature="0"
           d="m 322.54143,2800.9375 -4.43505,5.7298 -4.43495,-5.7298 v -43.1429 h -18.93972 l 23.37467,-25.5367 23.13125,25.5367 h -18.6962 z"
           id="path10307"
           style="display:inline;overflow:visible;visibility:visible;fill:#efa724;fill-opacity:1;fill-rule:evenodd;stroke:none;stroke-width:30;marker:none" />
      </g>
    </clipPath>
    <clipPath
       clipPathUnits="userSpaceOnUse"
       id="clipPath17956">
      <rect
         style="opacity:1;fill:#000000;fill-opacity:1;stroke:none;stroke-width:0.26458335;stroke-linecap:round;stroke-linejoin:round;stroke-miterlimit:4;stroke-dasharray:none;stroke-dashoffset:0;stroke-opacity:1;paint-order:fill markers stroke"
         id="rect17958"
         width="198.4375"
         height="31.75"
         x="0"
         y="5e-07" />
    </clipPath>
  </defs>
  <sodipodi:namedview
     id="base"
     pagecolor="#ffffff"
     bordercolor="#666666"
     borderopacity="1.0"
     inkscape:pageopacity="1"
     inkscape:pageshadow="2"
     inkscape:zoom="1"
     inkscape:cx="375"
     inkscape:cy="60"
     inkscape:document-units="px"
     inkscape:current-layer="layer2"
     showgrid="false"
     units="px"
     showborder="false"
     inkscape:window-width="1920"
     inkscape:window-height="1016"
     inkscape:window-x="0"
     inkscape:window-y="27"
     inkscape:window-maximized="1"
     fit-margin-top="0"
     fit-margin-left="0"
     fit-margin-right="0"
     fit-margin-bottom="0"
     showguides="true"
     inkscape:guide-bbox="true">
    <sodipodi:guide
       position="0,80.168753"
       orientation="1,0"
       id="guide1074"
       inkscape:locked="false"
       inkscape:label=""
       inkscape:color="rgb(0,0,255)" />
    <sodipodi:guide
       position="5.2916668,30.956251"
       orientation="1,0"
       id="guide1076"
       inkscape:locked="false"
       inkscape:label=""
       inkscape:color="rgb(0,0,255)" />
    <sodipodi:guide
       position="136.78958,0"
       orientation="0,1"
       id="guide1080"
       inkscape:locked="false"
       inkscape:label=""
       inkscape:color="rgb(0,0,255)" />
    <sodipodi:guide
       position="137.05417,3.9687501"
       orientation="0,1"
       id="guide1082"
       inkscape:locked="false"
       inkscape:label=""
       inkscape:color="rgb(0,0,255)" />
    <sodipodi:guide
       position="121.44375,31.750001"
       orientation="0,1"
       id="guide1086"
       inkscape:locked="false"
       inkscape:label=""
       inkscape:color="rgb(0,0,255)" />
    <sodipodi:guide
       position="198.4375,5.2639376e-14"
       orientation="1,0"
       id="guide901"
       inkscape:locked="false" />
    <sodipodi:guide
       position="196.32084,7.9375002"
       orientation="1,0"
       id="guide905"
       inkscape:locked="false"
       inkscape:label=""
       inkscape:color="rgb(0,0,255)" />
  </sodipodi:namedview>
  <metadata
     id="metadata5">
    <rdf:RDF>
      <cc:Work
         rdf:about="">
        <dc:format>image/svg+xml</dc:format>
        <dc:type
           rdf:resource="http://purl.org/dc/dcmitype/StillImage" />
        <dc:title></dc:title>
      </cc:Work>
    </rdf:RDF>
  </metadata>
  <g
     inkscape:label="Layer 1 - Background"
     inkscape:groupmode="layer"
     id="layer1"
     transform="translate(-206.67001,-189.72852)" />
  <g
     inkscape:groupmode="layer"
     id="layer2"
     inkscape:label="Layer 2 - Text">
    <image
       y="5e-07"
       x="-198.4375"
       id="image10729"
       xlink:href="data:image/png;base64,iVBORw0KGgoAAAANSUhEUgAAAu4AAAB4CAIAAAAi3+DqAAAFOXpUWHRSYXcgcHJvZmlsZSB0eXBl IGV4aWYAAHjarVZrkuYoDvzPKfYIoAcSxxGviL3BHn8T7Orqqu6eiJkYOz6bT8ZCykwJp/W//+70 HxxFKiVR89pqzTikSaPAwPNzPPeS5V7vsVam1/rFnuzjJYKJcefnb13PvQTs+vmCyWvvX+3JxuvH X0fvgw+HfFY+Mcw3yNcR02Mv7//UnkBz1J/SeX/NpN/o3snf/4sBjKnwx5RoceH8XJ+VGFFw48Bd cC3sdCwZY8XTc22/4pfeOMrvAKQ/4JfHO4M/4XgcfaRVv+H02ov+Hr+L0s8RFXqn0OeDi8nMLxq/ 4rf39L3Xk11ITYCrvkl9pHhHmAhghe9rFafhpxjbPRtOz5EHWJtItafc8acVApq7SJklyi7r3kcZ CFFokeFONIivzdmo0bikyDnLJkvgZ7KDjQHmGGb6EUu567azHhZzrDwLZlKBs4I3vpzpu+Gfnl8c 7X1kXsoB8yr9EkxHsgjjMHeumAUKyn4x1YtvSc8tfz8OsQzO9MLsSDByf1x0LZ/a4sszZ02YKi/J xebrABBhbUUwhcFAroW11JKNyEoBjg5+ApETC3UwUDQpTURJwlxBDqoBa+MdK3cuKT1mtBcQoVzZ QA0KCGSJqFTUm0NCkZRVVLWqqWvTqFylaq3V6ulTYWxiatXM3JqFs4urVzd3bx6NGqONaWq1WfPW WgQWDQn4CswPGDp17tK1127de+sxIJ8hQ0cdNny0EZMmT7SANOu06bPNWGVBSkuWrrps+WorNrS2 ecvWXbdt323HD9ZeVr+y9p25v2atvKzRJerMs0/WYDb7cFFOO9HDGRgjKWDcDgMQNB3OshcROswd znIjTsxKiFIPObMcxsCgrEK6yw/uPpn7I28J6P5d3uh3zKVD3b/BXDrU/cTcr7z9hrUZt93yJehU ITBFh2SU3+aCMBBKpj4qhJHP0I8tExaEwqf4sBzUQMI8Rb22aOY+i3glTwA2KjhYcahTQS5NV950 ksyTkOHoFCvmxHKryS56JqMs/JlWhvU80UYGmJDdAazq1B4lpPFaJVy7D5BlASEQNnhpQyVv9EtI i8kAS43G1gvNNAF7R6E31DUinWNXtE4HzGvgNBrG4CNAlvZGS5DhUF9witYMtABeKKpfCEOGEiod 8mLnipZWrO8Jg5dRDflEBJxC3YgVYGHfsNMO3BZC4LnCkvSaubW8ZEcOeMr3Y2BDzXmByxB3xf6h uy+zAvukGL6gpbKbcvawvJwSRN4dyHOdtOYGHifQmMMLTPlQhB1nWEXjxy6O8oCosKnUGToOiVOg qBwJQ1QYuEYwE4XIZ3SYB8/ZwCZlkIHp4BiB0cJc82VdRTYHoOijRW2Ja5Y+kAV71K7QZajYmGur liXVGBrbA27NgKqi5lYQBDu4jWbcUJuTrSY/2WQwiOoYDekcw3PVOFsJGK+QHcIxXLfwdi0+tkSu jxHfSIUTdp4po2GFOTpyioGNHA0VdGyfwu1UuXtFG5rAsA+A53vUAGZ9dOyb3VE/6Nm+1z4F5yPq WkqiFSDWdnx2+JxnI9bcz76nUHFMfFycwsX+gm8IqIYaOkkKvHak1QVk9QZ1YiDgBftyGxd0RC7x wo/L+zxfk59vPR4j0gFawLCepjSyo0whwTAHCBV72NFCHeIQ5S1QPZ+NAXKOl8iXX4gtJ1kXH6cj UkVfZSR7Js6KKR17YkWGbvP6xPcI9oO50anwFNseNJhPhCVBHwKxRVttlFMWfSlD33usk8xmzh3b /Z7IK/0fNJPBZ6qcB1QAAAGEaUNDUElDQyBQUk9GSUxFAAB4nH2RPUjDQBzFXz+kolVBO4g4ZKhO FkRFHLUKRagQaoVWHUwu/YImDUmKi6PgWnDwY7Hq4OKsq4OrIAh+gLi4Oim6SIn/SwotYjw47se7 e4+7d4C/XmaqGRwHVM0yUom4kMmuCqFXBNGPbvQiLDFTnxPFJDzH1z18fL2L8Szvc3+OHiVnMsAn EM8y3bCIN4inNy2d8z5xhBUlhficeMygCxI/cl12+Y1zwWE/z4wY6dQ8cYRYKLSx3MasaKjEU8RR RdUo359xWeG8xVktV1nznvyF4Zy2ssx1msNIYBFLECFARhUllGEhRqtGiokU7cc9/EOOXySXTK4S GDkWUIEKyfGD/8Hvbs385ISbFI4DHS+2/TEChHaBRs22v49tu3ECBJ6BK63lr9SBmU/Say0tegT0 bQMX1y1N3gMud4DBJ10yJEcK0PTn88D7GX1TFhi4BbrW3N6a+zh9ANLUVfIGODgERguUve7x7s72 3v490+zvB/sscnfVo+FXAAAACXBIWXMAAEuXAABLlwHuxW8gAAAAB3RJTUUH4wQSDTUA+X2rvQAA IABJREFUeNrtndd240iytXekgSEllZ12dd7gnKf53//yuJkz012SaACk+y8SpEiJBh4JEnnRq1d3 FQkGApkfdkbGpv/3H2g5iFr93UjAOiiNwUatCz78s0kMbaDN0UdR1zFpPwRDEkHbQaNacSxiGAel Br+ndOWvJxJE2BZwrmF69PQrOEMSQfK3/xJJuONHhsZOud2FEREK7WrFsMsAVv6TnCMvkBUIfBAh iQAgq5mZAwwpIAW2uxg6oFBYb49myHEmmQSxwCpDrkK/v0mEZYLndXA3N4mQRNjmE4ih5HhIwca9 COdQaDA6mqkH+NIaf/j8pMkIFN599SufCZJjgh3OIVMAkEb1mMD1n5nGYp1hlb2tEM69LdplHoaR iB5iIkFjXY+7rbQMmWPe33qFn694Xo3PMQA2GQqNhxSRnOe2hiMrkBdYxIgnEsMOUKblM+bfLxkb lGZavvldXTzGmnc4QxrBWBR3xjHXA+6uf4J/v6xLM8MMbbDKsN4BjXOlEhPWpTqosWnmljgmjgAK nWOUxs8Vfq7CendaZygUHhNEYuIT13hjWyBTWMTBEyFhkVAQ99lvMEkJgYGg3rkaa8DBOzAYwYY6 R3OGRN4jx3SYFVmBJEIikamqs4zrdJvpcmYqA2VAhEgiTFZwDko7KSkSNMpOkwNuAKKIEEswQpaH u9ppg1zh52ugYtgmA6V4TPGyDVeiDpz4tzkALGLABbqsfFrSj+/8MeXdoEwtMrhEM6J8QsJEPxo2 JrUGIyQS1t0vx1wPeIVVzh7STBHkHE3QFjqHtUgkOAvxRijlpCQpSI1XNzNhjsGOYwrYIKOnDNYZ GEMiw93Uc8A6wzLBY4rXDZSZM6shzRCwTOCysIjwcUE/vvOnBS+U/eeLCkh9sxZKl3rgADRTHTXC l8oZIYnummO6zMM9zURVaWYgYeYYpgtdPi+JBAsMaDzNRJ5m1NAwM3VhJorACJmCtcFdm9/o9M/F MpnA6806w0OCxwVeNqG+JAc/NjlAWMZYuyCIcJnQj+/88wMvlP2ff6ltYWMJ0WHStF/yPc2Eo820 /EXDCDNsVxs41/l2IszsaSatQzOjpKIDco1CI5JIJBiFdS8K7SJBUo5AM9MdcQTOkBXBcYy2WGe1 j/iFkIerDA8pnmaaaUMzGSjBMjk6fzD8SGP68Z1/fWDKuL//qV631rlSmQ6uJspYYCiaubDyTaVo 0e+pAygU5tWiw2EdMoUkQizLw01DKgGHmXk6Fd0x0CgUGrEoNyZCWUXsjmYEFXrQ9JyoMBNLcIY8 MI4xFuscm49VOxOZcZzDaovHFE8pnjcwFvNoRjPLBA8pVmOct08i/PjOvz5yY/GPZ/2ytu+yUXSb MZ0QwJA00zfE9CrMeI4hmsDR/8kJMz4Py50mVKKZcVPRnyfPNRKJWITC4nttJhqcZiY3Ill2uwln rbU7iDlZsuMmNS28bvG4KLWZmWaavR6scyyp1GaMGe65+PGNf//ErcW/XvTzyp7MxkBPqnmaERzO 9Zt2119/A9ZjfFe3vIBzIDY/a73kYXWa6UoJqHTEms7m87ZArhAHAjQODlDaycFpZlrCTCQhOHIV yiprHTY51lmgdccNtZkNHhZ4WuB5E2Id0iRi6GuPHhKstr3nqhT4/Rv/5RMH8Oer+bkyF+6a6Pyn djV7GgsiSAHo3kPW64zfhzDzpsfst65v4xBqYMKMz8O8QBwhRu/qV1d9YuwOaJIIkRg/L6wracaf aZpT9D3HCAiOQg33pns1edbZDUoXdr/TtMDLTDONidDTTNojzQiO377yXz9zRvi5Nn+9mqtfJPr4 qV2t3H53qVeaqbV4uDA0VQIiCXbIMYOf/b6roS2gEEvAIde9KAF9NLvzL9a5QiIhRwQaBxCsgzJD 08wk8D4SkAK5Gr8i1Ut6q+yW91+sxeuubuZlM77m5BwmVxK/r6R+SPCadUyEnOHXr+y3L4IzPK/N X6+m4nMhAo/anmac7jhkQ3ZK7ZAzCIij9xwzpZl7gsLMPg99F41uT7w3zMPK05+v2eQKiRy586m1 UNpFgsBJmVmbKWc2KZDrkTnGF1qNezhlyDxcbfGQlie058N1zRJmvS1pZtURzTCGXz6z378KyfGy MX++mlpnckVPv7NDStjTjOqIZhpDDAWACqUec6oX7SzM9E3VOXbnxXQXjETDnTbyQOO3nEZwCNkF xe7ONIEG0mZCxvs3jhmvjYI//rba3lcHOWOPdppGpBmiqb5++t26kma2rfQtRvj+if3+jceSvW7M f7+YBkV1YhJR64pmWioxbTaYOuGMSEIwZArGnnHPmoWZ3oQZAMoAhFj4UtZ2Uxgb4UZpi1UGwZFK iJEsz7w2IwU5ftdNPgRHJFCMyjG5wiq7076axuI12+00bUejGTdlD1S7q5tZplg1iiERvj2xP77x JGLrrfn7n0WuGsajL5TpXCHQpqwCVqoJAAZnvNeOY84txNMQZqas6HqCiQVwvvHlZUYaPRW1wauB 5EiGBJqDoBgLaCcFAW6Ivt5nbseIaSg4Yln2ax4HYjRW23tvDm7MTldouhLPw9qDM01ZjRgS4csD /fFdLGO2zsx//l+RFa1MTsSEouYbAZfaTJ2QdVin0uaT2nBGJCDY0VnNs+tl2MKMw3CX14cw4/OQ djtNtWhmfzEhEKd3ppQC6RhGTgPTzLnHeUSOUSNxTKGxyuZOVG9Yf7hL4u4mCbt9lvdVwFVohoCn B/rxjT+mfJOb//xnsc07CHyPKNPHfL2nmUJXClm33VbGonZ/VvNjz4lJCjM38erjX2cjCVeti2Ow d0RpaA0pBnGmPM7XPc04uL4PIYeD94IjklBmBEVE7eyT5qf5Hc2sD7WZUabDicfR7CqplwnWF2nm aecBmRX2v/5VbDL3bp5sLMyIyUXNW+hFF2mG9otH13NYy5RrwBlSgJ/pnTVFYYYIGPCoZ0/CjKcZ AhKJ7AzNlB98pqwvHOJ0B86U8bAKjbGAcZITnLuHBqycI5LQBsWwosihB+Q8zkHevuZjjGnxFmjG +5AvY6zzE0vzQ0o/vvNPS14o+z9/qvW244Pw/aJMT/N1cZ5mLiweUxxSQHIU59vqTFKYuZXbk2uA yn4z2p6Atgn90NKZ0uystqm3rzn+ZGNAcFIQdL80Mzrec4ZYwgzLMX17QN7MTKt0uRIjwSqb6a4h Mfu6mUWMTfbGZouEfnznXx640vbvf6nV1l7IxsbCjJho1D7SzFmI6W4O6+QwdnXOELzkmAtbGJMT ZoZ/9+hPmMGu/28cwR1Y51C1HaUAidO5EZwptQEGoZkRB9txzGBFKmc9IOdxfk1BjmVc9pYc7LXu ljpo6J2+lSbYZEgi+vGdfX3kxrp//FSvG9tfNvaOMv3N10pDypJmhnk/GPLgnD+rqSr0zpqYMHNz E2uuQEASIStg7S1MTP06U57K12FoZiy8ZwyJhHEDccxlD8h5XKIZBQLSGMBANDPFbr/XtZkcn5b4 4xv/8lB6QL6sba2TOg1iIqYbMrevm5HQl6uAA5MornKG4OVBrSp9qyZ6lOlmhBlPMzEhiZCren2P Qt4KHNiZck8zTrtbMsfxeox1yIvev2t4D8jbgyWPm2kMC2Q55lF3SIE/vvG/feJEeFmbP1/NMI/z ECjT03ztaxG0gRQQ4hrNdPKNg7AB33FM9UOqszAz4vAScaEQR0gkMnVTNnVvzpQSkewo/8+AozYg wJs09RTDw28eIA0ZIZZw/XPMDXtAjkMzhEUEuI4PfN32lCg4fv/Gf/nMCXhem9XWCA7Oy/mwVmVz A2FmkqrMYUGlc+UJbSGg1flgdSFRdLjBdI4zOIPk0DU9WSYmzIxxSX0IM+/2uQtvoC2RFzVeiyfR 1dA6bIpyy6lXZ0plnCSSnJRz1k07DYkQR2X5keszsW/eA3IEminAgGUMoF+aoZuQzjnHb1/Yr18E Z3hZm79WxrdXsBaRBNwQLZQGQpmu5uuTp0IOaUZNuX8lZ+VZzQZ+KBNu/jtZJebjLcgLRBHiqB7N TGV06Ux5Hhy9rUGpzfQQw/0393p/iJBEpcNRT2rxXXlADj+2BUBYxCWM9ifHTHqe4Ay/fGG/fSk9 IH+ujjwgfWaW/bd0v8LMZFSZy5Xee5qRF2gm7IoZziAFtGlIY3PFzDDCzJU8BApfXBIhq3wCdlrE OYAzpTfQ7o9mep+sDvWYfmgsK2aI6Z9mchCwTMrnut/lbWp5zgjfP7M/vvJI0mpr//dP4w1i3yGI NgBBCsD1m67DoUzj+br60dbrNBNsWjBIAWNbXfkszAywRFGFPMx3NJMXN3sUdu9MmcimQHMRHIsd zRTadR7DvvWYWIKArAeO8WvqazZt+XlCw59jekiw6pVmJjVLkDey/lp6QP7jL33ZyFrveqN7sulJ mAlalal75v46zQQpzDBCJGBbbyjOwkx/wkytfneeZpKoPKFd5WmcKHFqg1VvzpSeZqJ+aAb9PBMl x1ANTa76CNDI+h7mlU0OEJZJub70kTNTUWWI8OWRfnwTi5itc/Nf/3fayPojgvjdpQY0E6IqU2u+ btw46KgKWE8jOSIJ67pB/mkIM1N7BaFGeZgVSOvQzHSHd6aMGhg5XYNspZ2UPdJMH89yHxwTrAfk nXSu2WRYJqVJU+c0M4nJgYBPD/Tju3hI2CY3//XPIivqXbeq6VtXV5gRAYas5brrXHlCGydpJiSJ wp/V7IpjJiTMjHg51YWZlqnoaSaJkEaVOsdPfSuw0GUP7g6dKR2glJOyrJsJedL3L52MOt5VVAar LbLZyDoAmlmkfdFM4Ej4tKQf30oPyP/+VyUj65MIonQpWzrAdE0zQ6PMhfm6Q/ska0ttBgFrM4wQ RbC2Y8V4rpgJgafLPHTIird+M/fQQt47U/queow1zdd3NHNwpqnDGHZ7N/Yc01Wd8uwBGdRwe20m wev2XgquH1L6t+/8aecBuclqnPg/iSD+pT2WyF3H7QNCUWU69957oxn+Ie0CkCi8Ft3H5usszLTi aXr7Zzd56JAf9JtxNy3M7O9srqA1REdGTs4dnGlSIQJhJMEYctUNx/jW79titk8KLLFdaZf4mN4+ zSwS+rfv/PMDV9r+4y+1zjqzTyoUIk8zqirNVBFmxCgJcThf92cgvKeZWnLWMBzjRTbVT++sWZhp fF96yUP31i03v4+dArfzFdEGkpeKRRuqdW53pkkGRzORBGe1PStODmOxzrCZISZgmllleEjxkOJ1 c5ttCdOYfnxnXx+4tu7/ntWqhQfkOQQpFCKJSKJQncVwTFWmP4g5pBltyrMVRzTTTBPoop+R5xgA SvclHc/CTAOe7hX7rEXmT2hfo5mbIU7rwMgjSFkUHIm2tUeHJ7Q7mH864hjRBccYi02O9WxkPQma 2eIxxeOiO5oJ4wRTHOHHN/7tiVuLf77q122PRtaeZuLKTi9XhZnRUGaw+doTzAmaGelX+zapRc+O UUELM0Et1TTQ5Vhb+jTFuAttxh0nXq7KouDTQFONavc0E3VBM+2fv0hCcORFq/VseA/IebSnmVdP MyletrfguRZJ/PGNf3/iAP5a6ZfNgZF1u97YFxBkTzOdVJgNjTJERxPZMO/lfqIRHDgsNWrw3e0M M8qzmv1zzIUfFwTNuPGFGbp2K/sIlLFl3Ux0sd3WjQkzH4EmPmnkVJlmDquAR/x1UpR6TGOOKSEm vyn/0bvSZh7Ssm6m7R0cL5EFxx/f+N8+cwY8b8zzxpzI595Eo0IjklWdXi4LM8OhzDuIGXjtLGlG ALrFK1SLDSYCIjEQx1xaGuZ2eR/ycMiQ7GkGfbdCD0OY+Rhbf0bdv5A1c6a0AdCMFBAcuW4o9M4e kLdB6qstHhZ4SLHaTE9UExy/fWW/fhaM4WVjntclxJzmFupFmIF7c3ppqc0IN4hD7GXbmmEWkhM0 M9R3EyAliKEY8ERu0MLMKCRBtZtH9xEoY0tnA7iz5/BvRpg590P8MfVCIxYQe6CpnArWQRknOUlO ygy9hggBwaEacYyHmHUGPUPMzdDMrm5mKjTDGX79wn79IgTH69Y8r83101j9VfPsnF78qYjL6+MF KhK9TpqdH21tuWAaCyIIAacbSYJNf4iUYDQox8zCTC2IGTgkxqDYNb68bTMddzG21mJbgPktp5q+ B9ZCwUlOAqQHpBnBIXl5OKsuxMxG1jdIMxbrLR5SLFOstqFXbTPC376w37/wSNLr1vz8y558dgYV Zg5962RzB1bR0zxOVOMVc8iFxM8j3qTJ2prf3SjEvueEGqND2izMgNqemukpUD4Po91ZtjsUZo6A JkfBEHsjp8q/2tNMJAgYiA8EhxRQpt7X+UY7qy3UDDG3OIwttZmHgGnGe0D+8ZXHEVtn5h/Puvbm bG/CDNWhmXNUJDqfNMOdf3cL5nua6XNIMY4eE6wwM1wY6m4nDR6SqzRzD8LM4XqwycH5Dmiq04x2 ghPg+qaZN46pc7MC9ICcRy80s+sFvMrCohkifH1kf3zj3gPyv/9VVHE0G1iYaU8zott5/NziEZQw c0gzJWRU/O6alygFOIPSY2b2PQozVJpgDCMqtMxDIkhRGofdrTDztiQYbAwERxxVNXIyFkAjmqnz VHIOKaDrcEywHpDz6IVmTOlssEywDoNmiPD5gX58E8uEbQrz33+eNrIeTJi52humzU6T6GrSnMac e7BgalOeKiqqt6qrE9mSY8z4tWBBCTP99oJqBzGjhGRvGAvcbBWFqxlbbaC3pe9BFaDZ04xzrsaZ oMoXxBkiAW2qimdK4/UOIGbug/Mxb9cZFgkWCTbbkePzaUk/vvPHlGeF/Z+/3htZV7EC6FyYqfJ1 bnemKfJCQ2UqEu3n8YoQE5owA0D5ruq1aKYiIfIdx9ggZpxwhBl3fgpslQCdKjEDB+oCzZz76smt Ig1iqDW0hvRGTteAxliASm2m2xPOnCGSVTlGGawzbIt5Wb9fmtlkWKZAgnU2zjU8LujHd/5pwXNl //en2uadPg89CzPYOb3EElLW6Fgh2sw1k1S/jxfMN5oxnUmCgkPwUDgmQGGm82WYqLvtpJGKiJR+ cxittBK76T12zWKr9IEz5UWgMQb7naauaIYxRBLGXueY2ch6Hoc0s0gADE0zy4R+7Dwg//5TbfNL WwLBCjOHNBOdp5l31y+azePNICZAYaakGQHJoa7RTJXb5zlGm7A6eN5qxUyHEDOuMINdxzzfKupw Jf741c5Ncr1sHMM3Z0pxxZnSGFB1mrkWxD3HXH411LZUYu7QPml2jDrH35sMaYxFjE0+xDemMf34 zr8+MG3dP5/VOu/RPqk/K4P32oy+QjOnVZmKc80t1CF+WDC9jl2FZi4PvuOYAJt43lqPmd6aR48Y Ev/ERhGK4gb7wLp2sfWb6Gq35XTu7uudNuPgrrxO0HWOsRc5xlisc2zu2APyzjuHX6YZAtIEDtj2 STNJhB/f+ddHbi3+9apXWQ2ICVmYAWB33UR9Ecjl6xfV5/FOVo4whRn/2neVZmiyHLNn6HA9Jqsn wEgOGMMEqlCIP2gzd3iU6SrQRPKs1banGclJXaWZ8xwTX9Rj7A5iZg/IeZx9ljWQI42Bfmgmkvjx jX//xJ3DX6sejawHPpj97kErTU6udawQVeYauj32/rBgHtHMmSrgC8HnDDJgjglUhQhGiQkqJLlC jLKN940ZDbqOYusc8qI86SBPAY02oKY0w+jSvtJsZD2PWm8mANK4tB7rakiB37/xXz5xAM9r87Ix tn+qGEWYAcon8Vz/rf2zLy7P432sHGEKMyXNGEheds+rfps4gxAT4JgJCzMUxBUOFqhCIYqQSGQ7 mjn86kmvoR3G8L0z5fHHKgNJkJyUc9Unes8xzkKpExDj7ZNmD8gqb3fz2D/LRKU2055mBMdvX/mv n3npAbkxw7ztjCjMXKUZv1qIC3MN0a0/hXTit1+gmZPxYAxCwNopT3AhCzNjbSeNGhIHFAXiCLFs axh7q8LMIWGUzpTywJnS08yBgXaVGJaHyPC+O8NsZH0hYvO4OvLiTZtp3G2IM/z6lf32RXBWekB2 lY3hCzOeZvy2icPpNpXi40dQ/4tHsMLMIc0I8R4A3SmOkQLWTqa52ZSEGQpxohwsUN64J5Zl3Yx1 c8XMRaCx2OZguy2nBjRDhNhzzEGb0dkD8ipHzqMizfgqYKA2zTCGXz6z378KKSobWU9fmPn4wfse /TjVG10MDDGTUCPetBl+yQGOESSfEsdMRZgJJA9HD8lbG+8I2Q2d9XW9xbZ0plSIozcjpz3NXLCe +cgxswfkPLodWQEQ0rhMs0oQQ/j+if3+jceSrTPzj59G9WMCP5YwU/d732jmQzdRsQ/ZwItHyMLM nmaidzTjjjlGwLrpcUzIwgwN2ComfGHmkGaSHc0Q9Wz+MP0YGotNduRMWdIMJ2VKmjmcQP2+Eg44 ZvaArCoYzCGoRTM5CFjGcO7KeRwifHtif3zjafTmAdn3C2TIB7Ov0oxgdN/7neeJqdRmBCTev5kx gpgmxwQLj7Tfd6c5JCdoJolKmpmFmapAc+xM+ZFmDjmGUNrX5Rqr7Qwx9d6L5lF9+FPZ3nJSnemV 8uWB/vguljHb5F14QA4wdw8ozJQEQ2XdjNktwWJEjglcmAFgXVlqJABtdnoGQZyxMp6FmcbZTAHH avRA+aM6SVQaxuImyi2HiWHpTMkRR6ADmvHzrzeU9RzjlZjZyHoeA9AMEZYJ1tsjHCTg6YF+fOOP Kd8W9n/+LLJhIWYqwgwArUG7uhn/B8ScWJeJaU8z+5st+bQ5Jih4PAExbu4hekab2Z1pwk00jHcD 3moPNFIgdi6RJDlZ5+D1GMI6w8v2dhSveUyAZjKkCZbpTv8jPKX04zt/WvBM2f/9q9gWk3rCB7Ey eDf2Lrx+LR4ZZcIXZjzNaAPBwQggWPcmat0gtAwScboBXWHw1NxbrHH2Xpo+nEnezSp05toRwt7Z sNfgjZyUcsuUOCPOnNL48wWbvDwxN48GT/Ect4Y0k2ORIImQSPr9K/+05Erbf/xUm8KO+KIyljBz 4XsvfLDXZgT3/2Sn8KryTHeilVmNP13nW+joX97Nx1eRiK5O33T9ofW9zLUFj06vCXQ8Qdc2R6wS w+5S9uQq2GB1oQ9r5IXbJyTgYOxBgtLR3elqlSW6fEG9v6JU/KNXo/fxwwUDj46OHJ/El15phs58 IC4wwfEFXfiEvm9RrpzkpDQ2OSJZ1srUy+kGt7y/n+eGznA/OIFzsOWMJc3p/JdP/OujAOF1ozeZ cUAiB7zWyunpKnyaa/D9riEJueOlmfOLtTJUcZmnjh/D0/nhPvz447/v3JWrvbJOuzP/i96+t2xJ 5D50U2gN0Z2t3P2/h33MvepfTQDj8PTc8RlXCuuTqNObSB9phoO8yYur8y4xQH70vJhS6z9kLDY5 iFws4LA75T5s3G5jEzUSSBkYYVv077BBTQMd6iBCEmNbmG1BScQfUk6El40JtA2j6yLGrtLfcjWv hAiMXdxgciElhOs/fdm51YXeJkEAjMF17VHQAYi4LmeA7i9+92esg7NgDOzaccQASa7vwaotqNxB WxBBsBNlqjTqMbQgku3MsBabojSyXiTl+1wk7traupUqw8rDEJGYTalqQkyERQLO/K6x1cbFkj0k YhHzl4152ZoQzddcX7hY5elz5/8HI1jbRa3M7TQhrXBWxTrAgXM43JrVX48JQO9XFOPK4vO5/9hR ZBw4VY156Q5dud3WvSTbmcBuPxhZW4cswzLFIp5ppvmcuc6wTLBMsMrmGF5n/TjCMgHnR0FUxjqH QlvB6dOSP6b8ZaNftzYsOjyzB9T+9FLzAp2DxYX/x2/zO/GV18p9qQdnbwQjOFynB0n6i+GY78of +t0JBgDGwjlIAequ9/ntJOG1H8I5iKDNLob0XiOchZlDXtkUeNkgV0dToRRghFxBWyQSgp82dpnH hSF4qQtqUzp6zm8mF0Yc4WmJNAY70P8ZIRLknHPOETFjkRWGMXpMxUPKAdd3Z7ypr85+QhCsI5S5 fZo5QBnnSoLplmYmjTInrv9M017ffdU7CvmVGB3RzM1kIKuGMh4HyxjSkUZ42yhT8Qd6+6QSYj4k mORgDErDORiLOALnXe543g/KFD6Gnmb4TDOnIEbiaYlFcgQxRyjjqzGdY4wRIVcm15Z7oEm4da4n v4KuHu9xaz1nlKktzOxRBphp5vzFX3Qe2KPMPoa+aaObaabyD9mjDFAWoUeeCO+GZq50cHDIFJ43 l4yrpChRxmejMeUp99k2sh7K8HJ/09NMHEGwmWbeRiRKiOHs7HvLHmUAODhGjDHS1hXa+i2nx1Qs E2YddMAKDY33LR2jzD0IM4co459eQlk3E/hKPNDqUsE+6RBl9v/SFc3ciTDjN9rfwMXB7UxJ9v/x PoUZ7wH5ssH2mvvmIcqUNOOQSLCZZhqhjJ8PtS1tIubdOinwtMAyPQsxJ1HG5zBjjBNZ53wBjTJW cvaYikXMjMXICg0N+kRXV2VEc0vMGx2Xesd9GGZXN6NdB7sk/RVQ93v4s12bLL9yRAKFa3su7GYq 0K27QjPvfqYxb0ToV5ERQzHKSWPvNrzOmksCWmMDLBJgZ5Qzj0pxP87DTYZFgjTG5l5jKDkW6alm RVUnMaeNlZxJzpSxALRxL1slOUtj/ssnmSv7c60DbAc8jM3tuW8RaGPwfaMLybmjTO4CzQhofX/H ERtAzKlMLGlGolAw87mwmjOCT1ezI0K4u9AVDmebQmOVdVDponS5EsNhO/sYNEpUvaOZBe6OZgTH IkEsW/dac84rMYIzvZsQlbFqY6Vgi4j/+jnKCvtzrbNRnCb7c1xqgSL833/rsvn0be8xeWH/Y6z9 rMp56OWr1OlnEWtyqe82mA51CG8Pdg4Z7zEJz/yQo1qZgzvrW735GPoI3/g2E0G+Ia3jAAAVzUlE QVRpvGywzmp3Rni3wfSWhxbOIY4AugV/kr5Xbl/2+/FZtg5JBLqb3TrO8JDicVGeKKw+Pm4wHS4r nDEiOjQysNblyhrr4og9LUQsSRk3wuvfqPW/9OGvCN8iz6/EnWgzty3MXHhfNgbEIUV5JuLGlZg2 OXs+OMrsaj70rM1cee1x7nS66p3FGnDjq4gy2OS9GFn74o80BtxslN307mhsdjG8bX2Ls9JKqfOF zzqnjRXH2kyZotoW2saSpZH44wtf5+bn2qj7PrYtDhFkrpu5jjLnhzbgXdBMyBUzRP2+bmsD8rqC bt6B8B4qZi78QE8zvm7GmBusmNEGmxxZn5BRKBCQxABmmmkI3F7xWsSlO8TtDcawiJHGPT5ibzTD mP4wIebKFqqIJFvEYhHzdWae12a4ouDAOuaJdwtAe5q58YqZi3/FazOCl+3LbkqLoYGKOZWGFIgE CnXvrdBd03TVGhCIJfLb6kltLNY58mKI6sJcAYQ0KguK59EgP5XGlpBEwG3RDCOk8ftmd73SDOeM g320M3AeaHQRS76I+TJhq6153pg7PIUnPlLIrM20ea3Upjyj2IZmwhJmqMuLqRKSkmZkc5q5n6NM F7QZAmKJXI1GMx0KM8ZiU1zqE9MLzRQgIIkAd6IiZB5VRrlbF8HdxG4dEdIYi0Eg5pBmYKzgDKdo xk93WWFyZRLJHxL+kPDXrXkewJkyJGFGnFwDWtLMXbky9UQzd6XEnKSZqB3N3PaL78m8epeuXuGf ur7lPSC3xTiPUlYAhCSGw9wL+MRaUmV68Lt1aQRMebeOCGmENLnSJ6ZXbUZwBpA58zA7h21hMmWS iD8u+EMasDNlDyglzoHIrM20ea1sTzMjCzM0PowWO5o52Xj+zoWZij9NaUg5JhG2EWasw7bANu/l yqt/ZJbvtJmZZpqOXJUoMMXdutLIOj72gByDZoy1nDHAmvOPhHPY5iYvbBLxnTOled2avh7/UYUZ XFBluqKZOxdmABgDPkVtZhCIqZgehztNdwvWrrIqczJdlRqZZppBTFa8N7IecfiOeX6XZO4FfJhs NYiwKGM4od06b2S9SMoWEqMPYx1wnWY892xynRWUxvzLg3ha8OeNft3aIWfRwTrm+XHJuKBlv5nb 6zFz6FFQ0dCOMRBrXqwwaI+Zpq1iag3By64nFb/IWnAOzhquajfZY+ZjX5nLd9ZacAbBRzviXv0m ePuk1+17I+vOR3Smr8y54c8nJhLG3ns1+n7IY+OCKjH0Cod1E6hGjyUez3hAdjgu9JXB+XcYzhgq OL04QGlbHDhTOvTgTDm2lUElD6aZZg5v1ju7pUo0AzACo+BWYhocYvYoA9Rr4NaGZm7Slekyypyc W4wFZ+B8nCWkyk0ojay3yAZR4GRNlAGgNDhHLEtP8nmca5F3hWZY6DQTySsekCOizCHNuGp/zRs5 jeJMOczsywicgVWJ2s2sB81Gm3vuHIwFEYRo+Nf7/VEDQkybS1UaRIhE7Uu9mSWnvRJQKMA1iWHf T5ADMoW/1njdDqcbNQvnNoc2WMTj1H7exsSY5VAaiyiUXZt3gPv5AZ8fSnPWYIexzlgrOGOVH2Zj 3etWP68L5/C3J/n7V7mIu0viADwmr/+YNjRzMwuJa/HrPM2wpjTTX4qMDjHV08M5FHuamZeNa6Fz 53UF0Dg0c+46c4W/VnjZTKMGxTlscxg70Cv7rY5tDmWwjAOiGcnx6QFfHstO2eEPY52xrhbNANDW vW7V80YR4ZdP8vcvMo26Mi3qC3Iq/r4rG0xHKx/1eB3hD/qwwVTr1zkHzkA0/i4JEdh4EPPOg6nW ZVgHwcHq1x7dWMWMP0lxOQjnfnHL2qMO57pC43U7Wm2v98ppdiLJn0+M5Q12wqy7/NfdYDqMIWdB 1B4JjscFluk4XNVgg+lgTXEE4rzqTtPBROpyZbVxsWRPC5FETBunJ3tmmwicVUaZmWYAsFN2kvVo hjehGeqOm9nYp6wlhzveLmlCM1RvJ+LGKmZYtQhcoBkxBs3QMcSs8zGrJaL6tTLvVmLJEd03zYgW KIODSuqxYsg5Hhd4SCHG0ynboIyHkmY0swcaY0ugiSXpls6UIwkztVGmMc3czELC26HMiDRDh/eO xo9hY5SZaYZop2w1RZkRaUYbvGZYZ+PbhUoBRq36xCgDwREJaIP7hBneDmUwnr7V2Mg6NJQpaYao ehXwu2Gsy5W1ziWSPy2EFK2BJnxVZqaZkygzDM20PEdGdLCwBabKNPh1rj7N3CHKVKEZxgaiCm2w yrDKQvE8F61RptRmJCIBdZfNZjwNF61j6GlGDUIzjGGZ4Gk5PsR0hTKHNNP4zcRYlytjnFvE/HEh JCelXZNPG0OYKVHm33+tfUdnlGn7Ax04B2p2IGwWdkanW8iMFkP2XpVpgjI7miGqsUlxS+ogVfaJ HJ1mjMU6w3qLoDbj29TKHK3EGlJCintsnSdaqzJvNCN6pxlGWKR4WiKSAU0FnaDMG80Qc60eVZcr 4ywWMX9acMGgjAu/i9IOZX4bCE1uYCHpCmVcI5qp9RVnIWZslBGnUGYYmrkZlBGsBn9c/tHONtmt qwUxqyzEZT7qCGWc12bEPdJMVyiDXQx72q0jKpWYWAY3CXSFMp5mGGtLMwC0dbkycFjG/CnlnKHQ rgZiDi7MvKHMMGhy2yjTnGbQMc1cgZixaUbwblAGu77pwksU7l6SsK4qc/lWN9O3rs+qFuscq224 q7vsYoOpjKGDNojub6epQ5QBoAyirmmGCIsYT0vEUaDPfococ0wzbT9QG5cpA2CZ8seUM0JhXEvN rKc70BZl7pBmOkQZ7Jp/1KKZK4XcqAYxQaJMQ5pxJc2gGs3cBsrU3lm7GsPuaMY6bHK8bkN3XhTd ocwbzYjSc21GmcbaTCQguyBCIqQxnhZI4hNurLeKMgCcc4wx1gXNeKDJlSWiZcqfUg6C0hUWq2E7 5h2hzDA0c9soAzTsRfuxXU3te9nslPUYt+PcBhPatWG8K5ppgB0D0Iw3sn7dTMMssKtamcMYGoNI QnDo+zDQ7hxlHKAtZDsi9DbmT0ukcb/2SWGizBHNdFF55ABlbK4sY/SYiIeUA65o6nvQx+zbDcrc Fc34ktUOUeZwJa5IMx+/ghpHNTCUGYZmZpTpnGacQ1bgdYtCTeZYsuxUlXmjGYtIgrO70Gb8CabO Y6jtjgjrxzCeDsT0hzJvNMO6oRk0cKYcUJh5jzJthJnqf3HaKFNhM2hImqFdwjSP6uC3ow+UuTea aQYc1WkGlWuPnEO+N7KeVHMVKbpfhn1ArEUU3QXNdK7KvBGhQSTAWY1Tb3sPSDYpQ4meUOaAZsi6 Dnev3jtTOgd1TqEZqv63M5S5H5rpCWX8Z1LlnSbfJIY6iWpgKNOSZqgaEc4oc5lmvJfeZZpxDrnG 62YgI+s+UIaol4Ie7/kc3wHN+JN0fcTQazNJBF5ht04KPC2xnKYrVn8oA8DBMeqYZg6BRnL2mIpF zIzFJYWm53ECZYahmQmjzLUNpr5p5kJh71SEmf5Qxn+s7yDnl+RbpZnGRS0VaQYX9S0HFAqvW2TF hHv297HBdJiHxiKOwOiWacYXtfRUGuV362IJdp4IpcDTAg/phK09e0UZTzOcGO+aZvZAo4yNBHtK RRoxY937OzWIMONRRnT4wzzNXI2Y/5OTHIReawF8bw/Bod2HJnLXVt8JR7XTH+KfJSkADWMxjyZ5 aN5o5t3cVGhssjttbls3D7c50hgAsuI2f6PrPw83OdIYaYxt/p7mlwmiCDSn2rXpVFsrGBOc6R4m RG3cy0ZJzhYx//VzlCn7c6UzNcIrjuhwIalOMzefPY1jaCxAEAJalzRDfUsIblBhZoDUqEIzN0N+ Pd3qPc34l+MSYvLQj1gHNXys0hgOyGeaaUoz2xyLGC4qiVBwLJIQm90FvB45ba3gfdEMAGXs88ZK wRYx/+1LtC3Mz7XJlbvw/t9eFnhHGqLrqFWimQkvJP0vxcaAeEkztTBjElGtksHtf4g2IEAKOD2m /fKkh9nFUOd4mcgR62BpBg65us3XtgHyMMuRxuAMjCGJZohpQjPGWM6YYEz3NiEqbZ+1jQRbxOL3 L3yTm59r0/jYdt0hOl9IZm2mfQyNgeBlK/Qhwuhwe0KtMhBAJFCcoZlZmLk6sgLaAoT7llnb0gwR kqisMbqxZBqm+5xxYAxflzA2LCevCQ3rHKzlnAn0SDMACm2VLiLJ0kj88ZWvMvO8NidPOXUrzIhe MrwCzUxyIRlkRvcHlIyF4GVzheo00zyqgdFMJ+mhDYgQCRQKdl6Na4XOYpuXQkIskcZlQ9t5NJnc FQiIo/Lf51F9MEKalB17tYVkZXLOoyHNGCs442CmT5pxQK5soYtY8EXMlwlbbc3z2nycQDqsPhU9 LSS3qc3UCXyDGNLx6STttRner2HsLdLg0TuxFIjkaZqZhZkTb8AW2wJ58XancgUQFjE2+UwzDUcJ hRGcu6l6o/4eZ0ZI4qNmd77MQ/KZZlrRjDZWcIaeacbPrpkyuTax5A8Jf0j469Y8r0235Tr7CVz0 9zZ+lWamt5D09uCeq+31NFNLm5mFmY80E52nmXm8TXMWm+J0s7u8AKLyIMlMM81phpBEZU7OKHNh cUpiLE517DW27B0100xLmuGMgZHpf0J0DllhcmUSyR9T/pDy14153rxxVAfCDJ1XZbpaSO68bqZK DK8eULpJbWbgUexo5uM6PQsz2NknXe4TkxegCGmMTTafcm9KM0XpEHQjNNP1g+OLitKLze70rmOF czDzfNiUZmA9zVgzyOudc9gWJlc2ifjTkj+k/GVjXjfdfLlPQ9H32/hlmrnPhWT/3Fb86dpA1qGZ WZi5QDOFmonwCGKyAttqze6yAkmMRTLTTPPhTxQn0Y3UHnXVmo4IscQiKTuqX5kP9ztNZqaZ5jRD zjJiIGuGmhCtc5tcZwWlEf/ywJ8W/HmtX7cWXbQILLv90vkM62zZpn6/YoBRdvut/9s/UiSjeszg HBgDY3C24ZeO9aZ1IoauxkZPh+lhLTgDZye+fVo83dLCep9RmcJqW++UtdcIIwFjp02EgvfVdL9K DBlDHMHaae94CgbGO4hhHOGxpgekj5v0fb0nzYI9d/u9+qLIGMOwJYxHVtvemdK5ogWTfnDG7nkh uQGa6QRlqIWzge+sYKdMM/yacUHvNMNP0MxdoYz3gFxlDY2sjQXniAT0lGlG9GlcUJFmomjaRCg4 eDuUiSQem3pA7mnGTplmRkSZPc3wwWnG375C21xZwelxIZYJs66hkVMllBmGZm4bZfY/8NADsiHN AJxAVAkFAkUZGhNl/FdzDjZlmmmMMs6h0Fi1NrK+AZoZF2U8zXCGWE6YZtqgzB5i2tgnWQeaOM2M izIj0oyfbw+dKZ9SsYiZddA1u+p5lGGHy+QAUTu5ZkzlSXZN79lHI+tmP9kbxjIqa/irRHu439lz 2nT4ab5rmRR3ZODigFzheYPVtoMyF+fKmo9FPFCTtO5n0gCuIcth7JUq19sbUuDTAz49lAbsLYey MBaSTzUPQxjGOussZ4yN9D7njZx+rgsCfvkkf/8qF3HtR+L6X+h8IQHupdSXqHZNTLc0M48LNMOO aeaGa4ELjZc1VtvSWamrGHqHv0UyzVXEBXEJ2xzG1CsTme4QHE8P+PyISHb5scrCuplm2tOMG5hm 3n2VNu55o543ijH8+ln+/kUmUY2LedtguvCyQj0cujtRDBt8InICqh0sr1jY29y5E+C80k5TaNtM DWplekoP68raz71KMZmNTg5WbYNJaay2yIq+yku1gRRl36PJaQPjbjAdxlBwRHJ6u3W+7KxKDAXH wwLLtK8XMOvACIJNr4x69A2mg5cTx4gGrgL+OOVa63JltXGxZJ8WIolIGXdZSH6/wTSYMHPz2gyj 3n+aP8nJ2KzNtIphof1UcoPCjDJ42eBl0y9keG2GCIt4bnfZPIabHNYhndpuXZWL5RyPC3x+RNyz DaRvVBHx2WyyBVVb65zjjNHYQSy0/blWr1sVCfrja/TLZxEJqqfKDCbMnNRmAs9Czq6oMv4XUc0g tJkEq2gzQQkzjVWZntKjrALeiRyTmAcvqzLaYJ1hkw9nCW4MpICclDYjglFl9ndNitJB9jZUGcaw TPG4gBQDPVbGgU9Nm2FAJCmcqmXrHCPijI0ozLzdUOuywhrr0oh/WgopSGl3spXG0Qmmq+vXADQz AZQ58zp3+EMGQxl/NZxfB6wZZS7TjDw4EzSBjc4zKKMNNjnWg/evc4CxkAKCTaad/Ih9ZS7TTDQd mjl3gokxLBI8LYeDmMNneVo7TYzCQplRaOYKoVqXK2MdFjF/WnLBqTgGmrMoM6Qw4+8lJkIzJ1Hm dN3PYMLMjmYcpkEzbVCmv/Rw7u2E8xRRxlhsshEg5jCAxiKS4GwaK3GAKIOdviUmQjP8A8owQpri cYlIjvYceZrhNA2aCRBlSpphxGkgmqmSKtq4TBnnsEj4pwXnDIV2+0qVeijT00LijmlmQihzqenf gMuzpxlfNNM9zdwJyuxpxlvWBa4OHqCMsdjmWGfjL36HNKOCX4llkCjjAG0QTYRmDlGGCIsEj0vE cvzHx7qzfb1nlKmlzTDGgro2DzQAlgl/WnBGUNr5ZeU0ygwszDhMY5tpjzJElXwiB6YZfpFmAhFm OLsiII1MM+IKEYaDMlpjWwQBMYc0YyeizYSJMiXNWERyAufCPMpogzTG47L3wt66NCPYiU6YM8qE STO1MkcZlytDhIeUP6acCMa4eijTK2dQ8MKML/vtAwA6MCEH4A1jO6eZrlGG0Gp+6S899jEMnGYY Q17geRPkSrynGQp6JZaBlf2+i6E2JRGagGMoOBYx0gRJFOLZq0nQDGOhHMY+k4qOMcaIucAmRAco 7fLCGznxRcLPoszAwkz4NMOodlPOoWnGXaGZEISZ9qpMvzTjgqYZ32Y3VzAmXFBwDtYhkmAB04wI VZXZx9AYxBKcB0ozSYRPD1hECLnO2wKCQAHTTGgnmM7SDOudZhrM6g4otM2UFYxYg2es1wc4WIiZ xDFdY2FsOU0PfO/G4KK+Yui7lgXVTt45bAv8tcY6n0D/G2OQF5ACSYR5NM7DTQbOkMRhXVgs8eUR T0sIFrrzkXMoLBhBzv23Wugfxhig9GkK6sKsg3Ww1m1yIy7/0VFWnXCgoWWzu1oB7Arj/BkWwaHR XWeRTlOh/fTXN/LuY7j/93Gn41xjm49/JbWGNkCBOCqNuOfRkGZypDGSqDS9GndEEsvkyDsp/Pc7 51AYRByST6AaPWSa4ZwLxnSf7aqIqr6nfTQQFc2So1eF33eZG5f3vX3SdGdAAIJBu/fKagi6F00k hrTbrbPjnXAuNLb5ZJq1nKMZYKaZpnlokAVAM1JgmXTsnTQCzTAoO+fUtGnmnAv6/wfnzR95MMmV YQAAAABJRU5ErkJggg== "
       preserveAspectRatio="none"
       height="31.75"
       width="198.4375"
       transform="scale(-1,1)" />
    <path
       style="opacity:0.07999998;fill:url(#pattern5725);fill-opacity:1;stroke:none;stroke-width:0.26458335;stroke-linecap:round;stroke-linejoin:round;stroke-miterlimit:4;stroke-dasharray:none;stroke-dashoffset:0;stroke-opacity:1;paint-order:fill markers stroke"
       d="M 57.149996,5e-7 H 198.4375 V 31.75 h -82.02083 z"
       id="rect5723"
       inkscape:connector-curvature="0"
       sodipodi:nodetypes="ccccc" />
    <g
       id="g17954"
       clip-path="url(#clipPath17956)">
      <g
         style="fill:#ffffff;fill-opacity:0.11764706"
         transform="matrix(2.2654734,0,0,2.2654734,125.33132,3.030863)"
         id="g1731">
        <path
           style="fill:#ffffff;fill-opacity:0.11764706;fill-rule:evenodd"
           inkscape:connector-curvature="0"
           d="M 7.997,8 C 3.998,8 1.999,11 1.999,14 H 0.25 C 0,14 0,14.157 0,14.25 v 1.5 C 0,16 0.138,16 0.25,16 h 15.494 c 0.195,0.006 0.25,-0.13 0.25,-0.25 v -1.5 c 0.021,-0.146 0,-0.25 -0.25,-0.25 h -1.75 c 0,-3 -1.999,-6 -5.997,-6 z m 0,3 c 2.35,0 2.999,1.762 2.999,3 H 4.998 c 0,-1.198 0.703,-3 2.999,-3 z"
           id="path1727" />
        <path
           inkscape:connector-curvature="0"
           d="M 14.989,0.6 A 3.652,3.652 0 0 0 14.022,0.039 L 14.001,2.271 C 13.996,2.729 13.549,3 12.995,3 h -1 C 11.442,2.993 10.992,2.69 10.997,2.232 L 11.018,0 c -0.345,0.133 -0.689,0.304 -0.977,0.536 -1.377,1.114 -1.395,2.95 -0.04,4.098 0.284,0.24 0.624,0.42 0.967,0.562 0.028,0.011 0.028,2.054 0.028,2.054 C 12.486,8 13.346,9 13.995,10 V 5.252 A 3.55,3.55 0 0 0 14.949,4.698 C 16.326,3.584 16.344,1.749 14.989,0.6 Z"
           style="color:#000000;font-weight:400;line-height:normal;font-family:Sans;-inkscape-font-specification:Sans;text-indent:0;text-align:start;text-decoration:none;text-decoration-line:none;text-transform:none;overflow:visible;fill:#ffffff;fill-opacity:0.11764706;marker:none"
           font-weight="400"
           overflow="visible"
           id="path1729" />
      </g>
      <use
         height="100%"
         width="100%"
         transform="matrix(1.8540124,0,0,1.8540124,-72.949088,-46.749801)"
         id="use10408"
         xlink:href="#g1731"
         y="0"
         x="0" />
    </g>
    <text
       id="text1068-3"
       y="9.5919847"
       x="4.9106669"
       style="font-style:normal;font-variant:normal;font-weight:normal;font-stretch:normal;font-size:7.76111126px;line-height:1.25;font-family:Overpass;-inkscape-font-specification:'Overpass, Normal';font-variant-ligatures:normal;font-variant-caps:normal;font-variant-numeric:normal;font-feature-settings:normal;text-align:start;letter-spacing:0px;word-spacing:0px;writing-mode:lr-tb;text-anchor:start;fill:#ffffff;fill-opacity:1;stroke:none;stroke-width:1.2470845"
       xml:space="preserve"><tspan
         id="tspan1070-6"
         style="font-style:normal;font-variant:normal;font-weight:bold;font-stretch:normal;font-size:6.3499999px;font-family:Overpass;-inkscape-font-specification:'Overpass Bold';font-variant-ligatures:normal;font-variant-caps:normal;font-variant-numeric:normal;font-feature-settings:normal;text-align:start;writing-mode:lr-tb;text-anchor:start;fill:#ffffff;stroke-width:1.2470845"
         y="9.5919847"
         x="4.9106669"
         sodipodi:role="line">CentOS Config Management SIG</tspan></text>
    <flowRoot
       transform="matrix(0.26458334,0,0,0.26458334,-2.8257501,-4.2054205)"
       style="font-style:normal;font-variant:normal;font-weight:normal;font-stretch:normal;font-size:14.66666698px;line-height:1.25;font-family:sans-serif;-inkscape-font-specification:'sans-serif, Normal';font-variant-ligatures:normal;font-variant-caps:normal;font-variant-numeric:normal;font-feature-settings:normal;text-align:start;letter-spacing:0px;word-spacing:0px;writing-mode:lr-tb;text-anchor:start;fill:#ffffff;fill-opacity:1;stroke:none"
       id="flowRoot1096-7"
       xml:space="preserve"><flowRegion
         style="font-style:normal;font-variant:normal;font-weight:normal;font-stretch:normal;font-size:14.66666698px;font-family:sans-serif;-inkscape-font-specification:'sans-serif, Normal';font-variant-ligatures:normal;font-variant-caps:normal;font-variant-numeric:normal;font-feature-settings:normal;text-align:start;writing-mode:lr-tb;text-anchor:start;fill:#ffffff"
         id="flowRegion1098-5"><rect
           style="font-style:normal;font-variant:normal;font-weight:normal;font-stretch:normal;font-size:14.66666698px;font-family:sans-serif;-inkscape-font-specification:'sans-serif, Normal';font-variant-ligatures:normal;font-variant-caps:normal;font-variant-numeric:normal;font-feature-settings:normal;text-align:start;writing-mode:lr-tb;text-anchor:start;fill:#ffffff"
           y="61.75"
           x="30"
           height="59.144501"
           width="722.67999"
           id="rect1100-3" /></flowRegion><flowPara
         id="flowPara1102-5"
         style="font-style:normal;font-variant:normal;font-weight:normal;font-stretch:normal;font-size:13.33333302px;font-family:Overpass;-inkscape-font-specification:Overpass;text-align:start;text-anchor:start">Aims to bridge the gap between Config Management tools Power users and traditional users by producing and release RPM packages of several Configuration Management and Orchestration tools. </flowPara></flowRoot>    <text
       id="text1047-2"
       y="29.961416"
       x="196.58369"
       style="font-style:normal;font-variant:normal;font-weight:normal;font-stretch:normal;font-size:2.34971213px;line-height:1.25;font-family:Overpass;-inkscape-font-specification:'Overpass, Normal';font-variant-ligatures:normal;font-variant-caps:normal;font-variant-numeric:normal;font-feature-settings:normal;text-align:end;letter-spacing:0px;word-spacing:0px;writing-mode:lr-tb;text-anchor:end;fill:#ffffff;fill-opacity:0.2745098;stroke:none;stroke-width:0.26458335"
       xml:space="preserve"><tspan
         style="font-style:normal;font-variant:normal;font-weight:normal;font-stretch:normal;font-size:3.52777791px;font-family:Overpass;-inkscape-font-specification:'Overpass Ultra-Light';text-align:end;text-anchor:end;fill:#ffffff;fill-opacity:0.2745098;stroke-width:0.26458335"
         y="29.961416"
         x="196.58369"
         id="tspan1045-9"
         sodipodi:role="line">https://wiki.centos.org/SpecialInterestGroup/ConfigManagementSIG</tspan></text>
  </g>
</svg>
