<?xml version="1.0" encoding="UTF-8" standalone="no"?>
<!-- Created with Inkscape (http://www.inkscape.org/) -->

<svg
   xmlns:dc="http://purl.org/dc/elements/1.1/"
   xmlns:cc="http://creativecommons.org/ns#"
   xmlns:rdf="http://www.w3.org/1999/02/22-rdf-syntax-ns#"
   xmlns:svg="http://www.w3.org/2000/svg"
   xmlns="http://www.w3.org/2000/svg"
   xmlns:xlink="http://www.w3.org/1999/xlink"
   xmlns:sodipodi="http://sodipodi.sourceforge.net/DTD/sodipodi-0.dtd"
   xmlns:inkscape="http://www.inkscape.org/namespaces/inkscape"
   width="750"
   height="120"
   viewBox="0 0 198.4375 31.750001"
   version="1.1"
   id="svg8"
   inkscape:version="0.92.4 (unknown)"
   sodipodi:docname="11-centos-sig-promo.svg">
  <defs
     id="defs2">
    <pattern
       inkscape:collect="always"
       xlink:href="#pattern5690"
       id="pattern5725"
       patternTransform="matrix(0.12653986,0.03390625,-0.03390625,0.12653986,2.8e-6,-5e-6)" />
    <pattern
       patternUnits="userSpaceOnUse"
       width="47.999864"
       height="47.999999"
       patternTransform="matrix(0.26458334,0,0,0.26458334,-33.943753,1.0069578)"
       id="pattern5690">
      <g
         id="g3664-7"
         transform="matrix(0.29934017,0,0,0.29934134,30.853064,-278.05575)">
        <g
           id="g12802-3"
           transform="rotate(-90,-298.5197,1636.0002)">
          <g
             id="g12804-6"
             transform="translate(16.279512,-899.16723)">
            <g
               id="g12806-1"
               transform="matrix(1.0666663,0,0,1,-26.935596,-4.1328125e-5)">
              <path
                 style="display:inline;overflow:visible;visibility:visible;fill:none;fill-opacity:1;fill-rule:evenodd;stroke:none;stroke-width:30;marker:none"
                 id="path12808-2"
                 d="m 323.36653,2798.1614 -5.40616,5.8005 -5.40616,-5.8005 v -40.8261 h -18.01333 l 23.41949,-24.8979 23.02487,24.8979 h -17.6187 z"
                 inkscape:connector-curvature="0" />
            </g>
            <g
               id="g12812-9"
               clip-path="url(#clipPath4429-5-2)"
               transform="matrix(1.0722788,0,0,1,-28.850792,-4.1328125e-5)" />
          </g>
        </g>
        <g
           id="g12768-3"
           transform="translate(-351.30671,-902.55818)">
          <g
             id="g12770-1"
             transform="translate(16.279512,-899.16723)">
            <g
               id="g12772-9"
               transform="matrix(1.0666663,0,0,1,-26.935596,-4.1328125e-5)">
              <path
                 style="display:inline;overflow:visible;visibility:visible;fill:none;fill-opacity:1;fill-rule:evenodd;stroke:none;stroke-width:30;marker:none"
                 id="path12774-4"
                 d="m 323.36653,2798.1614 -5.40616,5.8005 -5.40616,-5.8005 v -40.8261 h -18.01333 l 23.41949,-24.8979 23.02487,24.8979 h -17.6187 z"
                 inkscape:connector-curvature="0" />
            </g>
            <g
               id="g12778-7"
               clip-path="url(#clipPath4429-5-2)"
               transform="matrix(1.0722788,0,0,1,-28.850792,-4.1328125e-5)" />
          </g>
        </g>
        <g
           id="g12780-8"
           transform="rotate(90,1045.4823,1742.4169)">
          <g
             id="g12782-4"
             transform="matrix(1.0666663,0,0,1,-26.935596,-4.1328125e-5)">
            <path
               style="display:inline;overflow:visible;visibility:visible;fill:none;fill-opacity:1;fill-rule:evenodd;stroke:none;stroke-width:30;marker:none"
               id="path12784-5"
               d="m 323.36653,2798.1614 -5.40616,5.8005 -5.40616,-5.8005 v -40.8261 h -18.01333 l 23.41949,-24.8979 23.02487,24.8979 h -17.6187 z"
               inkscape:connector-curvature="0" />
          </g>
          <g
             id="g12788-0"
             clip-path="url(#clipPath4429-5-2)"
             transform="matrix(1.0722788,0,0,1,-28.850792,-4.1328125e-5)" />
        </g>
        <g
           id="g12790-3"
           transform="rotate(180,152.75931,1460.3469)">
          <g
             id="g12792-6"
             transform="translate(16.279512,-899.16723)">
            <g
               id="g12794-1"
               transform="matrix(1.0666663,0,0,1,-26.935596,-4.1328125e-5)">
              <path
                 style="display:inline;overflow:visible;visibility:visible;fill:none;fill-opacity:1;fill-rule:evenodd;stroke:none;stroke-width:30;marker:none"
                 id="path12796-0"
                 d="m 323.36653,2798.1614 -5.40616,5.8005 -5.40616,-5.8005 v -40.8261 h -18.01333 l 23.41949,-24.8979 23.02487,24.8979 h -17.6187 z"
                 inkscape:connector-curvature="0" />
            </g>
            <g
               id="g12800-6"
               clip-path="url(#clipPath4429-5-2)"
               transform="matrix(1.0722788,0,0,1,-28.850792,-4.1328125e-5)" />
          </g>
        </g>
        <g
           id="g12742-3"
           transform="translate(-749.79982,-1331.6428)">
          <path
             style="fill:none;fill-opacity:1;stroke:#ffffff;stroke-width:3.54330707;stroke-linecap:butt;stroke-linejoin:miter;stroke-miterlimit:4;stroke-dashoffset:0;stroke-opacity:1"
             id="rect12744-2"
             d="m 671.98437,2285.7893 h 49.60645 v 49.6065 h -49.60645 z"
             inkscape:connector-curvature="0" />
          <path
             style="fill:none;fill-opacity:1;stroke:#ffffff;stroke-width:3.54330707;stroke-linecap:butt;stroke-linejoin:miter;stroke-miterlimit:4;stroke-dashoffset:0;stroke-opacity:1"
             id="rect12746-0"
             d="m 732.22076,2285.7893 h 49.60645 v 49.6065 h -49.60645 z"
             inkscape:connector-curvature="0" />
          <path
             style="fill:none;fill-opacity:1;stroke:#ffffff;stroke-width:3.54330707;stroke-linecap:butt;stroke-linejoin:miter;stroke-miterlimit:4;stroke-dashoffset:0;stroke-opacity:1"
             id="rect12748-6"
             d="m 732.22076,2346.0256 h 49.60645 v 49.6065 h -49.60645 z"
             inkscape:connector-curvature="0" />
          <path
             style="fill:none;fill-opacity:1;stroke:#ffffff;stroke-width:3.54330707;stroke-linecap:butt;stroke-linejoin:miter;stroke-miterlimit:4;stroke-dashoffset:0;stroke-opacity:1"
             id="rect12750-1"
             d="m 671.98437,2346.0256 h 49.60645 v 49.6065 h -49.60645 z"
             inkscape:connector-curvature="0" />
        </g>
        <path
           style="fill:none;stroke:#ffffff;stroke-width:3.54330707;stroke-linecap:butt;stroke-linejoin:miter;stroke-miterlimit:4;stroke-dashoffset:0;stroke-opacity:1"
           id="rect12760-5"
           transform="rotate(-45)"
           d="m -784.62878,642.40875 h 49.60644 v 49.60645 h -49.60644 z"
           inkscape:connector-curvature="0" />
        <path
           style="fill:none;stroke:#ffffff;stroke-width:3.54306793;stroke-linecap:butt;stroke-linejoin:miter;stroke-miterlimit:4;stroke-dasharray:none;stroke-dashoffset:0;stroke-opacity:1"
           id="rect12762-5"
           transform="rotate(-45)"
           d="m -724.39233,642.40875 h 49.60645 v 49.60645 h -49.60645 z"
           inkscape:connector-curvature="0" />
        <path
           style="fill:none;stroke:#ffffff;stroke-width:3.54330707;stroke-linecap:butt;stroke-linejoin:miter;stroke-miterlimit:4;stroke-dashoffset:0;stroke-opacity:1"
           id="rect12764-4"
           d="m -15.377623,1009.0679 35.077058,-35.0771 35.077058,35.0771 -35.077058,35.077 z"
           inkscape:connector-curvature="0" />
        <path
           style="fill:none;stroke:#ffffff;stroke-width:3.54330707;stroke-linecap:butt;stroke-linejoin:miter;stroke-miterlimit:4;stroke-dashoffset:0;stroke-opacity:1"
           id="rect12766-7"
           transform="rotate(-45)"
           d="m -784.62878,702.64508 h 49.60644 v 49.60645 h -49.60644 z"
           inkscape:connector-curvature="0" />
      </g>
    </pattern>
    <clipPath
       id="clipPath4429-5-2">
      <g
         transform="matrix(0.9947658,0,0,1,1.7860989,0)"
         id="g4431-3-8">
        <path
           inkscape:connector-curvature="0"
           d="m 322.54143,2800.9375 -4.43505,5.7298 -4.43495,-5.7298 v -43.1429 h -18.93972 l 23.37467,-25.5367 23.13125,25.5367 h -18.6962 z"
           id="path4433-5-9"
           style="display:inline;overflow:visible;visibility:visible;fill:#efa724;fill-opacity:1;fill-rule:evenodd;stroke:none;stroke-width:30;marker:none" />
      </g>
    </clipPath>
    <clipPath
       id="clipPath16640">
      <g
         transform="matrix(0.9947658,0,0,1,1.7860989,0)"
         id="g16638">
        <path
           inkscape:connector-curvature="0"
           d="m 322.54143,2800.9375 -4.43505,5.7298 -4.43495,-5.7298 v -43.1429 h -18.93972 l 23.37467,-25.5367 23.13125,25.5367 h -18.6962 z"
           id="path16636"
           style="display:inline;overflow:visible;visibility:visible;fill:#efa724;fill-opacity:1;fill-rule:evenodd;stroke:none;stroke-width:30;marker:none" />
      </g>
    </clipPath>
    <clipPath
       id="clipPath16646">
      <g
         transform="matrix(0.9947658,0,0,1,1.7860989,0)"
         id="g16644">
        <path
           inkscape:connector-curvature="0"
           d="m 322.54143,2800.9375 -4.43505,5.7298 -4.43495,-5.7298 v -43.1429 h -18.93972 l 23.37467,-25.5367 23.13125,25.5367 h -18.6962 z"
           id="path16642"
           style="display:inline;overflow:visible;visibility:visible;fill:#efa724;fill-opacity:1;fill-rule:evenodd;stroke:none;stroke-width:30;marker:none" />
      </g>
    </clipPath>
    <clipPath
       id="clipPath16652">
      <g
         transform="matrix(0.9947658,0,0,1,1.7860989,0)"
         id="g16650">
        <path
           inkscape:connector-curvature="0"
           d="m 322.54143,2800.9375 -4.43505,5.7298 -4.43495,-5.7298 v -43.1429 h -18.93972 l 23.37467,-25.5367 23.13125,25.5367 h -18.6962 z"
           id="path16648"
           style="display:inline;overflow:visible;visibility:visible;fill:#efa724;fill-opacity:1;fill-rule:evenodd;stroke:none;stroke-width:30;marker:none" />
      </g>
    </clipPath>
    <clipPath
       clipPathUnits="userSpaceOnUse"
       id="clipPath10130">
      <rect
         style="opacity:1;fill:#000000;fill-opacity:1;stroke:none;stroke-width:1.90394175;stroke-linecap:square;stroke-linejoin:round;stroke-miterlimit:4;stroke-dasharray:none;stroke-dashoffset:0;stroke-opacity:0.23529412;paint-order:markers stroke fill"
         id="rect10132"
         width="198.4375"
         height="31.75"
         x="0"
         y="5e-07" />
    </clipPath>
  </defs>
  <sodipodi:namedview
     id="base"
     pagecolor="#ffffff"
     bordercolor="#666666"
     borderopacity="1.0"
     inkscape:pageopacity="1"
     inkscape:pageshadow="2"
     inkscape:zoom="1.464"
     inkscape:cx="459.69945"
     inkscape:cy="60"
     inkscape:document-units="px"
     inkscape:current-layer="layer2"
     showgrid="false"
     units="px"
     showborder="false"
     inkscape:window-width="1920"
     inkscape:window-height="1016"
     inkscape:window-x="0"
     inkscape:window-y="27"
     inkscape:window-maximized="1"
     fit-margin-top="0"
     fit-margin-left="0"
     fit-margin-right="0"
     fit-margin-bottom="0"
     showguides="true"
     inkscape:guide-bbox="true">
    <sodipodi:guide
       position="0,80.168753"
       orientation="1,0"
       id="guide1074"
       inkscape:locked="false"
       inkscape:label=""
       inkscape:color="rgb(0,0,255)" />
    <sodipodi:guide
       position="5.2916668,30.956251"
       orientation="1,0"
       id="guide1076"
       inkscape:locked="false"
       inkscape:label=""
       inkscape:color="rgb(0,0,255)" />
    <sodipodi:guide
       position="196.32084,-2.1166667"
       orientation="1,0"
       id="guide1078"
       inkscape:locked="false"
       inkscape:label=""
       inkscape:color="rgb(0,0,255)" />
    <sodipodi:guide
       position="136.78958,0"
       orientation="0,1"
       id="guide1080"
       inkscape:locked="false"
       inkscape:label=""
       inkscape:color="rgb(0,0,255)" />
    <sodipodi:guide
       position="178.34228,3.9687501"
       orientation="0,1"
       id="guide1082"
       inkscape:locked="false"
       inkscape:label=""
       inkscape:color="rgb(0,0,255)" />
    <sodipodi:guide
       position="121.44375,31.750001"
       orientation="0,1"
       id="guide1086"
       inkscape:locked="false"
       inkscape:label=""
       inkscape:color="rgb(0,0,255)" />
    <sodipodi:guide
       position="198.4375,5.2639376e-14"
       orientation="1,0"
       id="guide901"
       inkscape:locked="false" />
  </sodipodi:namedview>
  <metadata
     id="metadata5">
    <rdf:RDF>
      <cc:Work
         rdf:about="">
        <dc:format>image/svg+xml</dc:format>
        <dc:type
           rdf:resource="http://purl.org/dc/dcmitype/StillImage" />
        <dc:title></dc:title>
      </cc:Work>
    </rdf:RDF>
  </metadata>
  <g
     inkscape:label="Layer 1 - Background"
     inkscape:groupmode="layer"
     id="layer1"
     transform="translate(-206.67001,-189.72852)" />
  <g
     inkscape:groupmode="layer"
     id="layer2"
     inkscape:label="Layer 2 - Text">
    <image
       y="5e-07"
       x="-198.4375"
       id="image16900"
       xlink:href="data:image/png;base64,iVBORw0KGgoAAAANSUhEUgAAAu4AAAB4CAIAAAAi3+DqAAAFanpUWHRSYXcgcHJvZmlsZSB0eXBl IGV4aWYAAHjarVZZcuU4DvznKeYIxMblOOAWMTeY40+CkstlV1VHdEc/2VogEgQyE6DS/t9/T/oP fmRZk1ptpZeS8dOunR03LT+/50pZ7/n+9s78Wr/YU/2YxDAJrvI8lv1cyWG3zwlVX/v4ak91vn7a 6+h98eFQYuWIYb1Bvo6EHzu9z6k/gWYvP6Xz/veq40b3Dv7+rBVgLIM/4cRbSPJzflYSRCFdHFfF maRxWDLu7Voiyl/wS28c9DsA+Q/45fmOkE84HkcfaZVvOL120Ptb/C5KP0dE/A7hzxd34ZZfNH7F 75zVztlPdq4lAa7yJvWR4r3DQACrcqcVHBX/hvt6j46jZc8TrC2kOlIeeOjEQPOQ0iKnQ/teJ02E qLy54so8Wa6tSeXO85KicdDhmsDPkgauJpgTmPlHLHTX7bEeFmtYeRFGMsEZYcaXI303/NPji6Nz QuZEAeZV+iWYQ7III5iLM0aBAjovpnbxpfRc8vdfECvgzC7MDQl6Ho+LYfSpLbk8S7aEofqSTHW9 DgAR1jYEQwIGciExKpQrcyUCjg38OCJnUR5ggCwZL0TJKlJADqoBa2NOpTuWjR8z2guIMClSQQ0K CGSpmhbUW4OEPJmYmlmxas26eZGixUoptUSf8ipVq9VSa221V2/StFkrrbbWevPOXdDGLPXSa2+9 d3cs6urw5RjvMAweMnTYKKOONvrwCflMnTbLrLPNPn3xkoUWkFZZdbXVl2/akNLWbbvsutvu2w+0 duTosVNOPe304z9Ye1n9ytp35v6aNXpZ40tUjKufrMFc64cLinZiwRkYYyUwXoMBCJqDs9xIlYO5 4Cx3liRijCgtyFkUjIFB3cR26Ad3n8z9kbcEdP8ub/w75lJQ928wl4K6n5j7lbffsLb8tlu5BEUV AlN0SEH57ewIi7tmP32h+8Qd94LKLV2rQLubDHY416HAq3TsPDIWGts+agz6cT62cc5e8+boP3CL zbfYzofZ+VQAuUoXq5kXa/Oz8hH4PA782XXOBAZm87mmYOsspQ+ux4eo+47hmNZPzQvJQRZumBxA Uy9oLlgAGK6daWoqwhU4leawzGzxGeDCUB7tAy51zI3GCCkuA3GlCnzokjJKW6IDMV6GE2dIqs8M rtBzN7h19IdqaKpYuyCkRSuu0XT2AZ5BquI918gNQoKuLGMXOQUkFJSeEUQGULYiZkC+gGNRaO8s tJoNMR6lFh8OuFof3XfsV6NsHzONviYaWlVkKxDyYT8b6m9q0mpMmD0URH0NELJXIO9GNtZULmAN xdDcEoIgSNglngjKi64Y9/Phn5Aqvm1sIfPdIYa1gvk+tI7FG200+Eb1t7lkesM6xWQiuZn1mQT3 sGK3m0i+2d6GbzI7vR1gA7x3jJx5AyKMS2VALcst17n2Lt6hhsV0xxOYAr7qi1CQgAwlobNV3uBQ auGDoJqgKNCzS0Om0+BTnhehVegyvl4cPhBhoDKhTTguIosjswZxRLdS7P7Sve8kAyrYNrbR8WXQ 2yoCyKGcgvkIrgewjn50FkjMs4K/0qZsQw3Y5JDEkKQDuxC0TDYP9wF6DLEAIke1Qbbkox7IfUFe FYWNprBRLk3xVSrY1SDBPNGlUt/i+O6beS6HGHk4Wt9NEA2yIRv8gWxst/d1sIjJcYsMgzKCbgFm qn1BnNj6okjQj7pQt7VRDttrA0ht4gye4A1VlBVbnaOjhFYQezQH0EqawmO+a0HfI/ey5wn1Y14p 0tCNz3DpB5+P9qQvgWFEYph52tgHJR2OsDNDDo+vnllq6zY68O4nGFI9bTc5ctM4HYShtfX0f/ZG 2JQFy9TMAAABhGlDQ1BJQ0MgUFJPRklMRQAAeJx9kT1Iw0AcxV8/pKJVQTuIOGSoThZERRy1CkWo EGqFVh1MLv2CJg1Jiouj4Fpw8GOx6uDirKuDqyAIfoC4uDopukiJ/0sKLWI8OO7Hu3uPu3eAv15m qhkcB1TNMlKJuJDJrgqhVwTRj270IiwxU58TxSQ8x9c9fHy9i/Es73N/jh4lZzLAJxDPMt2wiDeI pzctnfM+cYQVJYX4nHjMoAsSP3JddvmNc8FhP8+MGOnUPHGEWCi0sdzGrGioxFPEUUXVKN+fcVnh vMVZLVdZ8578heGctrLMdZrDSGARSxAhQEYVJZRhIUarRoqJFO3HPfxDjl8kl0yuEhg5FlCBCsnx g//B727N/OSEmxSOAx0vtv0xAoR2gUbNtr+PbbtxAgSegSut5a/UgZlP0mstLXoE9G0DF9ctTd4D LneAwSddMiRHCtD05/PA+xl9UxYYuAW61tzemvs4fQDS1FXyBjg4BEYLlL3u8e7O9t7+PdPs7wf7 LHJ31aPhVwAAAAlwSFlzAABLlwAAS5cB7sVvIAAAAAd0SU1FB+MEEg02A0tZqcQAACAASURBVHja 7Z3ZfuM4luY/bFwk2Y7Vjsjom575zVXPPMO8w7z/ZXdVV1Zlpm1J3LDNBShbtrVwJygRN5WVGSGS IHDw54eD85H/+//QshHS6u+KANZASgzW6t3w3h+OIigFrd7+FOm4T6rf17GLUI4gglGD9mrFFi+g daUbI2j4mhr8d0IQRgBBnsLagQZ/xbtkDFEELl7/DQ8ACyXf/MUBhtzZxgNCCWRha/XhKFObMRQ5 8gyeN0IQRABQZBirV4++bgEukKe7/29RFEi2UGr8ICNCpBsUue/vN4wQL7F+8u7lhhHCCFk6gT7k AosV6Lg3YS1kAULfROoBLlrnTx9ddQitu952+hTHOIYhiGC0jxzjbbO2XNXCuB4TdByADv2a1thu sd3srRD2/Tj0gWMAqMIaCx6Qse7Ht/WgE44hXnLMu1YUeHrE89P4HAMgTSALLFYQgfeRx9cbyzPk OeIFgnAak4WOHj6shZKgw9JMq8/mCovHMHHHHuSYGEZDFtPHi07/tK0wDt33ZV2aGYgSFLYbbLfQ CtYNMAJCvLtVJS1GpZmL4pgQBMj95hgp8fSI50e/vp3SLYoCixvvacbjN5unyDNEiwkQ4WJBqA/3 YQyUBKPg3MuvN/uG/fyJ0fYDx4joQjhmrG/6PAMBwqjGWx5AmNkDBWw25dpGyJii4In7H5dmLkSY IRAhCEWe+/tEWiHZ4PnR04CTJlASixuvP5I9J/4sRZEh9phmbu7Iv/8v/vBvAe8qfLR8JcZASghR foB6GVvqrRzt+6TiwucuQihEBGsuimNsrS4/96er/Jo1yLNyn9jPr2ECGIVUwRqEESjzkQiVtFwQ LoiS9sI2fYZ5x0EISpFnsMbHG1QS2y0oRRh5zI4W6RbxEssbbNdvc8vmVodmCEG8BKxfwtvyhvz4 xVa3rCjMX/+S3J87K2kmGIhmqqPGyx/z8hsYBCAUwcVxzIjj0NFMEFXNUegYW48w1zuYlgWUBA8Q RqDUs2HpaCYgXBAp7cAq+jBfEf21IAClKLzkGKWQbJBlsBbx0vtvIYt0i8UKyxtsnt+c2Jhb9ZYm ABAtYbdeEOFiSR5+sdtPrCjM73+XWWqCENyr8PGizVh4MexaPtFAIdVxDC4zz3d4YeaVZmIEEfLM i/3s/YFk9waYzKEKiACBZ0BjLVRhRUACQYrBaWbCHBOCMhQZjGccoxWSLdJ0Ylt41iLZYLHC6nam mVY0ExPES6SbMbdNopg8/GJ3X6iS9p//kNu1sbZUprlvXWY0FMrdzb6H3QnUmMpXncsNtIAqMK8W fWgzYVjpyG5/wszZn7UWRQ5ZIAgRhCDeAI21kIXlARGCyMIOfOkpCjMlx+R+cYzWSLZIk6nmITma Wd5geYvtE7Sew1uTliWIl1issN2MQIRhhIdf7NMXpjX+/F2tn8270cg9DB9uqA1DM31DTK8hlRCE IUAg80ueQqMIM46q8wzRbqdpXCWmykjLMxQ5gghB6MtC7rQZHhAeEFXMrH2qiQCUQeYw3qy1xiDd IkmOoNV03qe12K5Lmtk8e9TD0yJCl3u0WCLZDEeEQYD7X+zzN2YN/vpDrZ/MwdHI/ey1kmY4YPvt sn3UmNZnnKvqRgiKfPLJAf5qM7rUZlCBZjp7Cy2OWLsj5UWOMITwA2hc3owQQ9PMtCaFCMA4ZO6L ZmAM0gTJ1rt9rlY0s8FyVWozF/Ncw9PMYoXFagia4QL3P9mXe0aApz/186M+8da4t+FDa4DstJme u6ziPdux++SdHvPCMZc/hUYSZtzYy3OEIRD2X/iyozox1pRlOoMIIhh/RbcG0tGMIErO2swBjuEc ReEFx1iDNMV2e4HShTVINli4nabnmWYaLmcu9yheIdn0NUgYx/0P9vWBEYr1o376S5+dGryPR+2M ZlSJZhZ9dVm9ImPWlwzQIAChbzhmFmb6a1qhQFn18jTNNH8LPRS7MwZZgiJHGIGLkYeHNW9OaI8u zPjDUzwAFyjy8TNSrUWWYru55GwSY5Ds7TSNfkbM2ul9i77QzGKFZN0xETKGbw/02w/OGNZP+vEv XXFecM97zT2GEJC24y4bslJqh5xBdjUnrkSP8UGYwa46QBCVVhseKjFHY7dGugVlCKOR61wZszuh jVmb2cVfAeEBx7hEq+3G05penY/DcqfpBttnzHWPGtLMFsvdTlMnSzOl+HpPv//kXGDzrB//1LUO fvOenrPD6KwViKMZ2U2XNYcYD+qriuAox8zCTK9NKSAvtZkTNFPrLQx22sgBzYtCMybNFIPSzLHX 4cNEcRwjR+UYd/xts7muCnJGv9lpGpFmPK3ZXWXkmFdtZrtppW8Rii/f6P1PJkK6Xet//E03OPDI J9Fr6kWbaUczbZWYFhtMnXBG4HIDM1gNUFxbG1eYAcpwH4QdFL4cJYS5SvOMI4yHMwk5rM0Iwuyo S/joHMMhAshiTCEkz7HdXGldTa1fd5pGpBlrJ1xEw7zQzBLJpkkfEoJPX+n9byyKaLLV//xHUeQN u4P394a6VQiUAkhzmvHQeK8xx5RpQ4eW4lmY6Z2qJQggXC0f2Wjwjz0UtUKyBhcII7AxgMZoKFgu CGD1iHW9x1tCGIcIy3rNo7Qix3aD4rqLg2td7jS5XZJ5p6khzeydaareh4Tg9jN5+I3HS5pu9d// s8izViYnfEK9piSIABdQdWimS4hp9yXdhjOC3VnN1/RnO01l0rb92+MKM3BVlUm501SPZohHxKkk lAQXCGOwwY2cBqaZg1N5rOnDOIKw7P/hmyyw3SC/6EpU9bB+02Ql7nQgTpxmdM0+JLi9JQ+/2OKG ZYn+x38WWWpdT7Tp/h5Rpo947WwNuIAsKnUZ7fYGRsJ28ZFjMFVh5jK+fJwmHwSArbZB4OsbURJK QQgE0dBAYzS0oxlr+z4y48+kYBwigJIjbOu82KrP8/lNt6hSV3Cni4d+oosIiEYjdSe0l0i3p5bm 1S15+MVWtyzPzO//VaSJfac7NKZJPrlec5aTbpv56GPvlJjulYuWokL9kCoE+LEaoBMUZtqvKD4I M45mCEEQwWaHcz5e3zXxenGFhSzKaRWGg1ptaw3AMkEs7MBVTEZZQRiDCKDV0Byz7wE5t4OQt5/z MbdmcznZYrE8SjOLFfnxi93csaIw//y7TLbm4yRsI8z0izI9xWtZHKcZMqZ03L0e4zbUiuNldeaM mfGaqzEThsgPOWxM7GzCSM6UWgPEckFUzzQz+qSgDCKE1oNyjFbYbpH15wF5KXFGybIqfwykM800 HWxO34oWSJNXKokX5OEXu/3MlDT/+odMNubEaGwszPCJ9toBmjkCMV0qF10sTtVDKuclx5xKJpia MNNJSPVEmHmhmSBEse+wUS09y0PiHMWZUisAQ9DMiEswpQhCGD2cXdrUPSBHWVMAxEtYgyzBYAPx kj47tUK6QbxCHCNNEEbkxy9694Vpbf/8vTSyPjsxmw3Y3lGmv3itJIQoaWag4DTgwTm+21M/nxQ5 CzNjazMBQRAhz2DNJXynDu9MOQzN7E+KIdd3ShFEMLp/4wsAu0MlaTJEYf4LwyS3axzFAIaiGXtp rKkU0i1u7nD/G7v9zKzB4x9q82xqndRp0Cd8ul1mbbnBHwSQ6tTD+6ZcnOUMziEElISW1cLJ9VGL P8KMo5kwRBQhz+utHz4T58DOlK80Y+0lmeMQp8eYIThmBA/Ii5N83GuKYljTdYr0dTQhcP8b+/Kd gWD7rJ/+1HVHI2k0soZAmZ7itctFcOcvBD9DMx1dcghoYKw8cF7jkOoszIy5WIEQFAXCEGGEPLso m7ohnSm1AiFwJk099eGbSdH/MkwowhDG9s4xxiC7UA/IUWiGANECwEwzdWCC4/tP9vWeEYL1k042 mnMwVsbDelpL/X2mSaoy+wmVpTYjwDnUcZrpRrnoboPpGGcwBiGgVc1CqLMwM4ow83afuygQhAjD etrMJIhzMGfKF8tJKW2vVn8DHA5w9vXGQuY9YtM1eEAO3/IcoIiWsEDRK81cRK4MY/j2g3574Ixh 86yfd0bWxiAITlUT7VCYGQhluorXB0+F7NOMnLKTCGUQAYyqtq80CzNjKzEfe7vIEQS1aWYIkusE aAZxpnQ0I3qjGTcpbM+qTHlQ30L2Zvt6VR6QI9BMCgLEC6BXUW3iuTKU4es9/f6Dc4Hts35+fOMB qRWKvfpbtYSZuhkz01FlTtLrC804Z4NJKBfvOIMyBAJGNa0BOgszwwgz58ZhudMU1ijjMS3iHMCZ 0hloi/61mR45JiyXwD4WqhlihmlZChDES1h7pU5VpyCG4ss3+v03JgKSbMy//ls7g9h3CKIVJMAF LGp7rtXaZRoOZZrH68pHW10h9hM04/OwCASMblfLfBZm+l+izsKOtcjzkmbyvN9PrhHx9dWZsh+g cQbaQhBZ2M770Patx4QAQdFHSTqLvMB2PW35eUo0k4CgLMk/08zLCP/8jd7/ZGFEk63+83d12si6 dIMOyrjRkzDjtypTcx/RnKMZP4UZShEEzjF4sivbpQszterdOZqJIkRRVW1mosTpgKYnZ0pHMzwg qgeaKT/6+uEYQpD3wDE+ekBeQcBJEwBYLJHYXghyQhOfENx9Jg+/eLSg6Vb/478OG1l/RBDnBh0E KOrSTGVhZlCUqRGvmyZDvdCMywKexOAQjmM6iVCzMDOGEnNwqGcZorg809SfDOADvpbOlAHCro2c lLRC9EkzXa/r7pBX52+8KLDdDFSWpvb4u4KWJsASixW2m+5NQCeRK0MIbu7Iwy++WNEs0b//V5Fn tm6UIE6bsTWW5urCDPcwHLRcd40tT2gDB7rMK+XC1QC1XXHMhISZTu+zL2Gm3VAsaSZCGCOvUDl+ 6sSpilffg86Axr6eaVLSb5ohCAJQ2vGuopTYbuYjwV7QDFmUO03qynb3Vrfkxy+2vGV5Zv75t9LI ugGCSAkQiBDW1jhwV5FmhkaZU/G6O/skY8os4IM040voe9lXKjrFj1mY8YCny243yLPXejN9nWTx CV+dM6XzPejEyMn2RzOdvo5XjukoT1mpEmJm5wFPvr7SBLHTZta1M1gn2pYr8vBv7OaWFYX5199l mtQY3IdppgCc00telWYq7jH5osp07r13gmZ8CP2EIAjKg1dA7ygzCzMV/zTp2o7UmBpZwBdCnBZF DqXAeTdAU9JMUNab6ay2U9ccU3TEMUoh6dUDskvmvyaYsUi3WKywvLl8mokX5OHf2O0npqT543eZ bk1Xo1EWQAARwuZVKzpWEWb4KANiP173ZyDsEmm5qCdnDcQxIeA4xvaAH7Mw0ygok97GYZ4jjBAE yPtJd/AOX22J6W6rNwjaOlNau3emqTua6aSJAJSh6KKS0OQ8IK9NMLIWyQaLFZZOm7nEsoRRTB6c B6Syf/3zjJF1MwSRBXiAIEBRVKKZKsLMmKoM6d8HQBtAgfMyTLQM/bajpw5CAJDy9TXbWZgZT5g5 ADG2e42w3GkKz9DMxRCnNSC0LLTz4pXWMveoPNMkiCpsN/GnC45hvAOOMRpJgmQ7bydNhGZusLzB Zn1RThFBiIdf7PNXZgwe/6WqGFk3bqoAddVEqzm9nBVmRkOZweK1I5iPNDOaHhOUWPruxczCzIWJ MR9pxjkbuH3iaxBm9gdekUMWCIJWRk6OZsTuhPboksIrx+hWA2NoD8i5taeZNZY3WN5g+3wJL04E ePiNff7GADz9pTbPpquUrxMIUhQQAUQIWeFL4KyVwdAoQ94lVA4SgI2G/kAzDa5MWj+7CABygGMG E2a8o5mxhBly7k/2MDK1Lo2mEZyqDnJhwsz+c+V5yXOiqZGTtZDuhLYgrrroWCTDBRiHbMExM8RM mma2Gyx3eTPTfYOcl0bWhGLzpDdPesgPfunOPIaVdM3TwsxwKEPG882yHWkztt3ju+/RgxwzJM3M 7d04HBIdtC6zgN1HyeULMx/uyRXddwpNM2dKazqjmTYcwzlk3jCYWIs0RTJ7QE6c1F3ejKs301jG GGtHkXF8/0G/PnBGsXnW6yftoLyu+VEbYcbRjHPhzSpkzZ9ImuEDxL8zEDNUAP5IM8OFfgIhQAmK 4tRLnYWZvn+s3oP3Mz6cNhOcpJnLEWaOPIgxyDJQp9Dw2v1sDZS0TBAmiG5KM407mPPSubYBiJRG 1ttrOc172c3saMZpM81oZviJThm+PdBvD5xzbNd6/aTHHY0uHgbBec+yE1TEew2a7pd9CMpuVdIa IOAc1jaRBBs/RyBA6RmOmYWZIZWYcdFBaaB4cxr/qoSZN0CToqAIw9pGTsYA0nJBwIlWttmtNeQY ASlrs8jsAXmxNLPFcoXlEtuN71nblOLLd/r9JwsCsl3rPx6NUpWcB3oVZlwundjlEZ6hmSMzl/cU //YXhvPrxIAB2AUgZ9JkzBBXFgEofXNeaXSUuSphptWT9jY+3HpW5oDLaxRm9heDNAUrEISlaFp9 FXH1ZoCBRA7GwQVUTY5xkXq7mT0gL5Rm9OtOU1KfZoaBH0JKI+swLD0gx9qcPQY6Mn89FXGiD49R Ee88aHobf19WpXc00+uYEwKMQhYwtvZ9XuR3+pBfLbWG4vDocJZmrkGYef3G0EgTMIYwrOFM6WiG cQLYvmmGcQgBJevJKj56QM6t8y9kRzPLJjTT92wlBJ++0PvfWOkB+bdCFucrMw0szLj/6naa3Jmm ujTDu41/xxYDr4QZRzPE0UwBY0H6GXNCgDJIWYNjLl6YOZq31d1jd3y+us+RqRQIgRCwhyzWrkeY ebMkJGWZ4IpGTkYDsLxnmmEMQkCpGhzjrwfk3HqimQSLJeIlUj/qAxGC20/k4RePlzRL9O9/O2xk PbD6cjpQVKGZg4sI7ypoTiLm7q9KSoET8ACqqDrsao0CLsBYbeHn8oUZ0qOi6jwHGj/rKOjg9Bin zXSVRTFRYWaf8JzvQRiCVgAao6EczVjbx5kgyiACKFXVR1BKbNd9VXb267XO7e0XcrpFvEC8QJKM 3D83d+ThF1vesDwz//z7ByPrCnG4c2GmyuVcUc0ghHAVK2zVe+Pt41/F6O+bMAOUtga1aKYqx3Dw phxz4cKM7eWxW0LMuGhwgmaOvaPJ1YRtMNgc0AhRycjJaGhYyomF7bYAK2UIKnOMkthukaXzsn6l TanSdTIG0u04QLi8IT9+sdUdK3Lzr/+WWepR0ZsqeGQNZA4RltsmFb+IeZtYM0X1+92q1AfNcA7G m3PMZQsztoe5S7qDmLH2dKR8dRjtRFeYujCz3zMVnSn1bqdJdUczlCIIoPV5jlEKyQbZbGQ904xC mmCxAKrRTIfzdLEkD7/Y7ScmpfnjHzJNzalg66swA+cG7WgmOE4zb++NN4t/jSt1+ibMvNKMgDp7 yKjCS2UcjEOptvUf56NMA0PM6GjgMkOdSdMbvzB7oKbfFLX9xoOtujOl1gDpjGYohQig9dFgWl5U IdkiTa8SYmZuO7KmpAmiGHaBLBniilFMHn6xuy9UK/vnv7o0sh5FmKlCM++sDHjdWHMBeYgfVyUX JSvRzGk9hoFxaNWNx9hcY+b0p0xPQ3FEvHM04wxj22szFyPMvLyX0plSIAiPviOtdtqMtW0+J0o9 xpzimMkZWfcyD+d2qEkJEEQxYPvdcAwjPPxin74wY/D4h6pnZO2xMFNJm9m7f149/nUS3/0UZmDL EHmGZk7eGNtxTFeJh92jDKbgMXnusclYPD3IyCwKhCGCEPmeuc8VHmU6CzQnnCkdzTBBIBvSDKUI wlN6jDFIt0iSq7ZPmhWZMzRTgABRDAvkaffdGAS4/8U+f2PW4umvHo2sBz6Y/V6bKSCCcmk+sSDz KrHm8uyUD6xKtsJOkz3FMVx0yTGXqKT4q8R4hXfOpCkMkOeebVOOLczsv6DTzpRagZCGNEMoRABz hGNmD8hZkan1ZQKU2kyeddaNXOD+J/tyzwiwedKbZ918NBLvmPQd6LiZKNypCHkUTvjp+NdHQPdU mAHsHs1IWeMFUwbOu+eYWZgZX4kZaWQWBYIAYYQ8K5fMN+9oyp/DHQ62086Ubi4zQay01c1xCC2T r4sPQdMapCm2W5jZA/KFS2dlpgrNEIQxLFBkbX+Ncdz/YF8fGKHYOg/IQZB6RGHmPM0cQ5mXWEPI hc9DcpxmxEGaOdQhlEJwaNOXye2VCzNjQcy4eOe2UcKwzAL26CicN8LMvkxyzJlSSct3BtpVaObl ENm7ghalB+RsZO3H3JwezeQgQBwDtnnJROY8IH9wxnYekLq7F+m3MONoxi3N1r63DTmCMuSckfVF CzNvaIZ/KCdvD3GMgDE9WsDYoxB14cLMAOPQZzRweyj7NDNnzJwBmkPOlNVphhAEIayF3OOY2QPy DJSauRsqtTzfZQHjPc2cpQhK8fWefv/JuUCy1s8jGVmPYmWw39xTu9n9sQf4wBAziVXJvs2bOTHC uIAxc5jrfs544aY+Njrs00ybgiUXL8zsA81HZ8pXmimstac4BhZyV1/K1VDfbKpW+J3b3M7QTLbL ArZv0rBOzANC8eUbvf/JgpAmW/3H77ovD8iRhJm6eHSCZvhLlw0ctX0WZl5pJjhKM45j7CAcc0XC DAH1H6YHHJmvNBMhz3bviEz+9Eivg+2jM6WjGSaIlvaFVPbjqduGL3Yckzsj69kD8tzyR+jcDTVa lgEE8bI8M3tClSEEn77S+99YFO95QPb9Oj0+mH2WZvjwEDOVVcnRjDikzRAKzgfimOuJix6OQx/w rqSZqKSZWZipDjT7zpRvdprsm4HnDnUXeanEzEbWNb6J5rTfujSTAkC8hN0e/kgmBLefycNvvnhA +ibMvKGZvdrofNzcRp+FGTgzCEczHEqV85YQCH7YyngWZqpf/N1o9ja3+XCfDDsyXcZGFJV5M50O hQvHxBdnyiAEyCvNkB3HBDuOcRCTz0bW7eby3KrQDCGlgbbrRLsbjbe35OEXW9ywPD3kAdn/9+Qk hBmU1RbAxStP83lgnV6VXmlm17NCDM0xl43k73p/LqVzSpsJEYbl/52FmbpAIwSC0AYRYYJYY4GS Y5It1s/NFa+5za1uS1PEMeIlVFEixPKWPPxiq1tWZOZf/11k6RVRYjM8cpqWCHYije9fZh4EYLeR xHnpZmfMOGcyL8bHoHSxnoGlZjOmpBnKPkjT+34k77xJyPGv6dFfwbCD0Bk5SWkXS8IYYcwqiT// RJKUJ+bmVncFIvNEbtqyFPECQYQwIvc/2c0dk9L88bvMklHtk0YSZk785on/pBRAwDlAwBk7veac iXgHxnFTe21yIrKR138gB6Px2ZhIzoRvcu4FE4IwhNbQCvudtn9l9yzWlvf58g9VgzZ58w/vlqd3 61SNnz34mOTAKugGTe3YRD6skR97b9c/nMMCQr+dM+TIc9a/fsU3SvoOB3Wo7mPvnXqtBIyX1aUP o0z/NENweHdy/z+RQ1c7/QuwA70hmVsriJRIE4gAd8G8HjdpjIGxM3blV9dqRuSv9+zuCyfAdq3S RFuLMBrvzk/MPlthM7Em31h7JgjZKtcioASUnc6VIdVeXMtVx77538NL4d7SbY89bTWWPHa39vTz Wli8ijHvSpZ1QKik9UJLOrx+NWavgx0vqQmEliBY8YyrbfF85OTbIX1iTsOlsZr9GSFgHCAHjtiQ AbUWUv8/k96vWkHc0kgTEGJFCFgUL6fch6SZi9hGDQLQGIQiS4crMEPqBA2fGyEII2SpjlISRixe MRBsn7W3ZRhtF91dab229S5CCQQFt8OOCNt0+BLbzaVP/Qw9s4povTt/aDsuXk5Ibx1P+v9LpMYf sQbaglBQ+qEC4fDoMOgaWuEStNJlKANUCTQfi4eOeJp9iLfQ4hLOPskZWceLMk9LBNdtbd1OlXGH IcIA2+1cLq8exMQLMAZrUORGKytCuljxeME2z3r7rD10+LLHxZUBsODUVSis6SJXZoCTCAN9w9jz h3rcCGMMsJfsJ1evw0/+aXJoRTEaQsBiSvXHBhiE1oCwSlBVVgoIEATvTw5fdt50s2jjagGnb42s jUGeYbFEvJhppvmsSLZYLLFYItnMfXgeYoIQiyXe5XVIaayFLAzn5OaOLW/Y5llt18YrOiTHS+C0 fe9dJOjQ6UwZX67hVmLGu9wk7jEE2JFH/+E+dIYa/G3Ch58dOPA4N1VfqTGQEowjCHzpCg/fgjVI tvjrD2w3B749tEayBWWIFvPBuYbRxRgk2/J08ZxydKKFIe4+4+b2PcfAwlqrlLYGsrDrJ6mkuf0s 7n8Fy1s6d+k+zfSOMgOEMDvY1KzwdI5mOL/klDfb7k+frRSjX2iGX2if9HkN+0KEBRiHEP7gqy/A ZC3SFH/9eRhi3tEMY4jjebFo2IxBkoDSmWYOtyDEp8+4uTsV66yFUhoApSRJ1PNjoZW5+yLufwWL lS9AQxpBRqufrtzY//jfQxBT313Z9zXc01HmCPo1nnIOazsjuR77cMCMmdMQ4yazW1rKPhSd9eFl ZMycfRDGQMhrtpY14AHI22x0csUZM66i4PqptHo42IR4zdayBkYjcKfc53pRlZv7DnH7m9ZC69Ip Ynateh1mAW5usViAHtk4JhRBQF7qT1trKaWMEq2sLIwsDONkecPjJTUGWvn7kTIQABxZnRnvDmUu aSE5RjP7KIPdtj1jU1iJSf9/j6BKzd59lMFuP0V0RDMXw9OnrW0Yew8u1oKLt/+SjLZhMmJQc84D 62dk6ZnhtI8y2OmsYQRKZ5qpgTKMv6ZqWQutyrpH+ur7UAisbrH8kBZzGmVcN1JKGSPGWJdAI6UR gi5veLSgRqMvR8nRox9pHgoYB/uf/2dqIcwblLkGmiGVb7vin3yHMlOkmdGFGf5WlXEJcY5m9rPR r0uYsSgKrJ/f5/ZWRBk3Jq2ZaaYeylD+piLAizZD6fVqM1xgdYPlOoWCSAAAGAhJREFUsrQyPfvR 8g5lXDcyRiklxlgXIYvcKGWFoMtbHsZUa+shLI71DeNQhqO74n0Xf5TpYA6CKwPAOaS6wOOI50sP dvE+tAIBRAAU8LaswqCD0Nb4727eGQ2N0uHZrcTXc5SpKJBsOjjbLyWQIF7AAnk6s0qTgaoV0gTx AtECWXJdncE4FgsEYduoaK11SgznVKlyUVHSbKQRgkYL9vUhyDOzflRFNoJCQ/rLxmvx09xFhIE9 oiawkNS5hlt9BYeUbbuxRxzsuuO6vU9Xgro9zdhLqUBvzZltpsPjkLzSzIhdMZAvqYWSSLZdGllL CaSIY8DM1pLV1p5DczlNES8AWxpBXz7EMMQLhFFnw95aK5UR/A3NAJDSyCcjAhrF7NuPIEv1+i8t Czv8a/ftYDZ/iTuUwNgOgsslCzPnVhEuoOSlFVf42BM9vWIlAVvWmzF6Yn0ytDBjD887Jzu/0szl CjNKIkkOVAjsgGYKAIhiWPTy+9fQlESaII4vX9+iDPECUdR9VLTmMM0AcBnBQUijmH//jaVbvX7U 4+bQjN74SyjEdLSZEYWZUzSjSmecljTjszDTN6cqBUIQCBQtKhBehTBDTo1D7M6FaX2BwoxSSJN+ jaxlAUIQRcBMM02BW0lkQLQA7GW6jlOKeIEo7nGKnaAZAEVuiqIIAhoteLxg6Vavn4YDGt+EGf4u 9LS/j8sWZk53sdZgBJyX8v5FtaFOxEgJISACyMLresojCjP2UD2o/XnnaCYIUeQw5nKEGa2RbpHn Q0wuRzBRDGsPeF3N7WwwxG63zhHhJdEMoYhjRPEQdcWssUoZzihjVGvz8RUUuZFFEYQsWrBoSZON 3jzpKzxBxj9Gw0loMx5mzLysIq7cQhua8UqYIZ2KMVX6pD3NXLwwYyuMQ1clvchHy0bv8C1oXSox Q4amIn/VZmaaaTAIXb8RIIzLc/KThxiCKEa8GLQ4qjFWwXBOgUM0UxZS0kWuw4gtVmyxYtu13jzp vrfpvRJm+MHo0/JWrsqV6WNTXdCMJ/OW9NOplWgmgAhQFP6eCxszY8aen3dKgqMkwumerXMekGfr xPTUnJYQRmWK8dzexYcqE6AoAIIwLulw0hATxWfqxPRIM8rRDNHaHlt2s1TnmQ4jtrxhy5W/zpQd vpSXsMCPBUT/tRlvhZlOaGZcYYZgfFVDFju7xEYbChcuzFR7NCXBBUQANdJuXZu3UHpApv1wWOUR lWelNpNhpplmXVjqW+E0d+v2jaxHZXqrtOGMAuYYzbwATZGbMGI7Z0q9XeuePmbGFWb2Gz8RgNrc zZULMwCUBmdgHHpS2swwEFNxeLiV2Jk/+9mHowkztmrHuj7kk9JmrEGWVS12N0BzJ4qjGJmdq+e9 HYR1iND1ISa0W0cQhogXvvjEGW01DDtHM4570kTlGYlidvuZL2/Z5kklazNkFB1GDXkJd/z0YuO5 NuOzMAMLrcEYWFNjl4GFmeGUGFujB5SEaEozlyzM1HkuJcEDiAAyH2E613oLzj4pSfo/jV9zYGQp CEG0QJrMVfn3VpE63ZhnILtMav/1rSDEYgEu/LorrS1gGKMWxmh7VshJtirLdBSzuy9idWvXTyrd dAw0nlTMO+PBREkrWLgwV6Z3xgVVns5aUApKG35fDuNjQABKBlr1OYfdGRdUvKIxYAyUNenDi3Rl emcnWeWpjQZlYGwcnaPiTMkzbJ4Hyu39aFxQhQgZQxhC64s7n9h0LjNeT2JRCpQgjGCMv+cTgwCr kx6Q3c7rj8YFZ2cKAM5oRaeX0shpDGfKYcIvpWAMZ/KwXdE8nz9trd/XeKnt0Uyi7DFi2qEhpk0f SglCIILat3oxS077vSFVAGjSh528wbMQ8/gXNusBbStsk2mdpVBq/LQJfyZmg5ZlkBKRN7s27wD3 9hNuP0EIr3tea6u14ZxSSqr/le1arZ8KWHz+Lr79FNGis1NYPnhM0orjlZLhxrp3KIOjB0Zq0Az1 a+q6+s4jrGqNhofLFmxGM5fJ07bJvHOqPvemD90B3ae/sH4eYdeGNLrhLIXWiAf5ZL/UlqVQElE1 w8VhGhe4vcPdZwTBNPpQa6u1rUUzALSym7XcPElC8OVefPspwpj0Ops6CDXVfoFWnMDWY23Gen8N a6FVQ5rpHAcJAaXTSyJ5pRlR7+ZnYWa/K5QEGYNmPr6FosDzI56fRkukbXy0ME12NENx1a3FEMpS aIXYA5rhHDd3uPuEIJxY92ttjKlNMwCUMptnuXmWjOHrQ/DthwiiyScV0uoTuFla6EUJM7b50zma oeNqMwRkbIh5d/Vaw6OkGeqj/DsoT1dIRbf2JM2QMbUZWeDpEc+PHXhZt5oLTR/f0Yw1M820aq80 M5K+xRhWt7j7jDCc6vkApRrSDAAlzfpJbteScXz7EXx54CIk7aZUpZjfEzSfSft9F0ibZQFfTOql k5TfLRJ1FQLGAFL7C7ttH5LyPBrG9hfk7DXtt9mjGQPGwWi9vIqLyUAnBIyD4HzW5IlHtgaMg7Kh j2drhc0ayXZ8u9AGab8fVgJwjiCYWLWFblGgbtrvx/HAOYJw6GqilGG5wuqmtsTb/XSun/b7IR5a Qghj1NgmX1RG2yI3xtgwYqtbLgRRynru5nsgJDLU+6YwjbSZyxFmWj+dtVAKjA4qq5YQ48lnB2k7 PJyuQGnp/3x1woztYGRaC1WAkOHOmiqFzTMe/0JRXMjbKrUZi3hxIWf+h+9G14fGIF4OpG9RiuUK n7/0awM5ljZDmj5SkZvnpyLZyCCm338Gn79xLpr81IjCDPsf/1FvkbONUoAvQ5g5qMo0e0DGaq/i pFG3E3q4hMyIX3L4oCg0gGNrwTkIqXGk82KEmfIwtmn71E6bIbRfjURrJFskW7+Ky3EBQjqobqIU hIAQ11g6j/G2qsxLH3IOEULLHr97nZH16haBT0cH2qsyL9oMJYQx2uaXtLZFrq1FtGDLW8Y5pLT+ 19V0qkxtlPGZZqaCMu4X6tJMrUscg5jxUYYfQJlhaOZiNjpr8cfpp7a2R5pxRtbbjY/LvDsK10Gh Ngt9rTTTFcqUNCMg+tmtIwTxEje3CPzLiekKZUqaoW1pBoBWtsg1gGjJlreMMqiixg0OL8zsoQyG oJkLWEjoSfhoQDOUgXRNM6chZnSa2S+R13J4+EkzQ6AM606OsjuaIV2WLDPGX4gpUUaA0G5qzrqM /iAAD67LpKlDlAGgdg6ySnW2WUsI4gVubv1N7O0QZd7STNsfVMoWmQYQL9nyhlEKWbT91Z5eQZNc mTe9Zus5J192xkyzcG90Wce2q1W0CsT42ZoND2MgJRjzqGbP5BJArYGSoKybvBljkGzx+CfS1G/P E9vxXE62AC4qA2P4N5ImAEG87KAPnZH1py9Yrq6rApDWBgDnrH0fOmfK50dZ5GZ1y+7/LVjdMVIB GUapmLdTZRpdv642M3Vhhp7bEmqWEM0ZKpagPnqJRqesRwm5x1SZxsOj7MMj+1YXKcw0EFHOPLUF Wmszzsh6u56GWSAXoKRLEcVVwgyC0kF2VmUa9qGCEOC8uZ7njKxXt4jiCRyV71aV2XWjpZRSSrv5 WQslTZEbSsnihi9WDLCqsI3fTk+qTCuUaXBzk6aZzlFmfyWuSDMfL0GaVsgYBWXYSeYYgGYuYKOz e5RxfdiUZkr7pLW/BuaHUYZ2vB/0QjOUXUXejDvPLzvvQwXRlAiDEDe3iOPJ1PvpA2W6p5nSPcYU hWGMLG/4YsWstUpaH4SZDyjT+Pp1ltJhvonHQpmBaeYVYkhXo2KSKOMhzfiGMrVoBpUrC1uLPMd2 jTyfWG0VLkBZ96kt1kIbBAHYFdAM4+C8exHOWhgNEYCxGjTz6gE5qaKFPaHMHs0QY2yHr+a9M6WF PgI0g+X/docyAEiNnabpfhb3hDLuN937qEIzhBxSYiYizLBztNGKZkglIpy6MNMTyrzSjDhPM84+ abMeyMi6F5QhvWTpWgNtEISXTzOMty0zeIpmFIKoEs0IgZtbLJaT9PjsD2V6opl9oOGCLm94tKBG 44RC03sfEjCGt9mStmEAthaGgJArrXr5EUoaNFe7lnFAnRItul2G7VSzhI/0oSpD20t/dvuOrmFk GgOokjgPriLOPiJJriUjpNk4zBJEC4QR8uxiH7M8LNlTHxqkCeIFwghZepRHF8vJGECOMuWV0pwz IaiUHdeH0dpu15JzEi34l3tR5Gb9qPLUvvucs0dGTltU+PDTvMNec9rMWf4bYCGxI0kOrQcH2BGa OQ8xl0IlLYeHViAVaGaIB5nsCzEvVP2BZooCaXJdR46bNaWQpYhiABdLM31/uGqNNEEcI4rf0wzn iJd+FbtruVr1STOGc8o5Vcr0MM7t5llyQeMF+/oQFJl5flRFNoKkwTsMwNVpZv78PU0znEOqUuHv XIkZecXtf2yoCtrMLMxUpRlb9qEskCajGkBOjmYkMiCKAYs8v9Qh1TvNZCmiBUJbEiHjWCx8LHbX Rl/oedbbXmkGpTOlEYJGC/btR5Clev2oZW6HFGZ4171WiWZmYeb07HU5H67wZY2OmoQOQM6Hv/bD QymAQAhY22Xlt+sRZhzNEAImoBTWz9M4Yu0hzeRAGMMCxSXSzAAZBUojyxDFoAyMIozmyj2NaEYb znqkGQBSGvlkREDjBf/+k2WJXj9qWQwkbPDOA/CszbRfjLUG5+CiNIztHdsvK2PmZRUBRxCgKA7T zCzMnG15tttguvocuBbxHSCIIsB6Y6XZ4YfJIMeFjAaluPkCoy8wQ2uYuWWNVeidZgDIwkhZBAGN Yv79N5Zu9PpJy0NJwd0KM70USa1CM7Mwc/TtEIBA6/KsY70y3o0Ttz3rqE6Gh1IgBCKALEbTZiaK iVohTUshIQgRxaWp+9waBXcQgjCExaWJW30vw5QijhFFIBRalQWp53zzNjQjOGWMuqLA/Q2LIjey KIKQRQsWLWmy0esn/fHFdXhUiPcUgGdtpsFiTN6WxNFqp83IC/osHvZBpIQQR2lmFmYOQIxGlqLY qxPjgCZaIEtmmmnYXB+GIWAvK9+ot+lMKOLoTcVeo6Ew00xrmlGGcwr0TDNl5Uxd5DoI2WLFFiu2 XevNk+74NMYulPH+ovlZmpmcMNPjKnwkt1c5muF1DGNnYeYjzQRjajNTEWaMQZYcLnZX5CBAFCNN 51WkOc0QIIhgcUFHwHqIiYQgihAfKnZnNDQ5VSlgbhWmuVXKMEYBonXvX5YvQBNGbHnDliu2WevN k34JxV0JM7zXAHxh2gypOXMrLcbnDig5mmECWs5le5rSTFHSTPFhnZ6FGezsk04Xu8tzhARxjDQZ +ZT7dFueAwRhBGA+0H4YYsIIcXyq2J0jGMbLosBza0YzgGGMWhijh1hUnDNlnpsoYje3bLlim2e9 Xetuvi3JDmV6jebux4/RzLSEGdv1vK14W0qBC7DqO00eCzPds2AdmnFZwMMTobfCjDHIM2TVXKzz DGGEeDHTTAuayQAgjICLyD3qKu2XEAQhFotKFXsdzXABhZlmWtAMMYxSDEUzAKyxaaLyjIQxu/3M lrds86S2a4MujsKxf/+P3bJ6nHc6WL0IKDl6vnwANaWTi1QxLqj0gK5KZp17shaUgtLK+pavrkwu VFWH8Q6HhzVgDIwduPq0XJlaWli/jKg8w3ZTLxFVKzAOEcDoaWuEnHdvJ1m9DylFEMKYql5Xfrau jAvCEKubeh6Qrt+4qOpb5zMLit6MC85GABAwSoFB+9BaKGny3DD66kzZ5sx26cH07/9xMpp3F4Bd qbexaKaTR+kEZRqXvLMWlIHSymuYlzRTF2W6HR7mCM1My5WpJco4+6TtpqFApTUYgwjq5G/NKPO2 KUczEydCxsHaOWMHAW5uDqfF1KAZM+E+HBFl8Or9NzTNuNcnCyPz0plysaTGNDRycihzbgR193hO TqBXmZfwHmJsw9/RCthlvc2tWR+6yCvEG3y5kiQkZ2T9/IRk24qE8gwwDVegubmWpVAKYTxJE8T2 TQS4+4Tbu/JEUrOmFbQGD+Zx2KIPtTXGMEbpsGuzC79a2+1aPT8W1uLLd3H/m4iXtNmHJR0ymh+j mQEubTuhMtvwnR1QYlrQDKHVaMYO+ZRDsGBXv6YkCHlPM0M8yKh9WORYPyHZdJBeYC2yDMCUacaD b6o8g9ZlHdsrghiB2zvc3ZXWIm1XYgmjwcVAxfpmmunlBpTdPMv1Y0EIvt6L7z9FtKj9Oiv8hU4D 8NS1mVqdQernxHRMM3M7QTP0Dc1csDAjC6yfsd10matrbenwFy3mVaR5H+YptK6XJjLdxjlub3H3 qWMvayVhDMRMM21pxg5MM+++JJWy6ye5fpKU4tuD+P5ThFGNm6EDqyPHaGYqwgyp/OfOQ0xj1cSW mYPnaWYWZo6NBAtVlDTjLQq3/xUpsX7CZt1LEQ5HMwSI49kWp1Uf6onu1lUeh5zjxkFM2MuNOJrh Yh6HbWjGWGsZo2Q8mkHpTCk3z5JzfP8ZfPvBg7DS/dBuh2wtmhl+2A2zQhP6/tE6v66rIk9nbaZl HzqaCQZF+WGaktg8Y/Pc74nfkmYI4sW8irTowwTaIIqnpitUeOOMYXWDu08Ie/ayVhLWQgTzOGzR h8pYazmjZOxOlIV5fpTbtQwCcv9b8PWei+DMLb2eYDoBSnXkiBpUQT8ckvb8IMnZE0xlTgypc9F2 zp2MgZBzRzp9OsrU4ARTT8OjzMA2YHvnwiZxlIkykOMH2ZRCskWaDFfaWGsIASamVIB13BNMB/pQ gQvwSfWhOwx47AQTpVgusboZLinNaBAGxqd0xH3cE0wH+tBYSgljdLA7OmmiYvPMGG2jmN3ccS6I lPZgKY0KJ5j6FDSMBcHEUi/taYgZtP9gLZQGoVM6BOHh1pWSoKzcaZq0MKMVthusn4b2LLQGeQZG EM07TS3GYZoAFtGE9C1yCmI+fxlhPLgionzWZtprM3x8bca1IjfPj0WyUdGC/vglPn/jnJNKqsxg wkypzdDJCDPlQQNbAWKGEmbczVAGnC4V5Y0w00aV6UmYcQsJ46AExkxAmGEfVBmtkSZItqMV4bUW WiMIwNg0dAXmmSpTriIaQpSea1NUZQjFIsbqBsF4MGEMGAVl09BmfFNlRtFmqgwVrWyRaWsRL9jq jjEGWZTd9r5EXqWf7oNm7Bua8XkhIW9R5pQSQ+r86/Ym5CiTZjqnmStBGQeCnIMQaO178d99lDEa aYp0O/7i90IzlE3AYMgdePHuPi20Ag+mQTP7KOPypW5uEITjKyKuEuYkaMZPlHmhGUqpV/emlM0z TYB4yVa3jFJIacuheBBlhhRmSpohE6CZF5SpVLF3MGHmhWZOp/L4Icww1rbWeK80wzjIUNtMpEUf EgqlkKVIth5Z+VgLbXY04/dKzISPqgx25xNFAOY9zTiUUQpxjJub3hN763WjAeV1aqPPKDMqzdQa OUraPNeEYLliyxtGCLS2NVGmP5rZO57tM8qQ1hcg/fTqqzZjO6aZzlGmpX9QXyiz60N+Vt8aG2Uo Levd+bkSmynQjPAVZV5optyt89gukXHEC8QxwsjHs1eOZpjfNOMzygCw1lJKfdNmHDEoaYvcUEoW NyxaMHp6aRyUAZ3aMdSlbf0xV++8ve3zbg5DNLQuPzdH7KiK1DXWXz/9dEZDqdJcxrcRiN3h580z 8szfDGWtkWfgHGHk7xLieX63MUhTUIYg8tRUPYxwe4d46e+ZA1dtAaT8OJlbQ6rWGgBjrG+JocHv G2OTjXr6QyppGrh49dtxlAw0c6s/B6EgrLOA0msINRpalymNQ197JFmllz4cimbqQszTX0i2ld3R x6WZHEJ4TTOeN6ORJWDMuz4MQtx9xuq21IA9X4ld7Sgu5gHVnmY8U94srIE1MMamieann2H4k9IG oARmqMudeT7argdsHQCy3dCSc9ihHFZ1lvVmO/0ybP9B3O3I/Ph0rg9dJnWvCn+VjnX2SVnq9V7D AZpRKIAgLO/fxxjtfx9qZAmiGGGEPBv/fkSAxfItFnh/5tnRDA/AxQSy0X2mGcYY51SpHhdnQqqu Dta8n8C8YQwgPfaaIaBkiE9PezIP9+Purx3guh19zxGUaYPvacaOH30mUfLBaBAnTVtoM1oEkQXS dEpl0/aby5Vxter9pJkJEKFGlo1PM0IgXr7WxZ7cSjzTzMXQzEeIce3/Ax2f/Sk3AudXAAAAAElF TkSuQmCC "
       preserveAspectRatio="none"
       height="31.75"
       width="198.4375"
       transform="scale(-1,1)" />
    <path
       style="opacity:0.07999998;fill:url(#pattern5725);fill-opacity:1;stroke:none;stroke-width:0.26458335;stroke-linecap:round;stroke-linejoin:round;stroke-miterlimit:4;stroke-dasharray:none;stroke-dashoffset:0;stroke-opacity:1;paint-order:fill markers stroke"
       d="M 57.149999,0 H 198.4375 v 31.75 h -82.02082 z"
       id="rect5723"
       inkscape:connector-curvature="0"
       sodipodi:nodetypes="ccccc" />
    <g
       id="g10126"
       clip-path="url(#clipPath10130)">
      <path
         inkscape:connector-curvature="0"
         d="m 181.23242,-2.4993139 a 1.5567869,1.5567869 0 0 0 -1.55676,1.556794 v 9.2442051 a 14.0609,14.0609 0 0 0 9.34074,13.2326808 v 3.988483 h -6.22719 c -1.75907,0 -3.11355,1.525654 -3.11355,3.113585 V 31.75 h 28.02215 v -3.113566 c 0,-1.818331 -1.48204,-3.113585 -3.11353,-3.113585 h -6.22721 v -3.988483 a 14.0609,14.0609 0 0 0 9.34074,-13.2326808 v -9.2442051 a 1.5567869,1.5567869 0 0 0 -3.11353,0 c 0,0.214883 0.0233,0.398537 0.0942,0.58529 V 8.2985013 A 10.962893,10.962893 0 0 1 193.68742,19.295651 c -6.08377,0 -10.90064,-4.878967 -10.90064,-10.9940252 v -9.2441847 a 1.5567869,1.5567869 0 0 0 -1.55674,-1.556792 z M 193.6868,-14.994073 c 4.31223,0 7.7838,3.471626 7.7838,7.783926 V 8.3982042 c 0,4.3123008 -3.47157,7.7839258 -7.7838,7.7839258 A 7.768367,7.768367 0 0 1 185.90287,8.3982042 V -7.210147 c 0,-4.3123 3.47165,-7.783926 7.78393,-7.783926 z"
         style="color:#bebebe;font-weight:400;line-height:normal;font-family:Sans;-inkscape-font-specification:Sans;text-indent:0;text-align:start;text-decoration:none;text-decoration-line:none;text-transform:none;overflow:visible;fill:#ffffff;fill-opacity:0.11764706;stroke-width:3.11357403;marker:none"
         font-weight="400"
         overflow="visible"
         id="use16751" />
      <use
         height="100%"
         width="100%"
         transform="matrix(0.59399677,0,0,0.59399677,53.497129,12.890603)"
         id="use16753"
         xlink:href="#use16751"
         y="0"
         x="0" />
    </g>
    <text
       id="text1068-3"
       y="9.5919847"
       x="4.9106669"
       style="font-style:normal;font-variant:normal;font-weight:normal;font-stretch:normal;font-size:6.3499999px;line-height:1.25;font-family:Overpass;-inkscape-font-specification:'Overpass, Normal';font-variant-ligatures:normal;font-variant-caps:normal;font-variant-numeric:normal;font-feature-settings:normal;text-align:start;letter-spacing:0px;word-spacing:0px;writing-mode:lr-tb;text-anchor:start;fill:#ffffff;fill-opacity:1;stroke:none;stroke-width:1.2470845"
       xml:space="preserve"><tspan
         id="tspan1070-6"
         style="font-style:normal;font-variant:normal;font-weight:bold;font-stretch:normal;font-size:6.3499999px;font-family:Overpass;-inkscape-font-specification:'Overpass Bold';font-variant-ligatures:normal;font-variant-caps:normal;font-variant-numeric:normal;font-feature-settings:normal;text-align:start;writing-mode:lr-tb;text-anchor:start;fill:#ffffff;stroke-width:1.2470845"
         y="9.5919847"
         x="4.9106669"
         sodipodi:role="line">CentOS Promotion SIG</tspan></text>
    <flowRoot
       transform="matrix(0.26458334,0,0,0.26458334,-2.9915557,-4.2054205)"
       style="font-style:normal;font-variant:normal;font-weight:normal;font-stretch:normal;font-size:14.66666698px;line-height:1.25;font-family:sans-serif;-inkscape-font-specification:'sans-serif, Normal';font-variant-ligatures:normal;font-variant-caps:normal;font-variant-numeric:normal;font-feature-settings:normal;text-align:start;letter-spacing:0px;word-spacing:0px;writing-mode:lr-tb;text-anchor:start;fill:#ffffff;fill-opacity:1;stroke:none"
       id="flowRoot1096-7"
       xml:space="preserve"><flowRegion
         style="font-style:normal;font-variant:normal;font-weight:normal;font-stretch:normal;font-size:14.66666698px;font-family:sans-serif;-inkscape-font-specification:'sans-serif, Normal';font-variant-ligatures:normal;font-variant-caps:normal;font-variant-numeric:normal;font-feature-settings:normal;text-align:start;writing-mode:lr-tb;text-anchor:start;fill:#ffffff"
         id="flowRegion1098-5"><rect
           style="font-style:normal;font-variant:normal;font-weight:normal;font-stretch:normal;font-size:14.66666698px;font-family:sans-serif;-inkscape-font-specification:'sans-serif, Normal';font-variant-ligatures:normal;font-variant-caps:normal;font-variant-numeric:normal;font-feature-settings:normal;text-align:start;writing-mode:lr-tb;text-anchor:start;fill:#ffffff"
           y="61.75"
           x="30"
           height="59.144501"
           width="723.3067"
           id="rect1100-3" /></flowRegion><flowPara
         style="font-style:normal;font-variant:normal;font-weight:normal;font-stretch:normal;font-size:13.33333302px;font-family:Overpass;-inkscape-font-specification:Overpass;text-align:start;text-anchor:start"
         id="flowPara3028">Provides promotion, and consistent messaging, of CentOS, both at physical events and online. </flowPara></flowRoot>    <text
       id="text1047-2"
       y="29.961416"
       x="196.5098"
       style="font-style:normal;font-variant:normal;font-weight:normal;font-stretch:normal;font-size:2.34971213px;line-height:1.25;font-family:Overpass;-inkscape-font-specification:'Overpass, Normal';font-variant-ligatures:normal;font-variant-caps:normal;font-variant-numeric:normal;font-feature-settings:normal;text-align:end;letter-spacing:0px;word-spacing:0px;writing-mode:lr-tb;text-anchor:end;fill:#ffffff;fill-opacity:0.2745098;stroke:none;stroke-width:0.26458335"
       xml:space="preserve"><tspan
         style="font-style:normal;font-variant:normal;font-weight:normal;font-stretch:normal;font-size:3.52777791px;font-family:Overpass;-inkscape-font-specification:'Overpass Ultra-Light';text-align:end;text-anchor:end;fill:#ffffff;fill-opacity:0.2745098;stroke-width:0.26458335"
         y="29.961416"
         x="196.5098"
         id="tspan1045-9"
         sodipodi:role="line">https://wiki.centos.org/SpecialInterestGroup/Promo</tspan></text>
  </g>
</svg>
